name,symbol
Australian Dollar,	/6A...
British Pound Sterling,	/6B...
Canadian Dollar,	/6C...
E-Micro AUD/USD,	/M6A...
E-Micro GBP/USD,	/M6B...
E-Micro EUR/USD,	/M6E...
E-Mini Japanese Yen,	/J7...
Euro FX,	/6E...
Japanese Yen,	/6J...
Mexican Peso,	/6M...
E-Mini Euro FX,	/E7...
New Zealand Dollar,	/6N...
Swiss Franc,	/6S...
US Dollar Index,	/DX...
2yr Note,	/ZT...
5yr Note,	/ZF...
10yr Note,	/ZN...
30yr Bond,	/ZB...
Eurodollar,	/GE...
Fed Funds,	/ZQ...
1 Month Eurodollar,	/GLB...
Ultra Bond,	/UB...
COMEX Gold,	/GC...
COMEX Silver,	/SI...
COMEX Copper,	/HG...
Mini Gold,	/YG...
Mini Silver,	/YI...
Platinum,	/PL...
Palladium,	/PA...
Corn,	/ZC...
E-Mini Corn Futures,	/XC
E-Mini Wheat Futures,	/XW
E-Mini Soybean Futures,	/XK
Oats,	/ZO...
Soybeans,	/ZS...
Soy bean Meal,	/ZM...
Soy bean Oil,	/ZL...
Wheat,	/ZW...
E-Mini NASDAQ 100,	/NQ...
E-Mini Russell 2000,	/TF...
E-Mini S&P 500,	/ES...
E-Mini S&P MidCap 400,	/EMD...
E-Mini DOW,	/YM...
Nikkei 225,	/NKD...
CBOE Volatility Index(VIX),	/VX
Brent Crude Oil,	/BZ
E-Mini Natural Gas,	/QG...
Gasoline,	/RB...
Heating Oil,	/HO...
Light Sweet Crude Oil,	/CL...
Natural Gas,	/NG...
NYMEX miNY Light Sweet Crude Oil,	/QM...
Cocoa,	/CC...
Coffee,	/KC...
Cotton,	/CT...
Orange Juice,	/OJ...
Sugar,	/SB...
Random Length Lumber,	/LBS...
Feeder Cattle,	/GF...
Lean Hogs,	/HE...
Live Cattle,	/LE...
