﻿Watchlist 'FUTURES'

FUTURES
Symbol,High,Low,Open,Close
/ES[Z5],1878.00,1874.00,1875.00,1874.50
/TF[Z5],0,0,0,1078.4
/NQ[Z5],4082.25,4073.25,4078.75,4074.75
/YM[Z5],15977,15947,15948,15949
/GC[Z5],1127.5,1125.1,1127.2,1126.8
/YG[Z5],0,0,0,1126.8
/SI[Z5],14.610,14.570,14.605,14.573
/YI[Z5],0,0,0,14.573
/PL[F6],920.0,916.1,918.0,918.1
/PA[Z5],658.60,654.40,658.60,657.70
/HG[Z5],2.2600,2.2570,2.2570,2.2515
/ZC[Z5],0,0,0,389.00
/ZW[Z5],0,0,0,503.75
/ZS[X5],0,0,0,884.25
/ZM[Z5],0,0,0,305.5
/ZL[Z5],0,0,0,27.69
/ZO[Z5],0,0,0,226.50
/ZQ[X5],99.840,99.840,99.840,99.835
/GE[Z5],99.600,99.595,99.600,99.600
/GLB[H6],0,0,0,99.6125
/EMD[Z5],1344.7,1343.4,1344.1,1343.6
/NKD[Z5],17345,17295,17305,17275
/DX[Z5],0,0,0,95.993
/6A[Z5],.6978,.6960,.6962,.6955
/6B[Z5],1.5157,1.5146,1.5147,1.5152
/6C[Z5],.7449,.7444,.7446,.7446
/6E[Z5],1.1271,1.1261,1.1263,1.1272
/E7[Z5],1.1271,1.1262,1.1263,1.1272
/6J[Z5],.0083585,.0083485,.0083565,.008365
/J7[Z5],.008356,.008350,.008356,.008365
/6M[Z5],.05843,.05836,.05836,.05827
/6N[Z5],.6320,.6306,.6314,.6308
/6S[Z5],1.0328,1.0320,1.0328,1.0329
/CL[X5],44.94,44.83,44.92,45.23
/QM[X5],44.950,44.850,44.850,45.225
/RB[X5],1.3420,1.3377,1.3420,1.3495
/HO[X5],1.5250,1.5219,1.5250,1.5251
/NG[X5],2.589,2.583,2.585,2.586
/QG[X5],2.590,2.585,2.585,2.585
/UB[Z5],161'03,160'30,161'03,161'03
/ZB[Z5],157'28,157'22,157'27,157'29
/ZN[Z5],128'255,128'225,128'250,128'260
/ZF[Z5],120'160,120'145,120'157,120'175
/ZT[Z5],109'170,109'167,109'170,109'175
/CC[Z5],0,0,0,3182
/CT[Z5],0,0,0,61.00
/SB[H6],0,0,0,12.46
/OJ[X5],0,0,0,106.20
/KC[Z5],0,0,0,120.85
/M6A[Z5],.6978,.6961,.6962,.6955
/M6B[Z5],1.5154,1.5143,1.5146,1.5152
/M6E[Z5],1.1272,1.1261,1.1263,1.1272
/LBS[X5],224.4,224.4,224.4,220.4
/HE[V5],0,0,0,73.250
/GF[V5],0,0,0,180.825
/LE[V5],0,0,0,129.175
/VX[V5],23.95,23.83,23.88,23.875
/XC[Z5],0,0,0,389.000
/XW[Z5],0,0,0,503.750
/XK[X5],0,0,0,884.250
/BZ[X5],47.95,47.93,47.93,48.23
/KE[Z5],0,0,0,494.75
