﻿Watchlist 'FUTURES'

FUTURES
Symbol,High,Low,Open,Close
/ES[Z5],2012.25,2009.75,2012.00,2010.90
/TF[Z5],1162.5,1161.0,1161.9,1161.3
/NQ[Z5],4377.25,4371.75,4377.00,4375.00
/YM[Z5],17054,17033,17051,17040
/GC[Z5],1163.6,1160.6,1162.8,1164.5
/YG[Z5],1163.4,1161.2,1161.9,1164.5
/SI[Z5],15.870,15.790,15.815,15.864
/YI[Z5],15.804,15.784,15.784,15.864
/PL[F6],998.0,989.3,996.7,995.9
/PA[Z5],695.70,689.00,695.70,694.65
/HG[Z5],2.4135,2.4085,2.4085,2.4155
/ZC[Z5],381.50,380.75,381.00,380.75
/ZW[Z5],507.25,506.75,506.75,506.75
/ZS[X5],887.00,886.00,886.25,887.50
/ZM[Z5],309.6,309.0,309.4,309.5
/ZL[Z5],28.21,28.13,28.14,28.18
/ZO[Z5],230.00,229.75,229.75,228.50
/ZQ[X5],0,0,0,99.850
/GE[Z5],99.610,99.610,99.610,99.605
/GLB[H6],0,0,0,99.6225
/EMD[Z5],1439.9,1439.9,1439.9,1437.7
/NKD[Z5],18430,18370,18425,18425
/DX[Z5],94.965,94.910,94.960,94.765
/6A[Z5],.7340,.7318,.7339,.7350
/6B[Z5],1.5341,1.5330,1.5337,1.5354
/6C[Z5],.7692,.7682,.7689,.7710
/6E[Z5],1.1370,1.1362,1.1367,1.1388
/E7[Z5],1.1369,1.1363,1.1369,1.1388
/6J[Z5],.008343,.008334,.0083375,.0083445
/J7[Z5],.008341,.008335,.008336,.008344
/6M[Z5],.06049,.06043,.06048,.06054
/6N[Z5],.6690,.6668,.6690,.6703
/6S[Z5],1.0413,1.0406,1.0411,1.0430
/CL[X5],47.72,47.45,47.46,47.10
/QM[X5],47.725,47.425,47.425,47.100
/RB[X5],1.3574,1.3497,1.3550,1.3411
/HO[X5],1.5187,1.5077,1.5156,1.5024
/NG[X5],2.547,2.539,2.544,2.535
/QG[X5],2.555,2.530,2.530,2.535
/UB[Z5],160'17,160'08,160'13,160'18
/ZB[Z5],157'26,157'18,157'25,157'26
/ZN[Z5],128'250,128'215,128'250,128'245
/ZF[Z5],120'180,120'155,120'180,120'172
/ZT[Z5],109'182,109'177,109'182,109'177
/CC[Z5],0,0,0,3074
/CT[Z5],0,0,0,61.69
/SB[H6],0,0,0,14.24
/OJ[X5],0,0,0,117.40
/KC[Z5],0,0,0,134.50
/M6A[Z5],.7339,.7319,.7338,.7350
/M6B[Z5],1.5340,1.5335,1.5336,1.5354
/M6E[Z5],1.1371,1.1363,1.1369,1.1388
/LBS[X5],256.7,252.5,253.1,254.4
/HE[V5],0,0,0,74.300
/GF[V5],0,0,0,189.375
/LE[Z5],0,0,0,137.575
/VX[V5],16.85,16.60,16.70,16.725
/XC[Z5],381.250,380.250,380.250,380.750
/XW[Z5],505.000,504.875,504.875,506.750
/XK[X5],887.000,885.625,886.000,887.500
/BZ[Z5],50.83,50.79,50.80,50.25
/KE[Z5],498.75,497.75,497.75,497.75
