﻿Watchlist 'FUTURES'

FUTURES
Symbol,High,Low,Open,Close
/ES[U5],1944.00,1933.00,1943.75,1942.75
/TF[U5],1146.5,1144.0,1144.1,1147.7
/NQ[U5],4259.00,4231.50,4259.00,4255.00
/YM[U5],16281,16196,16281,16270
/GC[Z5],1107.1,1105.1,1105.7,1102.0
/YG[Z5],1107.9,1106.7,1107.1,1102.0
/SI[Z5],14.610,14.570,14.590,14.576
/YI[Z5],14.605,14.602,14.604,14.576
/PL[V5],985.0,980.7,982.5,981.2
/PA[Z5],578.30,577.70,577.70,577.95
/HG[Z5],2.4280,2.4230,2.4235,2.4365
/ZC[Z5],368.75,368.00,368.75,369.00
/ZW[Z5],473.00,471.50,472.25,472.25
/ZS[X5],872.00,870.00,871.50,872.25
/ZM[Z5],308.8,307.8,308.3,308.3
/ZL[Z5],26.86,26.78,26.82,26.90
/ZO[Z5],236.75,234.00,234.00,233.25
/ZQ[X5],0,0,0,99.760
/GE[U5],99.6625,99.660,99.660,99.6575
/GLB[U5],0,0,0,99.7775
/EMD[U5],1401.3,1398.3,1400.1,1404.4
/NKD[Z5],18340,18055,18335,18215
/DX[Z5],96.100,95.935,96.095,96.215
/6A[Z5],.6956,.6919,.6950,.6984
/6B[Z5],1.5358,1.5346,1.5356,1.5358
/6C[Z5],.7539,.7524,.7539,.7549
/6E[Z5],1.1262,1.1227,1.1229,1.1214
/E7[Z5],1.1259,1.1227,1.1229,1.1214
/6J[Z5],.0083405,.0083145,.008317,.0083045
/J7[Z5],.008337,.008316,.008320,.008304
/6M[Z5],.05891,.05849,.05885,.05898
/6N[Z5],.6263,.6215,.6254,.6349
/6S[Z5],1.0306,1.0279,1.0279,1.0302
/CL[V5],44.25,44.07,44.16,44.15
/QM[V5],44.250,44.075,44.150,44.150
/RB[V5],1.3618,1.3552,1.3556,1.3597
/HO[V5],1.5429,1.5367,1.5402,1.5386
/NG[V5],2.664,2.656,2.661,2.651
/QG[V5],2.665,2.655,2.660,2.650
/UB[Z5],158'02,157'21,157'23,158'04
/ZB[Z5],154'20,154'08,154'12,154'21
/ZN[Z5],127'145,127'085,127'090,127'140
/ZF[Z5],119'202,119'172,119'177,119'195
/ZT[Z5],109'095,109'085,109'087,109'087
/CC[Z5],0,0,0,3270
/CT[Z5],0,0,0,62.92
/SB[V5],0,0,0,11.43
/OJ[X5],0,0,0,124.40
/KC[Z5],0,0,0,121.10
/M6A[Z5],.6956,.6920,.6955,.6984
/M6B[Z5],1.5357,1.5353,1.5355,1.5358
/M6E[Z5],1.1262,1.1227,1.1233,1.1214
/LBS[X5],242.2,234.0,234.0,232.2
/HE[V5],0,0,0,68.925
/GF[V5],0,0,0,198.575
/LE[V5],0,0,0,142.975
/VX[U5],26.40,25.65,25.75,25.825
/XC[Z5],368.125,367.000,367.000,369.000
/XW[Z5],473.000,472.000,472.000,472.250
/XK[X5],872.000,870.500,872.000,872.250
/BZ[V5],0,0,0,47.58
/KE[Z5],473.00,471.75,472.00,472.50
