﻿Watchlist 'FUTURES'

FUTURES
Symbol,High,Low,Open,Close
/ES[Z5],2083.50,2077.75,2083.25,2081.50
/TF[Z5],0,0,0,1193.7
/NQ[Z5],4699.00,4688.00,4698.75,4694.50
/YM[Z5],17770,17725,17769,17758
/GC[G6],1054.2,1051.8,1053.5,1053.8
/YG[G6],0,0,0,1053.8
/SI[H6],14.000,13.950,13.975,14.009
/YI[H6],0,0,0,14.009
/PL[F6],834.3,830.3,832.4,832.4
/PA[H6],530.60,525.80,526.00,525.80
/HG[H6],2.0505,2.0445,2.0460,2.0330
/ZC[H6],0,0,0,370.25
/ZW[H6],0,0,0,467.25
/ZS[F6],0,0,0,892.25
/ZM[F6],0,0,0,286.7
/ZL[F6],0,0,0,30.57
/ZO[H6],0,0,0,235.25
/ZQ[Z5],99.780,99.780,99.780,99.785
/GE[Z5],99.520,99.520,99.520,99.5175
/GLB[H6],0,0,0,99.4775
/EMD[Z5],1458.7,1456.1,1458.0,1457.6
/NKD[Z5],19940,19860,19880,19875
/DX[Z5],0,0,0,100.020
/6A[Z5],.7301,.7282,.7297,.7300
/6B[Z5],1.4948,1.4938,1.4944,1.4937
/6C[Z5],.7493,.7488,.7488,.7482
/6E[Z5],1.0615,1.0608,1.0609,1.0619
/E7[Z5],1.0615,1.0610,1.0610,1.0619
/6J[Z5],.008116,.008111,.008113,.008119
/J7[Z5],.008116,.008110,.008110,.008119
/6M[Z5],.06032,.06025,.06025,.06018
/6N[Z5],.6638,.6627,.6634,.6629
/6S[Z5],.9821,.9808,.9821,.9818
/CL[F6],40.26,40.09,40.15,39.94
/QM[F6],40.250,40.100,40.100,39.950
/RB[F6],1.3064,1.3007,1.3010,1.2931
/HO[F6],1.3196,1.3149,1.3149,1.3049
/NG[F6],2.182,2.173,2.174,2.165
/QG[F6],2.180,2.175,2.175,2.165
/UB[H6],160'31,160'20,160'25,161'00
/ZB[H6],156'01,155'24,155'29,156'03
/ZN[H6],126'220,126'195,126'215,126'230
/ZF[H6],118'252,118'237,118'250,118'252
/ZT[H6],108'242,108'235,108'242,108'240
/CC[H6],3344,3311,3338,3333
/CT[H6],0,0,0,63.50
/SB[H6],15.62,15.06,15.48,15.34
/OJ[F6],142.75,139.45,140.75,140.50
/KC[H6],121.05,118.80,120.05,120.45
/M6A[Z5],.7300,.7280,.7297,.7300
/M6B[Z5],1.4948,1.4940,1.4946,1.4937
/M6E[Z5],1.0615,1.0608,1.0611,1.0619
/LBS[F6],244.8,243.2,243.2,240.8
/HE[Z5],0,0,0,59.350
/GF[F6],0,0,0,160.725
/LE[G6],0,0,0,131.625
/VX[Z5],16.83,16.65,16.80,16.775
/XC[H6],0,0,0,370.250
/XW[H6],0,0,0,467.250
/XK[F6],0,0,0,892.250
/BZ[F6],0,0,0,42.49
/KE[H6],0,0,0,466.00
