﻿Watchlist 'FUTURES'

FUTURES
Symbol,High,Low,Open,Close
/ES[Z5],1987.00,1984.25,1986.50,1988.00
/TF[Z5],1170.9,1170.0,1170.5,1171.2
/NQ[Z5],4378.25,4373.00,4377.25,4381.00
/YM[Z5],16661,16638,16661,16664
/GC[Z5],1120.9,1118.4,1118.7,1119.0
/YG[Z5],1120.7,1119.8,1120.0,1119.0
/SI[Z5],14.935,14.860,14.925,14.885
/YI[Z5],14.871,14.871,14.871,14.885
/PL[V5],975.6,972.1,972.4,975.7
/PA[Z5],613.00,608.65,609.40,611.95
/HG[Z5],2.4735,2.4520,2.4525,2.4520
/ZC[Z5],385.50,385.00,385.25,386.00
/ZW[Z5],488.25,487.50,488.25,488.25
/ZS[X5],887.00,886.25,886.75,887.25
/ZM[Z5],315.5,315.0,315.2,315.4
/ZL[Z5],26.87,26.82,26.83,26.89
/ZO[Z5],233.25,231.50,233.25,233.75
/ZQ[X5],0,0,0,99.755
/GE[Z5],99.495,99.485,99.485,99.490
/GLB[H6],0,0,0,99.4750
/EMD[Z5],1432.2,1431.1,1431.6,1431.9
/NKD[Z5],18470,18370,18470,18465
/DX[Z5],95.455,95.430,95.455,95.546
/6A[Z5],.7176,.7150,.7160,.7158
/6B[Z5],1.5514,1.5485,1.5488,1.5481
/6C[Z5],.7593,.7587,.7591,.7590
/6E[Z5],1.1312,1.1304,1.1307,1.1294
/E7[Z5],1.1312,1.1305,1.1308,1.1294
/6J[Z5],.008311,.008301,.0083075,.0082995
/J7[Z5],.008310,.008304,.008305,.008299
/6M[Z5],.06008,.06000,.06003,.05994
/6N[Z5],.6335,.6294,.6329,.6321
/6S[Z5],1.0339,1.0329,1.0329,1.0329
/CL[V5],47.57,47.06,47.13,47.15
/QM[V5],47.550,47.075,47.175,47.150
/RB[V5],1.3895,1.3798,1.3849,1.3821
/HO[V5],1.5572,1.5454,1.5572,1.5414
/NG[V5],2.672,2.661,2.668,2.660
/QG[V5],2.675,2.660,2.665,2.660
/UB[Z5],154'24,154'20,154'24,154'17
/ZB[Z5],152'03,151'29,152'01,151'26
/ZN[Z5],126'185,126'170,126'185,126'165
/ZF[Z5],119'075,119'065,119'075,119'065
/ZT[Z5],109'040,109'035,109'037,109'037
/CC[Z5],0,0,0,3267
/CT[Z5],0,0,0,62.71
/SB[V5],0,0,0,11.47
/OJ[X5],0,0,0,122.75
/KC[Z5],0,0,0,118.10
/M6A[Z5],.7176,.7152,.7161,.7158
/M6B[Z5],1.5516,1.5488,1.5491,1.5481
/M6E[Z5],1.1313,1.1303,1.1309,1.1294
/LBS[X5],242.6,241.5,241.5,242.5
/HE[V5],0,0,0,68.250
/GF[V5],0,0,0,188.450
/LE[V5],0,0,0,137.600
/VX[V5],19.15,18.90,19.05,18.975
/XC[Z5],386.000,385.500,386.000,386.000
/XW[Z5],488.250,488.000,488.250,488.250
/XK[X5],887.000,887.000,887.000,887.250
/BZ[X5],49.99,49.88,49.94,49.75
/KE[Z5],486.25,485.00,486.00,486.50
