﻿Watchlist 'FUTURES'

FUTURES
Symbol,High,Low,Open,Close
/ES[Z5],2026.75,2024.75,2026.50,2027.50
/TF[Z5],0,0,0,1160.9
/NQ[Z5],4452.50,4448.50,4451.50,4454.50
/YM[Z5],17102,17088,17100,17117
/GC[Z5],1171.4,1168.6,1170.6,1172.8
/YG[Z5],0,0,0,1172.8
/SI[Z5],15.855,15.770,15.830,15.841
/YI[Z5],0,0,0,15.841
/PL[F6],1017.1,1013.2,1014.5,1014.6
/PA[Z5],687.40,684.65,685.50,688.10
/HG[Z5],2.3665,2.3635,2.3645,2.3675
/ZC[Z5],0,0,0,373.00
/ZW[Z5],0,0,0,485.75
/ZS[X5],0,0,0,891.00
/ZM[Z5],0,0,0,310.8
/ZL[Z5],0,0,0,28.14
/ZO[Z5],0,0,0,227.00
/ZQ[X5],99.860,99.860,99.860,99.860
/GE[Z5],99.640,99.635,99.635,99.630
/GLB[H6],0,0,0,99.6550
/EMD[Z5],1434.2,1434.2,1434.2,1435.3
/NKD[Z5],18335,18310,18335,18340
/DX[Z5],0,0,0,94.953
/6A[Z5],.7233,.7221,.7230,.7233
/6B[Z5],1.5464,1.5455,1.5455,1.5463
/6C[Z5],.7683,.7675,.7682,.7675
/6E[Z5],1.1341,1.1335,1.1339,1.1336
/E7[Z5],1.1340,1.1336,1.1340,1.1336
/6J[Z5],.0083755,.008370,.0083735,.008376
/J7[Z5],0,0,0,.008376
/6M[Z5],.06045,.06034,.06045,.06039
/6N[Z5],.6780,.6765,.6768,.6772
/6S[Z5],1.0480,1.0473,1.0479,1.0476
/CL[Z5],46.69,46.47,46.57,46.28
/QM[Z5],46.675,46.475,46.575,46.280
/RB[X5],1.2677,1.2604,1.2645,1.2514
/HO[X5],1.4628,1.4565,1.4579,1.4491
/NG[X5],2.462,2.448,2.453,2.442
/QG[X5],2.455,2.450,2.450,2.442
/UB[Z5],161'07,161'03,161'03,161'02
/ZB[Z5],158'18,158'12,158'14,158'12
/ZN[Z5],129'015,128'310,128'315,128'310
/ZF[Z5],120'240,120'232,120'240,120'227
/ZT[Z5],109'210,109'205,109'207,109'202
/CC[Z5],3172,3110,3110,3169
/CT[Z5],0,0,0,63.24
/SB[H6],14.40,14.12,14.20,14.26
/OJ[X5],141.30,134.95,135.00,138.55
/KC[Z5],126.20,123.50,126.10,123.90
/M6A[Z5],.7234,.7223,.7229,.7233
/M6B[Z5],1.5465,1.5455,1.5455,1.5463
/M6E[Z5],1.1340,1.1335,1.1339,1.1336
/LBS[X5],260.4,260.4,260.4,263.1
/HE[Z5],0,0,0,65.975
/GF[V5],0,0,0,195.000
/LE[Z5],0,0,0,141.650
/VX[V5],15.30,15.22,15.25,15.275
/XC[Z5],0,0,0,373.000
/XW[Z5],0,0,0,485.750
/XK[X5],0,0,0,891.000
/BZ[Z5],48.99,48.80,48.99,48.61
/KE[Z5],0,0,0,472.25
