﻿Watchlist 'FUTURES'

FUTURES
Symbol,High,Low,Open,Close
/ES[Z5],2026.50,2012.25,2018.25,2025.50
/TF[Z5],1164.9,1148.7,1163.3,1156.7
/NQ[Z5],4439.00,4396.00,4409.75,4434.75
/YM[Z5],17126,17012,17062,17115
/GC[Z5],1184.8,1174.3,1182.5,1183.1
/YG[Z5],1185.3,1174.9,1182.5,1183.1
/SI[Z5],16.165,15.935,16.120,16.114
/YI[Z5],16.150,15.941,16.071,16.114
/PL[F6],1026.8,996.4,1006.7,1023.7
/PA[Z5],705.00,693.30,703.75,699.40
/HG[Z5],2.4350,2.3810,2.4300,2.4035
/ZC[Z5],378.00,372.50,375.50,376.75
/ZW[Z5],506.00,489.75,502.25,492.25
/ZS[X5],910.50,897.25,904.25,905.25
/ZM[Z5],315.5,310.7,313.3,314.0
/ZL[Z5],28.82,28.40,28.65,28.60
/ZO[Z5],235.25,226.50,235.00,230.75
/ZQ[X5],99.865,99.855,99.865,99.860
/GE[Z5],99.635,99.625,99.635,99.625
/GLB[H6],0,0,0,99.6525
/EMD[Z5],1435.0,1421.7,1431.3,1428.5
/NKD[Z5],18470,18260,18305,18425
/DX[Z5],94.805,94.415,94.590,94.588
/6A[Z5],.7316,.7226,.7313,.7257
/6B[Z5],1.5482,1.5425,1.5462,1.5453
/6C[Z5],.7779,.7725,.7774,.7743
/6E[Z5],1.1405,1.1344,1.1389,1.1386
/E7[Z5],1.1405,1.1345,1.1389,1.1386
/6J[Z5],.0084205,.0083615,.0084185,.0083825
/J7[Z5],.008421,.008362,.008421,.0083825
/6M[Z5],.06094,.06036,.06081,.06085
/6N[Z5],.6840,.6757,.6840,.6793
/6S[Z5],1.0549,1.0487,1.0534,1.0533
/CL[Z5],47.97,46.64,47.39,47.72
/QM[Z5],47.950,46.650,47.425,47.720
/RB[X5],1.3415,1.3076,1.3206,1.3280
/HO[X5],1.5044,1.4726,1.4956,1.4966
/NG[X5],2.466,2.410,2.453,2.430
/QG[X5],2.465,2.415,2.460,2.430
/UB[Z5],162'02,161'00,161'14,161'19
/ZB[Z5],159'11,158'15,158'27,158'30
/ZN[Z5],129'095,128'300,129'040,129'010
/ZF[Z5],120'270,120'200,120'235,120'217
/ZT[Z5],109'207,109'187,109'197,109'192
/CC[Z5],3127,3088,3094,3119
/CT[Z5],63.95,62.87,63.55,63.85
/SB[H6],14.30,13.86,14.17,14.27
/OJ[X5],138.95,130.50,131.15,135.10
/KC[Z5],132.40,125.05,132.25,125.85
/M6A[Z5],.7316,.7226,.7312,.7257
/M6B[Z5],1.5490,1.5425,1.5474,1.5453
/M6E[Z5],1.1405,1.1343,1.1393,1.1386
/LBS[X5],262.0,256.3,262.0,258.1
/HE[Z5],66.675,65.250,66.525,65.575
/GF[V5],193.925,188.600,189.500,193.800
/LE[Z5],139.550,135.950,136.425,139.425
/VX[V5],16.10,16.10,16.10,16.575
/XC[Z5],378.000,372.625,375.125,376.750
/XW[Z5],505.500,489.500,502.250,492.250
/XK[X5],910.000,897.625,905.000,898.250
/BZ[Z5],50.69,49.34,50.17,50.46
/KE[Z5],501.00,481.50,496.00,483.50
