﻿Watchlist 'FUTURES'

FUTURES
Symbol,High,Low,Open,Close
/ES[Z5],1951.00,1910.25,1913.25,1919.25
/TF[Z5],1149.3,1112.9,1136.4,1115.0
/NQ[Z5],4315.75,4185.50,4232.00,4213.50
/YM[Z5],16372,16079,16094,16203
/GC[Z5],1151.1,1140.1,1151.0,1145.6
/YG[Z5],1151.2,1141.0,1150.1,1145.6
/SI[Z5],15.185,14.945,15.070,15.130
/YI[Z5],15.183,14.926,15.080,15.111
/PL[F6],954.2,943.6,951.2,951.3
/PA[Z5],678.00,651.00,652.50,667.60
/HG[Z5],2.3200,2.2770,2.3005,2.3025
/ZC[Z5],389.50,381.00,381.25,389.00
/ZW[Z5],510.50,496.25,497.75,507.75
/ZS[X5],890.00,869.00,869.00,889.25
/ZM[Z5],308.9,302.3,302.6,308.2
/ZL[Z5],28.19,27.12,27.18,27.91
/ZO[Z5],231.50,227.50,227.75,231.25
/ZQ[X5],99.835,99.825,99.825,99.830
/GE[Z5],99.585,99.550,99.570,99.575
/GLB[H6],0,0,0,99.5950
/EMD[Z5],1401.7,1375.9,1380.0,1380.6
/NKD[Z5],18110,17460,17500,17875
/DX[Z5],96.880,96.270,96.385,96.434
/6A[Z5],.7013,.6955,.6958,.6992
/6B[Z5],1.5255,1.5129,1.5217,1.5187
/6C[Z5],.7517,.7484,.7499,.7500
/6E[Z5],1.1227,1.1130,1.1192,1.1234
/E7[Z5],1.1226,1.1131,1.1195,1.1203
/6J[Z5],.008344,.0082595,.0083295,.0082985
/J7[Z5],.008342,.008261,.008327,.0082985
/6M[Z5],.05948,.05837,.05902,.05859
/6N[Z5],.6354,.6275,.6287,.6337
/6S[Z5],1.0292,1.0187,1.0253,1.0270
/CL[X5],46.38,44.86,45.05,45.70
/QM[X5],46.350,44.850,45.050,45.700
/RB[V5],1.4005,1.3590,1.3712,1.3959
/HO[V5],1.5457,1.5046,1.5282,1.5225
/NG[X5],2.687,2.600,2.670,2.631
/QG[X5],2.680,2.600,2.680,2.631
/UB[Z5],159'22,157'27,159'09,159'25
/ZB[Z5],156'21,155'04,156'10,155'14
/ZN[Z5],127'315,127'140,127'280,128'040
/ZF[Z5],120'032,119'242,120'005,120'017
/ZT[Z5],109'147,109'115,109'135,109'142
/CC[Z5],3308,3257,3304,3276
/CT[Z5],61.17,60.10,60.10,60.64
/SB[V5],11.77,11.25,11.25,11.74
/OJ[X5],111.80,108.00,110.75,108.05
/KC[Z5],123.35,119.90,120.00,122.70
/M6A[Z5],.7013,.6948,.6960,.7005
/M6B[Z5],1.5255,1.5117,1.5223,1.5187
/M6E[Z5],1.1227,1.1130,1.1195,1.1203
/LBS[X5],220.0,216.0,220.0,216.6
/HE[V5],72.350,71.150,71.200,71.875
/GF[V5],184.600,182.250,182.900,184.600
/LE[V5],133.700,131.200,131.775,133.700
/VX[V5],22.325,22.325,22.325,22.325
/XC[Z5],389.750,381.000,381.000,389.000
/XW[Z5],510.250,496.750,497.250,507.750
/XK[X5],890.250,868.000,868.000,868.000
/BZ[X5],49.18,47.85,48.13,48.60
/KE[Z5],504.00,489.50,490.00,500.25
