﻿Watchlist 'FUTURES'

FUTURES
Symbol,High,Low,Open,Close
/ES[Z5],1917.75,1916.25,1917.00,1916.75
/TF[Z5],1108.5,1077.5,1094.9,1095.1
/NQ[Z5],4190.25,4187.25,4188.25,4187.50
/YM[Z5],16201,16187,16191,16190
/GC[Z5],1112.9,1112.3,1112.5,1113.7
/YG[Z5],1119.1,1110.9,1114.9,1113.7
/SI[Z5],14.500,14.490,14.490,14.511
/YI[Z5],14.677,14.438,14.529,14.511
/PL[F6],907.0,904.3,905.8,905.2
/PA[Z5],677.00,675.05,677.00,679.40
/HG[Z5],2.3080,2.3065,2.3080,2.3045
/ZC[Z5],0,0,0,388.75
/ZW[Z5],0,0,0,518.25
/ZS[X5],0,0,0,877.25
/ZM[Z5],0,0,0,303.9
/ZL[Z5],0,0,0,27.32
/ZO[Z5],0,0,0,221.00
/ZQ[X5],0,0,0,99.835
/GE[Z5],99.580,99.580,99.580,99.585
/GLB[H6],0,0,0,99.5875
/EMD[Z5],0,0,0,1361.8
/NKD[Z5],17730,17725,17725,17715
/DX[Z5],96.635,96.090,96.400,96.326
/6A[Z5],.7010,.7001,.7005,.7004
/6B[Z5],1.5127,1.5123,1.5125,1.5126
/6C[Z5],.7548,.7539,.7539,.7541
/6E[Z5],1.1203,1.1199,1.1200,1.1196
/E7[Z5],1.1204,1.1199,1.1202,1.1196
/6J[Z5],.008351,.0083465,.0083475,.008345
/J7[Z5],.008352,.008347,.008348,.008345
/6M[Z5],.05890,.05884,.05890,.05890
/6N[Z5],.6374,.6366,.6366,.6368
/6S[Z5],1.0259,1.0257,1.0257,1.0254
/CL[X5],45.10,45.03,45.07,44.74
/QM[X5],45.075,45.050,45.050,44.750
/RB[X5],1.3758,1.3700,1.3700,1.3668
/HO[X5],1.5340,1.5252,1.5270,1.5198
/NG[X5],2.438,2.427,2.429,2.433
/QG[X5],2.435,2.430,2.430,2.435
/UB[Z5],161'05,161'02,161'05,161'03
/ZB[Z5],157'30,157'27,157'29,157'26
/ZN[Z5],128'255,128'240,128'255,128'240
/ZF[Z5],120'172,120'155,120'170,120'160
/ZT[Z5],109'160,109'155,109'160,109'160
/CC[Z5],3157,3094,3120,3105
/CT[Z5],61.06,59.90,60.30,60.60
/SB[H6],13.27,12.87,12.87,13.26
/OJ[X5],106.45,104.75,105.50,105.35
/KC[Z5],122.45,119.10,121.30,120.75
/M6A[Z5],.7010,.7002,.7005,.7004
/M6B[Z5],1.5124,1.5124,1.5124,1.5126
/M6E[Z5],1.1204,1.1199,1.1201,1.1196
/LBS[X5],0,0,0,224.6
/HE[V5],0,0,0,72.625
/GF[V5],0,0,0,177.400
/LE[Z5],0,0,0,130.000
/VX[V5],22.25,22.15,22.20,22.225
/XC[Z5],0,0,0,388.750
/XW[Z5],0,0,0,518.250
/XK[X5],0,0,0,877.250
/BZ[X5],48.06,48.06,48.06,47.69
/KE[Z5],0,0,0,507.50
