﻿Watchlist 'FUTURES'

FUTURES
Symbol,High,Low,Open,Close
/ES[Z5],2081.50,2077.50,2080.00,2081.00
/TF[Z5],1165.9,1163.8,1163.9,1165.8
/NQ[Z5],4704.00,4692.50,4699.75,4701.00
/YM[Z5],17762,17728,17751,17756
/GC[G6],1071.7,1068.9,1069.7,1075.2
/YG[G6],1072.1,1070.5,1072.1,1075.2
/SI[H6],14.270,14.210,14.220,14.332
/YI[H6],14.240,14.235,14.240,14.332
/PL[F6],859.7,853.8,855.2,863.2
/PA[H6],557.00,550.65,552.25,555.45
/HG[H6],2.0550,2.0440,2.0440,2.0510
/ZC[H6],373.50,373.00,373.25,373.00
/ZW[H6],482.50,481.00,481.00,482.75
/ZS[F6],887.00,884.25,886.00,882.25
/ZM[F6],279.8,279.0,279.1,278.0
/ZL[F6],31.36,31.18,31.25,31.25
/ZO[H6],0,0,0,235.25
/ZQ[Z5],0,0,0,99.7775
/GE[Z5],99.490,99.485,99.490,99.490
/GLB[H6],0,0,0,99.4750
/EMD[Z5],1436.8,1434.1,1435.3,1436.4
/NKD[H6],19825,19720,19800,19800
/DX[Z5],98.765,98.725,98.745,98.669
/6A[Z5],.7269,.7253,.7255,.7261
/6B[Z5],1.5054,1.5043,1.5046,1.5061
/6C[Z5],.7404,.7398,.7404,.7399
/6E[Z5],1.0841,1.0831,1.0833,1.0847
/E7[Z5],1.0840,1.0833,1.0835,1.0847
/6J[Z5],.0081155,.008104,.008104,.008110
/J7[Z5],.008114,.008107,.008107,.008110
/6M[Z5],.05923,.05917,.05923,.05913
/6N[Z5],.6641,.6630,.6634,.6643
/6S[Z5],1.0000,.9992,.9998,1.0007
/CL[F6],37.88,37.63,37.68,37.65
/QM[F6],37.875,37.600,37.675,37.650
/RB[F6],1.2189,1.2069,1.2088,1.2094
/HO[F6],1.2855,1.2781,1.2802,1.2796
/NG[F6],2.080,2.066,2.068,2.067
/QG[F6],2.080,2.070,2.070,2.067
/UB[H6],159'17,159'15,159'16,159'28
/ZB[H6],155'02,154'30,154'31,155'09
/ZN[H6],126'100,126'085,126'100,126'110
/ZF[H6],118'202,118'195,118'202,118'202
/ZT[H6],108'235,108'230,108'235,108'235
/CC[H6],0,0,0,3417
/CT[H6],0,0,0,64.57
/SB[H6],0,0,0,15.30
/OJ[F6],0,0,0,143.20
/KC[H6],0,0,0,126.05
/M6A[Z5],.7267,.7254,.7257,.7261
/M6B[Z5],1.5049,1.5041,1.5048,1.5061
/M6E[Z5],1.0842,1.0831,1.0834,1.0847
/LBS[F6],267.0,262.1,262.3,262.1
/HE[Z5],0,0,0,55.475
/GF[F6],0,0,0,156.450
/LE[G6],0,0,0,127.150
/VX[Z5],16.70,16.50,16.50,16.525
/XC[H6],373.625,372.875,372.875,373.000
/XW[H6],0,0,0,482.750
/XK[F6],885.875,884.000,884.000,882.250
/BZ[F6],41.04,40.87,40.89,40.73
/KE[H6],474.00,473.00,473.00,474.50
