﻿Watchlist 'FUTURES'

FUTURES
Symbol,High,Low,Open,Close
/ES[Z5],2023.00,2017.00,2018.25,2019.00
/TF[Z5],1164.9,1161.3,1163.3,1162.3
/NQ[Z5],4422.00,4407.75,4409.75,4411.75
/YM[Z5],17099,17051,17062,17069
/GC[Z5],1183.1,1177.9,1182.5,1187.5
/YG[Z5],1183.3,1178.7,1182.5,1187.5
/SI[Z5],16.145,16.055,16.120,16.164
/YI[Z5],16.130,16.050,16.071,16.164
/PL[F6],1011.6,1004.3,1006.7,1007.0
/PA[Z5],704.65,701.10,703.75,705.00
/HG[Z5],2.4350,2.4150,2.4300,2.4230
/ZC[Z5],375.75,374.50,375.50,375.50
/ZW[Z5],503.00,499.75,502.25,502.50
/ZS[X5],910.50,903.75,904.25,905.25
/ZM[Z5],315.5,312.8,313.3,314.0
/ZL[Z5],28.72,28.59,28.65,28.58
/ZO[Z5],235.00,235.00,235.00,234.50
/ZQ[X5],0,0,0,99.860
/GE[Z5],99.635,99.625,99.635,99.630
/GLB[H6],0,0,0,99.6525
/EMD[Z5],1435.0,1431.3,1431.3,1432.8
/NKD[Z5],18470,18260,18305,18280
/DX[Z5],94.645,94.505,94.590,94.430
/6A[Z5],.7316,.7266,.7313,.7317
/6B[Z5],1.5476,1.5456,1.5462,1.5487
/6C[Z5],.7779,.7763,.7774,.7783
/6E[Z5],1.1392,1.1368,1.1389,1.1394
/E7[Z5],1.1391,1.1368,1.1389,1.1394
/6J[Z5],.0084205,.0083905,.0084185,.008425
/J7[Z5],.008421,.008391,.008421,.008425
/6M[Z5],.06081,.06073,.06081,.06094
/6N[Z5],.6840,.6792,.6840,.6837
/6S[Z5],1.0539,1.0522,1.0534,1.0538
/CL[Z5],47.56,47.27,47.39,46.87
/QM[Z5],47.575,47.250,47.425,46.875
/RB[X5],1.3219,1.3121,1.3206,1.3072
/HO[X5],1.4974,1.4900,1.4956,1.4863
/NG[X5],2.466,2.452,2.453,2.453
/QG[X5],2.465,2.455,2.460,2.455
/UB[Z5],161'23,161'09,161'14,161'09
/ZB[Z5],159'03,158'22,158'27,158'23
/ZN[Z5],129'070,129'020,129'040,129'040
/ZF[Z5],120'247,120'227,120'235,120'237
/ZT[Z5],109'205,109'195,109'197,109'202
/CC[Z5],0,0,0,3104
/CT[Z5],63.65,63.43,63.55,63.44
/SB[H6],0,0,0,14.13
/OJ[X5],0,0,0,131.15
/KC[Z5],0,0,0,133.70
/M6A[Z5],.7316,.7265,.7312,.7317
/M6B[Z5],1.5490,1.5454,1.5474,1.5487
/M6E[Z5],1.1393,1.1367,1.1393,1.1394
/LBS[X5],262.0,262.0,262.0,261.7
/HE[Z5],0,0,0,66.825
/GF[V5],0,0,0,189.775
/LE[Z5],0,0,0,136.550
/VX[V5],16.70,16.40,16.60,16.575
/XC[Z5],375.625,374.625,375.125,375.500
/XW[Z5],502.750,500.125,502.250,502.500
/XK[X5],910.000,903.125,905.000,905.250
/BZ[Z5],50.22,50.09,50.17,49.73
/KE[Z5],497.25,495.25,496.00,496.25
