﻿Watchlist 'FUTURES'

FUTURES
Symbol,High,Low,Open,Close
/ES[Z5],2006.00,2003.25,2004.00,2006.50
/TF[Z5],1161.7,1141.4,1148.6,1159.7
/NQ[Z5],4343.75,4336.50,4338.00,4344.75
/YM[Z5],16965,16939,16948,16966
/GC[Z5],1140.1,1138.0,1138.1,1144.3
/YG[Z5],1151.6,1136.8,1145.7,1144.3
/SI[Z5],15.740,15.665,15.680,15.766
/YI[Z5],15.996,15.379,15.996,15.766
/PL[F6],950.9,946.4,950.4,955.6
/PA[Z5],704.80,701.60,704.70,703.15
/HG[Z5],2.3530,2.3475,2.3515,2.3430
/ZC[Z5],0,0,0,391.25
/ZW[Z5],0,0,0,511.50
/ZS[X5],0,0,0,881.25
/ZM[Z5],0,0,0,304.3
/ZL[Z5],0,0,0,28.36
/ZO[Z5],0,0,0,218.75
/ZQ[X5],0,0,0,99.850
/GE[Z5],99.610,99.605,99.605,99.610
/GLB[H6],0,0,0,99.6225
/EMD[Z5],0,0,0,1436.8
/NKD[Z5],18375,18345,18370,18370
/DX[Z5],95.720,95.045,95.665,95.407
/6A[Z5],.7238,.7227,.7233,.7234
/6B[Z5],1.5347,1.5341,1.5342,1.5348
/6C[Z5],.7686,.7681,.7682,.7686
/6E[Z5],1.1301,1.1289,1.1290,1.1284
/E7[Z5],1.1300,1.1287,1.1287,1.1284
/6J[Z5],.0083485,.008344,.0083465,.008340
/J7[Z5],.008348,.008348,.008348,.008340
/6M[Z5],.06052,.06048,.06051,.06041
/6N[Z5],.6638,.6625,.6633,.6635
/6S[Z5],1.0377,1.0373,1.0376,1.0369
/CL[X5],49.71,49.57,49.69,49.43
/QM[X5],49.700,49.575,49.700,49.425
/RB[X5],1.4160,1.4115,1.4134,1.4078
/HO[X5],1.6123,1.6056,1.6070,1.6018
/NG[X5],2.492,2.475,2.488,2.498
/QG[X5],2.485,2.480,2.480,2.500
/UB[Z5],159'08,159'02,159'02,158'28
/ZB[Z5],156'26,156'20,156'20,156'13
/ZN[Z5],128'185,128'160,128'165,128'150
/ZF[Z5],120'150,120'137,120'140,120'137
/ZT[Z5],109'177,109'175,109'175,109'175
/CC[Z5],3077,3035,3063,3060
/CT[Z5],62.45,61.44,62.27,61.72
/SB[H6],14.05,13.70,13.85,14.01
/OJ[X5],111.30,107.85,109.10,110.60
/KC[Z5],128.80,125.20,126.05,128.45
/M6A[Z5],.7238,.7228,.7229,.7234
/M6B[Z5],1.5344,1.5342,1.5342,1.5348
/M6E[Z5],1.1300,1.1290,1.1296,1.1284
/LBS[X5],245.8,240.9,240.9,237.5
/HE[V5],0,0,0,74.000
/GF[V5],0,0,0,187.875
/LE[Z5],0,0,0,137.675
/VX[V5],18.40,18.30,18.40,18.425
/XC[Z5],0,0,0,391.250
/XW[Z5],0,0,0,511.500
/XK[X5],0,0,0,881.250
/BZ[X5],0,0,0,53.05
/KE[Z5],0,0,0,503.50
