﻿Watchlist 'FUTURES'

FUTURES
Symbol,High,Low,Open,Close
/ES[Z5],2074.50,2053.25,2054.25,2066.00
/TF[Z5],1166.4,1151.5,1159.7,1161.4
/NQ[Z5],4637.50,4562.00,4562.25,4611.50
/YM[Z5],17597,17402,17426,17546
/GC[Z5],1179.4,1158.6,1165.9,1162.8
/YG[Z5],1180.2,1159.0,1166.0,1162.8
/SI[Z5],16.100,15.705,15.815,15.827
/YI[Z5],16.075,15.676,15.820,15.827
/PL[F6],1021.0,996.5,1012.7,1001.7
/PA[Z5],703.80,685.15,685.15,693.85
/HG[Z5],2.4180,2.3420,2.3805,2.3500
/ZC[Z5],380.00,375.00,377.75,379.75
/ZW[Z5],494.00,484.75,490.75,490.50
/ZS[F6],903.50,893.00,901.00,896.00
/ZM[Z5],308.3,304.2,307.9,305.1
/ZL[Z5],29.06,28.40,28.90,28.57
/ZO[Z5],228.25,225.00,226.50,227.75
/ZQ[X5],99.860,99.855,99.860,99.860
/GE[Z5],99.625,99.605,99.625,99.620
/GLB[H6],0,0,0,99.6550
/EMD[Z5],1444.1,1425.9,1432.8,1433.8
/NKD[Z5],19255,18820,18930,19195
/DX[Z5],97.300,96.225,96.595,97.243
/6A[Z5],.7280,.7179,.7193,.7193
/6B[Z5],1.5414,1.5301,1.5386,1.5316
/6C[Z5],.7666,.7573,.7635,.7583
/6E[Z5],1.1148,1.1004,1.1113,1.1012
/E7[Z5],1.1147,1.1005,1.1113,1.1012
/6J[Z5],.008322,.008232,.0082885,.008241
/J7[Z5],.008320,.008216,.008287,.008241
/6M[Z5],.06081,.05997,.06046,.06003
/6N[Z5],.6841,.6711,.6765,.6726
/6S[Z5],1.0313,1.0218,1.0293,1.0222
/CL[Z5],45.75,44.20,45.44,44.60
/QM[Z5],45.750,44.200,45.475,44.600
/RB[X5],1.3222,1.2900,1.3139,1.3036
/HO[X5],1.4910,1.4500,1.4764,1.4544
/NG[X5],2.374,2.275,2.372,2.286
/QG[X5],2.370,2.275,2.370,2.286
/UB[Z5],161'29,159'24,161'18,160'18
/ZB[Z5],158'18,156'18,158'11,157'05
/ZN[Z5],128'295,128'090,128'285,128'135
/ZF[Z5],120'200,120'082,120'200,120'102
/ZT[Z5],109'195,109'170,109'195,109'175
/CC[Z5],3161,3105,3137,3125
/CT[Z5],63.07,62.42,62.75,62.76
/SB[H6],14.73,14.21,14.66,14.28
/OJ[X5],137.95,134.50,134.50,135.85
/KC[Z5],120.80,117.55,119.80,118.45
/M6A[Z5],.7280,.7180,.7193,.7193
/M6B[Z5],1.5415,1.5302,1.5384,1.5316
/M6E[Z5],1.1148,1.1004,1.1111,1.1012
/LBS[X5],265.0,257.5,258.9,261.0
/HE[Z5],66.275,63.450,66.000,63.600
/GF[V5],195.900,193.900,195.075,195.050
/LE[Z5],143.700,141.125,143.275,143.400
/VX[X5],16.60,16.60,16.60,16.025
/XC[Z5],379.875,374.875,378.000,379.750
/XW[Z5],494.250,485.000,490.125,490.500
/XK[F6],903.250,890.250,901.000,896.000
/BZ[Z5],48.64,47.44,48.26,47.99
/KE[Z5],478.25,469.50,475.00,475.50
