﻿Watchlist 'FUTURES'

FUTURES
Symbol,High,Low,Open,Close
/ES[Z5],2097.25,2092.25,2093.25,2095.50
/TF[Z5],1182.0,1180.4,1180.6,1180.4
/NQ[Z5],4699.00,4686.50,4688.25,4694.00
/YM[Z5],17752,17710,17723,17735
/GC[Z5],1135.6,1132.6,1132.9,1135.9
/YG[Z5],1135.8,1134.0,1134.1,1135.9
/SI[Z5],15.440,15.380,15.400,15.408
/YI[Z5],15.412,15.368,15.368,15.408
/PL[F6],982.3,976.6,978.5,978.4
/PA[Z5],655.10,646.25,646.30,650.35
/HG[Z5],2.3255,2.3130,2.3140,2.3190
/ZC[Z5],376.75,376.25,376.50,376.50
/ZW[Z5],507.75,507.00,507.50,508.00
/ZS[F6],882.25,879.25,879.25,878.75
/ZM[Z5],303.8,302.5,302.5,302.2
/ZL[Z5],27.95,27.84,27.88,27.85
/ZO[Z5],222.75,222.50,222.75,222.50
/ZQ[X5],99.8725,99.8725,99.8725,99.870
/GE[Z5],99.595,99.590,99.590,99.590
/GLB[H6],0,0,0,99.5725
/EMD[Z5],1462.0,1460.7,1461.1,1462.2
/NKD[Z5],19140,19000,19000,19020
/DX[Z5],97.020,96.965,97.000,97.003
/6A[Z5],.7158,.7127,.7127,.7119
/6B[Z5],1.5423,1.5411,1.5412,1.5408
/6C[Z5],.7642,.7631,.7632,.7633
/6E[Z5],1.1025,1.1013,1.1018,1.1017
/E7[Z5],1.1023,1.1014,1.1019,1.1017
/6J[Z5],.008286,.008277,.0082845,.008283
/J7[Z5],0,0,0,.008283
/6M[Z5],.06070,.06062,.06062,.06058
/6N[Z5],.6760,.6722,.6723,.6713
/6S[Z5],1.0146,1.0139,1.0140,1.0145
/CL[Z5],46.36,46.09,46.11,46.14
/QM[Z5],46.350,46.100,46.100,46.150
/RB[Z5],1.3821,1.3738,1.3775,1.3753
/HO[Z5],1.5150,1.5092,1.5092,1.5069
/NG[Z5],2.257,2.245,2.254,2.256
/QG[Z5],2.260,2.245,2.255,2.255
/UB[Z5],159'17,159'12,159'16,159'03
/ZB[Z5],156'03,155'29,156'02,155'24
/ZN[Z5],127'165,127'140,127'160,127'120
/ZF[Z5],119'212,119'197,119'210,119'187
/ZT[Z5],109'095,109'090,109'092,109'090
/CC[Z5],0,0,0,3295
/CT[Z5],0,0,0,63.29
/SB[H6],0,0,0,15.11
/OJ[F6],0,0,0,132.85
/KC[Z5],0,0,0,118.80
/M6A[Z5],.7156,.7131,.7131,.7119
/M6B[Z5],1.5423,1.5415,1.5415,1.5408
/M6E[Z5],1.1025,1.1013,1.1021,1.1017
/LBS[X5],0,0,0,249.0
/HE[Z5],0,0,0,58.225
/GF[X5],0,0,0,192.275
/LE[Z5],0,0,0,141.675
/VX[X5],15.92,15.75,15.90,15.875
/XC[Z5],376.375,376.000,376.125,376.500
/XW[Z5],508.000,508.000,508.000,508.000
/XK[F6],880.000,878.875,878.875,878.750
/BZ[Z5],48.97,48.88,48.89,48.79
/KE[Z5],481.75,480.75,480.75,482.75
