﻿Watchlist 'FUTURES'

FUTURES
Symbol,High,Low,Open,Close
/ES[Z5],1946.25,1942.50,1943.50,1944.00
/TF[Z5],1147.8,1146.2,1147.5,1147.0
/NQ[Z5],4305.50,4292.00,4297.75,4299.75
/YM[Z5],16301,16264,16272,16279
/GC[Z5],1108.5,1105.5,1107.1,1107.7
/YG[Z5],0,0,0,1107.7
/SI[Z5],14.405,14.345,14.365,14.363
/YI[Z5],14.385,14.385,14.385,14.363
/PL[V5],958.8,954.3,954.3,955.4
/PA[Z5],587.45,585.75,587.45,587.80
/HG[Z5],2.4165,2.4110,2.4130,2.4055
/ZC[Z5],394.25,392.50,392.75,393.50
/ZW[Z5],501.50,499.75,500.00,501.25
/ZS[X5],889.00,886.00,886.50,884.25
/ZM[Z5],314.9,313.3,313.3,312.8
/ZL[Z5],27.20,27.05,27.08,27.13
/ZO[Z5],232.00,231.00,232.00,232.75
/ZQ[X5],0,0,0,99.760
/GE[Z5],99.530,99.525,99.525,99.525
/GLB[H6],0,0,0,99.5200
/EMD[Z5],1402.3,1399.9,1399.9,1401.1
/NKD[Z5],18160,17985,17995,17995
/DX[Z5],95.490,95.455,95.460,95.412
/6A[Z5],.7132,.7094,.7101,.7103
/6B[Z5],1.5423,1.5415,1.5419,1.5427
/6C[Z5],.7544,.7538,.7539,.7538
/6E[Z5],1.1335,1.1324,1.1333,1.1332
/E7[Z5],1.1333,1.1323,1.1333,1.1332
/6J[Z5],.008331,.0083175,.0083305,.0083435
/J7[Z5],.008329,.008319,.008329,.008343
/6M[Z5],.05941,.05930,.05931,.05920
/6N[Z5],.6302,.6286,.6291,.6290
/6S[Z5],1.0367,1.0354,1.0361,1.0356
/CL[V5],44.34,44.09,44.11,44.00
/QM[V5],44.350,44.100,44.150,44.000
/RB[V5],1.3135,1.3036,1.3036,1.3043
/HO[V5],1.5141,1.5066,1.5110,1.5035
/NG[V5],2.785,2.760,2.768,2.758
/QG[V5],2.785,2.760,2.765,2.758
/UB[Z5],158'05,158'01,158'04,158'11
/ZB[Z5],154'27,154'21,154'26,154'31
/ZN[Z5],127'180,127'160,127'175,127'175
/ZF[Z5],119'242,119'232,119'235,119'235
/ZT[Z5],109'100,109'097,109'097,109'097
/CC[Z5],0,0,0,3286
/CT[Z5],0,0,0,62.55
/SB[V5],0,0,0,11.50
/OJ[X5],0,0,0,123.50
/KC[Z5],0,0,0,120.20
/M6A[Z5],.7133,.7093,.7093,.7103
/M6B[Z5],1.5415,1.5415,1.5415,1.5427
/M6E[Z5],1.1335,1.1324,1.1330,1.1332
/LBS[X5],243.6,240.9,240.9,248.2
/HE[V5],0,0,0,66.825
/GF[V5],0,0,0,194.800
/LE[V5],0,0,0,141.475
/VX[U5],23.76,23.60,23.75,23.725
/XC[Z5],394.000,392.500,393.000,393.500
/XW[Z5],501.750,501.000,501.000,501.250
/XK[X5],888.750,885.250,885.250,884.250
/BZ[X5],47.67,47.57,47.57,47.35
/KE[Z5],496.00,494.50,494.75,496.25
