﻿Watchlist 'FUTURES'

FUTURES
Symbol,High,Low,Open,Close
/ES[Z5],2048.25,2045.75,2047.75,2048.00
/TF[Z5],1151.8,1151.0,1151.0,1152.7
/NQ[Z5],4562.25,4556.25,4560.75,4559.75
/YM[Z5],17427,17408,17422,17421
/GC[Z5],1083.9,1081.6,1082.4,1083.6
/YG[Z5],1084.2,1083.5,1083.9,1083.6
/SI[Z5],14.250,14.205,14.220,14.222
/YI[Z5],14.231,14.220,14.231,14.222
/PL[F6],873.4,865.7,867.9,865.5
/PA[Z5],559.65,546.85,552.00,551.55
/HG[Z5],2.1240,2.1170,2.1240,2.1155
/ZC[Z5],361.50,360.00,360.00,360.00
/ZW[Z5],494.00,492.75,493.50,494.00
/ZS[F6],860.50,857.75,859.50,859.50
/ZM[Z5],289.0,288.5,288.5,288.8
/ZL[Z5],27.29,27.16,27.28,27.29
/ZO[Z5],0,0,0,235.00
/ZQ[X5],0,0,0,99.8775
/GE[Z5],99.5625,99.5625,99.5625,99.5625
/GLB[H6],0,0,0,99.5225
/EMD[Z5],1419.3,1419.1,1419.3,1421.2
/NKD[Z5],19735,19660,19700,19700
/DX[Z5],99.530,99.455,99.475,99.538
/6A[Z5],.7098,.7079,.7082,.7081
/6B[Z5],1.5201,1.5192,1.5197,1.5195
/6C[Z5],.7504,.7497,.7497,.7498
/6E[Z5],1.0695,1.0683,1.0687,1.0681
/E7[Z5],1.0694,1.0684,1.0690,1.0681
/6J[Z5],.0081175,.0081095,.008116,.0081145
/J7[Z5],.008116,.008112,.008112,.008114
/6M[Z5],.05955,.05947,.05952,.05940
/6N[Z5],.6482,.6456,.6476,.6481
/6S[Z5],.9916,.9910,.9910,.9909
/CL[Z5],41.96,41.75,41.96,41.74
/QM[Z5],41.950,41.750,41.950,41.750
/RB[Z5],1.2432,1.2422,1.2424,1.2386
/HO[Z5],1.3931,1.3879,1.3926,1.3851
/NG[Z5],2.348,2.328,2.333,2.385
/QG[Z5],2.345,2.325,2.325,2.385
/UB[Z5],156'01,155'28,156'01,155'26
/ZB[Z5],153'14,153'08,153'13,153'08
/ZN[Z5],126'215,126'185,126'210,126'215
/ZF[Z5],119'047,119'027,119'047,119'055
/ZT[Z5],109'047,109'040,109'047,109'050
/CC[H6],0,0,0,3377
/CT[Z5],0,0,0,61.74
/SB[H6],0,0,0,15.18
/OJ[F6],0,0,0,153.55
/KC[H6],0,0,0,118.20
/M6A[Z5],.7097,.7079,.7084,.7081
/M6B[Z5],1.5200,1.5194,1.5195,1.5195
/M6E[Z5],1.0695,1.0683,1.0690,1.0681
/LBS[F6],242.1,240.8,242.1,242.1
/HE[Z5],0,0,0,51.800
/GF[X5],0,0,0,172.300
/LE[Z5],0,0,0,127.675
/VX[X5],18.30,18.12,18.15,18.075
/XC[Z5],361.000,359.875,360.000,360.000
/XW[Z5],493.250,493.250,493.250,494.000
/XK[F6],860.000,859.000,859.000,859.500
/BZ[F6],44.79,44.66,44.72,44.56
/KE[Z5],469.00,466.25,468.00,467.50
