﻿Watchlist 'FUTURES'

FUTURES
Symbol,High,Low,Open,Close
/ES[Z5],2048.50,2044.75,2045.75,2042.00
/TF[Z5],1166.0,1140.2,1159.1,1142.4
/NQ[Z5],4631.00,4622.00,4624.00,4616.00
/YM[Z5],17510,17480,17482,17456
/GC[G6],1073.9,1071.3,1071.7,1076.5
/YG[G6],1085.4,1069.3,1075.6,1076.5
/SI[H6],14.165,14.135,14.155,14.189
/YI[H6],14.325,14.134,14.165,14.189
/PL[F6],859.6,856.0,857.7,865.8
/PA[H6],552.60,550.00,552.60,552.35
/HG[H6],2.0680,2.0615,2.0640,2.0660
/ZC[H6],0,0,0,373.75
/ZW[H6],0,0,0,489.75
/ZS[F6],0,0,0,876.75
/ZM[F6],0,0,0,277.0
/ZL[F6],0,0,0,31.11
/ZO[H6],0,0,0,238.25
/ZQ[Z5],99.7725,99.7725,99.7725,99.7725
/GE[Z5],99.485,99.485,99.485,99.4825
/GLB[H6],0,0,0,99.4800
/EMD[Z5],1406.7,1404.3,1404.4,1403.0
/NKD[H6],19145,19030,19030,19005
/DX[Z5],98.510,97.210,98.485,97.334
/6A[H6],.7205,.7188,.7196,.7176
/6B[H6],1.5190,1.5175,1.5178,1.5165
/6C[H6],.7372,.7368,.7368,.7355
/6E[Z5],1.1022,1.1014,1.1020,1.1027
/E7[Z5],1.1022,1.1015,1.1022,1.1027
/6J[H6],.0082455,.0082335,.008243,.0082735
/J7[Z5],.008225,.008222,.008222,.008253
/6M[Z5],.05861,.05849,.05853,.05849
/6N[H6],.6695,.6681,.6692,.6604
/6S[H6],1.0221,1.0208,1.0221,1.0215
/CL[F6],37.45,37.26,37.27,37.16
/QM[F6],37.425,37.225,37.225,37.150
/RB[F6],1.2435,1.2395,1.2405,1.2317
/HO[F6],1.2514,1.2475,1.2475,1.2389
/NG[F6],2.073,2.052,2.065,2.062
/QG[F6],2.075,2.055,2.060,2.060
/UB[H6],159'16,159'11,159'11,159'24
/ZB[H6],155'06,155'01,155'02,155'15
/ZN[H6],126'190,126'170,126'175,126'215
/ZF[H6],118'280,118'267,118'272,118'292
/ZT[H6],108'257,108'252,108'255,108'257
/CC[H6],3382,3322,3322,3371
/CT[H6],65.23,64.03,64.44,64.81
/SB[H6],15.22,14.96,15.02,15.09
/OJ[F6],153.25,142.15,142.35,151.85
/KC[H6],127.70,124.80,125.00,126.80
/M6A[Z5],.7236,.7223,.7225,.7209
/M6B[Z5],1.5180,1.5180,1.5180,1.5164
/M6E[Z5],1.1022,1.1015,1.1019,1.1027
/LBS[F6],264.2,264.2,264.2,264.8
/HE[Z5],0,0,0,56.750
/GF[F6],0,0,0,150.625
/LE[G6],0,0,0,124.150
/VX[Z5],19.00,18.67,18.95,18.975
/XC[H6],0,0,0,373.750
/XW[H6],0,0,0,489.750
/XK[F6],0,0,0,876.750
/BZ[F6],0,0,0,40.11
/KE[H6],0,0,0,480.50
