﻿Watchlist 'FUTURES'

FUTURES
Symbol,High,Low,Open,Close
/J7[H6],.008908,.008832,.008834,.008889
/6J[H6],.0089085,.0088245,.008829,.0088895
/6M[H6],.05499,.05436,.05458,.05483
/6N[H6],.6635,.6557,.6630,.6622
/6A[H6],.7149,.7062,.7146,.7139
/M6A[H6],.7148,.7062,.7145,.7139
/6C[H6],.7286,.7222,.7285,.7262
/RB[H6],.9864,.9360,.9688,.9594
/6S[H6],1.0121,1.0042,1.0072,1.0118
/HO[H6],1.0822,1.0217,1.0775,1.0255
/6E[H6],1.11450,1.10650,1.11165,1.11415
/E7[H6],1.1145,1.1072,1.1115,1.11415
/M6E[H6],1.1145,1.1073,1.1113,1.11415
/6B[H6],1.4415,1.4247,1.4332,1.4361
/M6B[H6],1.4415,1.4247,1.4339,1.4361
/NG[H6],1.870,1.794,1.856,1.804
/QG[H6],1.870,1.795,1.855,1.804
/HG[H6],2.0945,2.0600,2.0735,2.0765
/SB[H6],12.80,12.50,12.76,12.78
/SI[H6],15.495,15.290,15.420,15.373
/YI[H6],15.485,15.300,15.450,15.373
/VX[H6],22.375,22.375,22.375,22.775
/ZL[H6],31.94,31.32,31.84,31.39
/CL[J6],32.99,31.34,32.70,31.75
/QM[J6],32.975,31.325,32.700,31.750
/BZ[J6],34.44,32.68,34.04,33.01
/CT[K6],59.97,59.35,59.57,59.70
/HE[J6],70.400,68.350,70.075,68.900
/DX[H6],97.260,96.575,96.750,96.960
/GE[H6],99.365,99.350,99.3625,99.3575
/GLB[H6],0,0,0,99.5500
/ZQ[J6],99.615,99.610,99.615,99.610
/ZT[M6],109'162,109'110,109'160,109'122
/KC[K6],117.60,115.10,115.95,116.55
/ZF[M6],121'102,120'282,121'077,121'007
/ZN[M6],130'280,130'085,130'225,130'165
/OJ[H6],132.35,129.25,130.10,130.60
/LE[J6],134.825,133.275,134.200,133.950
/GF[H6],157.125,154.750,156.300,155.875
/ZB[M6],165'24,164'12,165'04,165'08
/UB[M6],174'12,172'23,173'20,173'19
/ZO[K6],200.75,195.50,200.00,200.75
/LBS[H6],266.8,261.0,264.0,262.6
/ZM[H6],265.8,263.2,263.5,263.5
/ZC[K6],371.25,368.75,369.25,369.25
/XC[K6],370.750,368.750,368.750,369.750
/KE[K6],469.00,460.50,462.25,466.25
/ZW[K6],470.50,466.25,468.00,466.75
/XW[K6],470.250,466.000,469.000,466.750
/PA[H6],505.40,497.10,504.40,499.05
/XK[K6],884.875,880.250,880.625,880.750
/ZS[K6],884.50,880.25,882.25,882.75
/PL[J6],951.7,940.1,948.3,945.6
/TF[H6],1009.5,994.7,1003.3,1008.5
/GC[J6],1235.3,1220.6,1231.2,1230.8
/YG[J6],1236.1,1221.5,1232.7,1230.8
/EMD[H6],1309.6,1289.2,1305.2,1303.4
/ES[H6],1922.75,1898.50,1917.50,1914.50
/CC[K6],2920,2839,2897,2857
/NQ[H6],4175.00,4120.25,4156.25,4161.00
/NKD[H6],16050,15760,15990,15840
/YM[H6],16442,16245,16393,16358
