﻿Watchlist 'FUTURES'

FUTURES
Symbol,High,Low,Open,Close
/6J[M6],.0092535,.009181,.009249,.009254
/J7[M6],.009252,.009182,.009250,.009254
/6M[M6],.05598,.05556,.05562,.05547
/6N[M6],.6787,.6752,.6757,.6755
/6A[M6],.7547,.7478,.7484,.7485
/M6A[M6],.7547,.7479,.7486,.7485
/6C[M6],.7654,.7601,.7604,.7603
/6S[M6],1.0492,1.0464,1.0487,1.0495
/HO[K6],1.1706,1.1308,1.1334,1.1257
/6E[M6],1.14150,1.13700,1.13940,1.14005
/E7[M6],1.1415,1.1370,1.1394,1.14005
/M6E[M6],1.1416,1.1370,1.1399,1.14005
/RB[K6],1.4298,1.3874,1.3888,1.3812
/6B[M6],1.4143,1.4042,1.4057,1.4063
/M6B[M6],1.4141,1.4042,1.4052,1.4063
/NG[K6],2.044,2.010,2.015,2.018
/QG[K6],2.045,2.010,2.015,2.018
/HG[K6],2.0920,2.0710,2.0760,2.0765
/SB[K6],14.47,14.31,14.44,14.43
/SI[K6],15.240,15.120,15.215,15.158
/YI[K6],15.231,15.130,15.215,15.158
/VX[J6],17.40,16.46,17.25,17.275
/ZL[K6],34.16,33.85,34.10,34.10
/CL[K6],38.78,37.45,37.52,37.26
/QM[K6],38.800,37.450,37.525,37.260
/BZ[M6],40.83,39.62,39.73,39.43
/CT[K6],59.90,59.05,59.22,59.03
/HE[J6],0,0,0,67.125
/DX[M6],94.700,94.430,94.585,94.504
/GE[M6],99.330,99.315,99.330,99.330
/GLB[J6],0,0,0,99.5650
/ZQ[J6],99.6375,99.6375,99.6375,99.6375
/ZT[M6],109'140,109'117,109'140,109'137
/KC[K6],120.40,119.40,119.80,119.80
/ZF[M6],121'187,121'122,121'177,121'182
/LE[M6],0,0,0,122.225
/ZN[M6],131'085,130'310,131'075,131'080
/OJ[K6],144.75,143.00,144.25,143.65
/GF[K6],0,0,0,149.800
/ZB[M6],167'03,166'15,167'03,167'00
/UB[M6],175'29,175'05,175'29,175'30
/ZO[K6],186.25,185.25,186.25,186.25
/ZM[K6],267.8,266.5,266.8,266.8
/LBS[K6],0,0,0,293.3
/ZC[K6],362.25,361.00,361.50,361.50
/XC[K6],362.125,361.375,361.500,361.500
/KE[K6],457.00,453.75,455.75,454.25
/ZW[K6],460.75,456.25,457.50,457.00
/XW[K6],460.125,456.250,457.750,457.000
/PA[M6],544.00,536.65,536.70,533.80
/ZS[K6],907.00,903.00,905.25,904.50
/XK[K6],906.375,903.250,904.500,904.500
/PL[N6],962.7,955.1,957.7,954.7
/TF[M6],1099.6,1087.5,1088.1,1090.3
/GC[M6],1242.4,1231.0,1241.8,1237.5
/YG[M6],1242.3,1232.5,1242.3,1237.5
/EMD[M6],1425.5,1411.8,1411.8,1414.9
/ES[M6],2049.00,2030.25,2034.50,2035.10
/CC[K6],2873,2848,2858,2850
/NQ[M6],4504.75,4458.25,4467.50,4470.25
/NKD[M6],16075,15465,15490,15495
/YM[M6],17565,17422,17460,17458
