﻿Watchlist 'FUTURES'

FUTURES
Symbol,High,Low,Open,Close
/6J[M6],.009271,.009181,.009249,.0092465
/J7[M6],.009269,.009182,.009250,.0092465
/6M[M6],.05617,.05556,.05562,.05590
/6N[M6],.6808,.6752,.6757,.6791
/6A[M6],.7558,.7478,.7484,.7534
/M6A[M6],.7557,.7479,.7486,.7534
/6C[M6],.7721,.7601,.7604,.7699
/6S[M6],1.0527,1.0464,1.0487,1.0514
/6E[M6],1.14400,1.13700,1.13940,1.14190
/E7[M6],1.1440,1.1370,1.1394,1.1419
/M6E[M6],1.1440,1.1370,1.1399,1.1419
/HO[K6],1.2075,1.1308,1.1334,1.2004
/6B[M6],1.4143,1.4042,1.4057,1.4123
/M6B[M6],1.4141,1.4042,1.4052,1.4123
/RB[K6],1.4666,1.3874,1.3888,1.4637
/NG[K6],2.044,1.986,2.015,1.990
/QG[K6],2.045,1.985,2.015,1.990
/HG[K6],2.0965,2.0710,2.0760,2.0870
/SB[K6],14.75,14.23,14.44,14.69
/SI[K6],15.390,15.120,15.215,15.384
/YI[K6],15.382,15.130,15.215,15.384
/VX[J6],16.675,16.675,16.675,16.675
/ZL[K6],34.20,33.73,34.10,33.94
/CL[K6],39.84,37.45,37.52,39.72
/QM[K6],39.825,37.450,37.525,39.720
/BZ[M6],42.00,39.62,39.73,41.94
/CT[K6],60.58,59.05,59.22,60.07
/HE[J6],67.200,66.775,67.150,66.825
/DX[M6],94.700,94.090,94.585,94.252
/GE[M6],99.330,99.305,99.330,99.315
/GLB[J6],0,0,0,99.5650
/ZQ[J6],99.640,99.6375,99.6375,99.6375
/ZT[M6],109'140,109'117,109'140,109'130
/KC[K6],121.30,119.05,119.80,120.45
/ZF[M6],121'187,121'117,121'177,121'152
/LE[M6],124.375,122.850,122.875,124.025
/ZN[M6],131'085,130'270,131'075,131'010
/OJ[K6],144.75,137.80,144.25,138.90
/GF[K6],153.525,151.050,151.225,152.850
/ZB[M6],167'03,165'25,167'03,166'06
/UB[M6],175'29,174'08,175'29,174'21
/ZO[K6],189.25,185.25,186.25,187.00
/ZM[K6],274.2,266.5,266.8,273.7
/LBS[K6],295.6,288.1,290.1,290.5
/ZC[K6],362.75,359.00,361.50,362.25
/XC[K6],362.500,359.000,361.500,362.250
/KE[K6],462.00,453.75,455.75,460.00
/ZW[K6],462.50,456.25,457.50,460.25
/XW[K6],462.375,456.250,457.750,460.250
/PA[M6],544.00,534.60,536.70,538.65
/ZS[K6],917.00,903.00,905.25,916.75
/XK[K6],916.875,903.250,904.500,916.750
/PL[N6],970.0,955.1,957.7,968.4
/TF[M6],1103.5,1087.5,1088.1,1094.1
/GC[M6],1244.6,1231.0,1241.8,1243.8
/YG[M6],1246.0,1232.5,1242.3,1243.8
/EMD[M6],1433.0,1411.8,1411.8,1423.3
/ES[M6],2054.25,2030.25,2034.50,2040.70
/CC[K6],2880,2848,2858,2872
/NQ[M6],4509.75,4451.50,4467.50,4467.25
/NKD[M6],16075,15465,15490,15825
/YM[M6],17609,17422,17460,17485
