﻿Watchlist 'FUTURES'

FUTURES
Symbol,High,Low,Open,Close
/6J[U6],.0096845,.0096445,.0096495,.009648
/J7[U6],.009683,.009647,.009647,.009648
/6M[U6],.05321,.05301,.05303,.05307
/6N[U6],.7100,.7070,.7081,.7078
/6A[U6],.7441,.7428,.7430,.7430
/M6A[U6],.7439,.7429,.7432,.7430
/6C[U6],.7819,.7808,.7810,.7814
/6S[U6],1.0450,1.0441,1.0446,1.0441
/M6E[U6],1.1363,1.1347,1.1349,1.1351
/6E[U6],1.13620,1.13455,1.13480,1.13515
/E7[U6],1.1361,1.1347,1.1347,1.1352
/6B[U6],1.4706,1.4670,1.4689,1.4702
/M6B[U6],1.4704,1.4673,1.4700,1.4702
/HO[N6],1.5237,1.5200,1.5212,1.5274
/RB[N6],1.5759,1.5685,1.5699,1.5827
/HG[N6],2.0920,2.0885,2.0920,2.0930
/QG[N6],2.745,2.730,2.745,2.745
/NG[N6],2.750,2.730,2.743,2.747
/SI[N6],17.550,17.465,17.500,17.514
/YI[N6],17.530,17.465,17.465,17.514
/VX[N6],18.62,18.05,18.54,18.475
/SB[N6],0,0,0,19.69
/ZL[N6],31.95,31.66,31.76,31.64
/QM[Q6],49.975,49.625,49.775,49.950
/CL[Q6],49.96,49.61,49.80,49.96
/BZ[Q6],50.53,50.19,50.46,50.65
/CT[N6],0,0,0,64.39
/HE[Q6],0,0,0,88.950
/DX[U6],93.620,93.595,93.620,93.684
/GE[U6],99.260,99.255,99.255,99.260
/GLB[N6],0,0,0,99.5375
/ZQ[N6],0,0,0,99.625
/ZT[U6],109'110,109'097,109'100,109'107
/LE[Q6],0,0,0,110.250
/ZF[U6],121'105,121'062,121'062,121'097
/ZN[U6],131'170,131'100,131'100,131'145
/GF[Q6],0,0,0,136.675
/KC[N6],0,0,0,139.50
/OJ[N6],0,0,0,166.90
/ZB[U6],168'00,167'20,167'20,168'01
/UB[U6],180'23,180'06,180'07,180'29
/ZO[N6],0,0,0,208.25
/LBS[N6],0,0,0,299.8
/ZM[N6],405.8,403.3,404.0,402.7
/ZC[N6],422.25,420.00,420.50,421.25
/XC[N6],422.375,420.500,421.000,421.250
/KE[N6],453.50,450.25,450.25,451.25
/ZW[N6],475.75,472.75,473.00,473.00
/XW[N6],473.000,470.875,470.875,473.000
/PA[U6],549.80,547.60,549.45,548.45
/PL[N6],992.0,985.5,988.4,987.2
/ZS[N6],1151.75,1144.25,1145.00,1143.50
/XK[N6],1150.000,1143.375,1143.375,1143.500
/TF[U6],1152.6,1150.5,1152.6,1150.7
/GC[Q6],1295.6,1289.9,1292.5,1292.1
/YG[Q6],1295.9,1292.4,1292.4,1292.1
/EMD[U6],1493.3,1490.1,1492.2,1491.3
/ES[U6],2079.50,2074.25,2079.00,2074.25
/CC[U6],0,0,0,3123
/NQ[U6],4399.75,4388.50,4398.50,4390.00
/NKD[U6],16050,15835,15995,15900
/YM[U6],17752,17711,17752,17712
