﻿Watchlist 'FUTURES'

FUTURES
Symbol,High,Low,Open,Close
/ES[H6],1921.00,1913.00,1913.50,1914.50
/TF[H6],1030.9,995.4,1009.2,1020.5
/NQ[H6],4268.75,4249.75,4255.00,4257.50
/YM[H6],16331,16264,16268,16281
/GC[G6],1079.6,1076.6,1079.2,1073.6
/YG[G6],1095.4,1071.7,1094.6,1073.6
/SI[H6],13.855,13.825,13.850,13.748
/YI[H6],14.183,13.733,14.125,13.748
/PL[J6],838.1,835.4,835.5,834.8
/PA[H6],494.20,492.15,492.15,491.25
/HG[H6],1.9800,1.9770,1.9790,1.9760
/ZC[H6],0,0,0,358.00
/ZW[H6],0,0,0,468.75
/ZS[H6],0,0,0,882.25
/ZM[H6],0,0,0,274.2
/ZL[H6],0,0,0,29.75
/ZO[H6],0,0,0,200.25
/ZQ[F6],0,0,0,99.665
/GE[H6],99.325,99.320,99.320,99.320
/GLB[H6],0,0,0,99.4925
/EMD[H6],1288.0,1288.0,1288.0,1285.4
/NKD[H6],17630,17500,17520,17525
/DX[H6],99.330,98.650,98.915,99.155
/6A[H6],.6982,.6964,.6965,.6977
/6B[H6],1.4425,1.4414,1.4418,1.4405
/6C[H6],.6972,.6965,.6967,.6967
/6E[H6],1.08820,1.08700,1.08800,1.08780
/E7[H6],1.0881,1.0871,1.0880,1.0878
/6J[H6],.008474,.0084635,.0084735,.0084725
/J7[H6],.008471,.008464,.008470,.008472
/6M[H6],.05581,.05575,.05581,.05575
/6N[H6],.6469,.6453,.6455,.6464
/6S[H6],.9974,.9967,.9974,.9970
/CL[H6],32.13,32.00,32.11,32.11
/QM[H6],32.100,32.000,32.100,32.100
/RB[G6],1.0787,1.0719,1.0787,1.0684
/HO[G6],.9870,.9832,.9869,.9808
/NG[G6],2.150,2.136,2.144,2.139
/QG[G6],2.150,2.145,2.145,2.140
/UB[H6],162'10,162'05,162'07,162'07
/ZB[H6],157'18,157'14,157'18,157'15
/ZN[H6],127'285,127'260,127'285,127'265
/ZF[H6],119'232,119'212,119'230,119'220
/ZT[H6],108'317,108'310,108'315,108'315
/CC[H6],2894,2844,2889,2857
/CT[H6],62.46,61.75,62.02,61.90
/SB[H6],14.98,14.39,14.55,14.88
/OJ[H6],131.85,129.90,131.85,130.25
/KC[H6],116.10,113.50,114.80,115.90
/M6A[H6],.6983,.6965,.6966,.6977
/M6B[H6],1.4424,1.4415,1.4415,1.4405
/M6E[H6],1.0883,1.0871,1.0881,1.0878
/LBS[H6],0,0,0,248.6
/HE[G6],0,0,0,62.350
/GF[F6],0,0,0,158.800
/LE[G6],0,0,0,130.550
/VX[F6],23.95,23.30,23.55,23.575
/XC[H6],0,0,0,358.000
/XW[H6],0,0,0,468.750
/XK[H6],0,0,0,882.250
/BZ[H6],30.98,30.91,30.98,30.88
/KE[H6],0,0,0,468.50
