﻿Watchlist 'FUTURES'

FUTURES
Symbol,High,Low,Open,Close
/J7[H6],.008937,.008923,.008932,.008960
/6J[H6],.0089395,.008922,.0089265,.0089605
/6M[H6],.05493,.05475,.05476,.05490
/6N[H6],.6658,.6650,.6650,.6648
/6A[H6],.7192,.7182,.7185,.7196
/M6A[H6],.7192,.7179,.7179,.7196
/6C[H6],.7300,.7296,.7298,.7293
/RB[H6],1.0173,1.0136,1.0173,1.0104
/6S[H6],1.0121,1.0116,1.0119,1.0130
/HO[H6],1.0564,1.0535,1.0535,1.0594
/6E[H6],1.10240,1.10170,1.10215,1.10190
/E7[H6],1.1023,1.1017,1.1021,1.1019
/M6E[H6],1.1024,1.1017,1.1021,1.1019
/6B[H6],1.3934,1.3924,1.3931,1.3915
/M6B[H6],1.3928,1.3925,1.3925,1.3915
/NG[J6],1.837,1.824,1.832,1.834
/QG[J6],1.830,1.825,1.830,1.835
/HG[K6],2.1235,2.1145,2.1200,2.1010
/SB[H6],14.14,13.82,13.95,13.97
/YI[K6],15.644,15.253,15.392,15.280
/SI[K6],15.290,15.220,15.290,15.332
/VX[H6],21.80,21.57,21.80,21.775
/ZL[K6],0,0,0,31.19
/CL[J6],32.27,32.16,32.19,32.15
/QM[J6],32.250,32.150,32.200,32.150
/BZ[K6],0,0,0,35.07
/CT[K6],58.02,57.26,58.00,57.41
/HE[J6],0,0,0,71.475
/DX[H6],97.925,97.240,97.480,97.464
/GE[H6],99.330,99.3275,99.330,99.3325
/GLB[H6],0,0,0,99.5250
/ZQ[J6],99.605,99.605,99.605,99.605
/ZT[M6],109'125,109'122,109'125,109'130
/KC[K6],118.80,115.50,118.80,117.00
/ZF[M6],121'032,121'015,121'025,121'027
/OJ[H6],127.45,124.95,125.75,125.50
/ZN[M6],130'195,130'165,130'180,130'200
/LE[J6],0,0,0,136.150
/GF[H6],0,0,0,157.950
/ZB[M6],165'06,164'29,165'02,165'11
/UB[M6],173'22,173'14,173'21,173'27
/ZO[K6],0,0,0,187.00
/LBS[H6],0,0,0,259.1
/ZM[K6],0,0,0,264.6
/ZC[K6],0,0,0,364.50
/XC[K6],0,0,0,364.500
/ZW[K6],0,0,0,451.25
/XW[K6],0,0,0,451.250
/KE[K6],0,0,0,453.75
/PA[M6],489.20,485.75,487.00,487.55
/ZS[K6],0,0,0,872.25
/XK[K6],0,0,0,872.250
/PL[J6],940.0,932.7,939.0,943.7
/TF[H6],1023.3,993.2,1008.4,1022.0
/GC[J6],1229.0,1221.8,1228.9,1239.1
/YG[J6],1254.7,1223.5,1231.0,1239.1
/EMD[H6],1323.3,1322.0,1322.0,1320.1
/ES[H6],1936.50,1929.75,1933.00,1930.25
/CC[K6],2939,2852,2884,2929
/NQ[H6],4224.25,4209.00,4214.50,4208.50
/NKD[H6],16010,15915,15995,15955
/YM[H6],16528,16471,16497,16473
