﻿Watchlist 'FUTURES'

FUTURES
Symbol,High,Low,Open,Close
/6J[Z6],.0099315,.009906,.0099225,.0099255
/J7[Z6],.009931,.009908,.009917,.009926
/6M[Z6],.05078,.05065,.05073,.05101
/6N[Z6],.7234,.7207,.7231,.7239
/6C[Z6],.76120,.75990,.76100,.76110
/6A[Z6],.7623,.7600,.7619,.7630
/M6A[Z6],.7624,.7601,.7619,.7630
/6S[Z6],1.0400,1.0385,1.0398,1.0394
/6E[Z6],1.12600,1.12405,1.12535,1.12520
/E7[Z6],1.1260,1.1241,1.1256,1.1252
/M6E[Z6],1.1260,1.1241,1.1259,1.1252
/6B[Z6],1.2992,1.2962,1.2982,1.2987
/M6B[Z6],1.2991,1.2963,1.2988,1.2987
/RB[X6],1.4464,1.4421,1.4434,1.4421
/HO[X6],1.5220,1.5150,1.5178,1.5191
/HG[Z6],2.1925,2.1850,2.1910,2.1900
/NG[X6],2.966,2.949,2.966,2.959
/QG[V6],0,0,0,2.995
/VX[V6],16.35,15.90,15.95,15.925
/SI[Z6],19.205,19.130,19.160,19.188
/YI[Z6],19.205,19.140,19.150,19.188
/SB[H7],0,0,0,23.35
/ZL[Z6],33.33,33.08,33.32,33.34
/QM[X6],47.875,47.675,47.725,47.825
/CL[X6],47.86,47.65,47.76,47.83
/BZ[Z6],49.80,49.66,49.73,49.81
/HE[V6],0,0,0,52.025
/CT[Z6],67.55,67.45,67.55,67.73
/DX[Z6],95.550,95.470,95.470,95.472
/GE[Z6],99.090,99.080,99.085,99.085
/GLB[Z6],0,0,0,99.3575
/ZQ[V6],0,0,0,99.605
/LE[V6],0,0,0,101.900
/ZT[Z6],109'100,109'090,109'092,109'090
/ZF[Z6],121'260,121'225,121'227,121'232
/GF[V6],0,0,0,127.500
/ZN[Z6],131'215,131'150,131'160,131'175
/KC[Z6],0,0,0,150.15
/ZB[Z6],169'27,169'16,169'17,169'20
/ZO[Z6],177.00,176.00,176.25,176.00
/UB[Z6],186'10,185'28,185'28,186'01
/OJ[X6],0,0,0,203.70
/ZM[Z6],298.6,297.2,298.4,298.7
/ZC[Z6],329.25,328.50,329.00,329.25
/XC[Z6],329.000,328.375,328.500,329.250
/LBS[X6],0,0,0,330.1
/ZW[Z6],399.25,398.25,398.50,399.00
/XW[Z6],399.000,398.500,399.000,399.000
/KE[Z6],417.50,416.25,417.00,417.25
/PA[Z6],718.60,714.55,716.80,719.50
/ZS[X6],950.00,945.00,950.00,950.25
/XK[X6],950.000,945.000,949.750,950.250
/PL[F7],1035.6,1030.1,1032.3,1037.2
/TF[Z6],1234.4,1230.8,1234.1,1236.2
/GC[Z6],1327.5,1323.4,1323.6,1326.0
/YG[Z6],1327.0,1325.1,1325.1,1326.0
/EMD[Z6],1539.7,1534.6,1537.3,1536.1
/ES[Z6],2146.00,2140.50,2145.75,2148.50
/CC[Z6],0,0,0,2728
/NQ[Z6],4840.25,4822.25,4839.25,4844.25
/NKD[Z6],16560,16430,16560,16560
/YM[Z6],18078,18030,18074,18097
