﻿Watchlist 'FUTURES'

FUTURES
Symbol,High,Low,Open,Close
/6J[U6],.0099285,.009813,.0098975,.009846
/J7[U6],.009928,.009814,.009900,.009846
/6M[U6],.05317,.05256,.05266,.05313
/6N[U6],.7205,.7106,.7160,.7131
/6C[U6],.76890,.75770,.76810,.76000
/6A[U6],.7655,.7588,.7617,.7617
/M6A[U6],.7655,.7588,.7616,.7617
/6S[U6],1.0305,1.0195,1.0287,1.0230
/6E[U6],1.11805,1.10640,1.11460,1.11095
/E7[U6],1.1180,1.1065,1.1146,1.1110
/M6E[U6],1.1180,1.1064,1.1150,1.1110
/6B[U6],1.3184,1.3028,1.3125,1.3090
/M6B[U6],1.3188,1.3029,1.3124,1.3090
/HO[U6],1.3280,1.2990,1.3210,1.3170
/RB[U6],1.3797,1.3504,1.3670,1.3763
/HG[U6],2.1815,2.1505,2.1740,2.1540
/NG[U6],2.832,2.756,2.829,2.772
/QG[U6],2.830,2.755,2.830,2.772
/VX[Q6],12.875,12.875,12.875,13.425
/SI[U6],20.470,19.715,20.410,19.817
/YI[U6],20.458,19.701,20.361,19.817
/SB[V6],20.47,19.61,19.80,20.35
/ZL[Z6],31.22,30.72,31.13,31.01
/CL[U6],42.10,41.06,41.84,41.80
/QM[U6],42.100,41.050,41.825,41.800
/BZ[V6],44.49,43.50,44.19,44.27
/HE[Q6],68.100,67.350,67.750,67.450
/CT[Z6],77.98,75.84,75.90,76.74
/DX[U6],96.500,95.485,95.705,96.136
/GE[U6],99.170,99.130,99.165,99.135
/GLB[Z6],0,0,0,99.3650
/ZQ[V6],99.5850,99.5550,99.5750,99.5800
/ZT[U6],109'170,109'110,109'167,109'115
/LE[V6],115.875,114.425,115.600,115.525
/ZF[U6],122'032,121'157,122'032,121'170
/ZN[U6],133'020,132'015,133'005,132'045
/KC[U6],143.90,141.25,142.90,142.50
/GF[Q6],149.950,147.525,148.500,149.650
/ZB[U6],173'21,171'11,173'10,171'18
/OJ[U6],185.15,174.65,175.00,183.40
/ZO[Z6],188.00,182.00,186.00,184.25
/UB[U6],189'00,185'28,188'10,186'08
/LBS[U6],326.0,321.8,323.9,322.6
/ZM[Z6],331.9,324.0,324.0,331.4
/ZC[Z6],335.00,330.00,330.50,334.25
/XC[Z6],334.750,330.250,331.000,334.250
/KE[U6],417.00,405.00,405.75,411.75
/ZW[U6],418.50,403.00,403.25,416.00
/XW[U6],418.000,403.625,403.625,416.000
/PA[U6],707.95,690.05,704.05,696.30
/ZS[X6],979.75,957.00,957.00,974.50
/XK[X6],979.000,956.125,956.125,974.500
/PL[V6],1170.9,1142.4,1162.7,1151.5
/TF[U6],1231.8,1210.5,1210.8,1228.4
/GC[Z6],1371.0,1340.4,1367.2,1344.4
/YG[Z6],1371.2,1340.6,1367.0,1344.4
/EMD[U6],1562.2,1542.8,1543.0,1559.9
/ES[U6],2178.50,2159.25,2159.50,2176.75
/CC[U6],3041,2997,3005,3021
/NQ[U6],4797.75,4742.50,4745.00,4783.00
/NKD[U6],16505,16205,16255,16440
/YM[U6],18474,18273,18275,18454
