﻿Watchlist 'FUTURES'

FUTURES
Symbol,High,Low,Open,Close
/ES[H6],2017.00,2006.25,2009.00,2009.10
/TF[H6],1111.8,1106.1,1109.0,1106.0
/NQ[H6],4523.00,4498.25,4505.50,4504.50
/YM[H6],17153,17065,17086,17085
/GC[G6],1079.3,1071.9,1073.5,1075.2
/YG[G6],1079.6,1074.6,1076.4,1075.2
/SI[H6],13.990,13.845,13.860,13.841
/YI[H6],13.985,13.885,13.900,13.841
/PL[J6],893.0,880.7,886.8,884.5
/PA[H6],546.00,537.05,538.45,544.20
/HG[H6],2.1115,2.0735,2.0825,2.0795
/ZC[H6],354.75,352.50,352.75,351.50
/ZW[H6],460.75,459.00,460.25,458.25
/ZS[H6],863.50,858.00,858.25,856.00
/ZM[H6],267.2,265.0,265.0,264.4
/ZL[H6],30.37,30.19,30.29,30.12
/ZO[H6],210.50,207.25,210.50,210.50
/ZQ[F6],99.6675,99.6675,99.6675,99.665
/GE[H6],99.285,99.275,99.275,99.275
/GLB[H6],0,0,0,99.4625
/EMD[H6],1382.1,1375.9,1378.3,1376.5
/NKD[H6],18585,18335,18360,18320
/DX[H6],99.115,98.855,98.910,98.968
/6A[H6],.7190,.7154,.7157,.7158
/6B[H6],1.4727,1.4708,1.4719,1.4713
/6C[H6],.7195,.7173,.7180,.7167
/6E[H6],1.0857,1.0823,1.0849,1.0846
/E7[H6],1.0856,1.0823,1.0846,1.0846
/6J[H6],.0084075,.008365,.0083915,.0083935
/J7[H6],.008407,.008365,.008394,.0083935
/6M[H6],.05762,.05748,.05748,.05740
/6N[H6],.6730,.6697,.6723,.6720
/6S[H6],1.0023,.9985,1.0010,1.0008
/CL[G6],37.10,36.61,36.90,36.76
/QM[G6],37.075,36.600,36.875,36.750
/RB[G6],1.2999,1.2881,1.2919,1.2907
/HO[G6],1.1386,1.1244,1.1346,1.1264
/NG[G6],2.300,2.279,2.290,2.334
/QG[G6],2.295,2.280,2.290,2.334
/UB[H6],159'18,158'27,159'12,159'08
/ZB[H6],154'15,153'28,154'09,154'08
/ZN[H6],126'075,126'005,126'050,126'050
/ZF[H6],118'165,118'122,118'150,118'150
/ZT[H6],108'215,108'202,108'210,108'212
/CC[H6],0,0,0,3124
/CT[H6],62.86,62.52,62.59,62.61
/SB[H6],0,0,0,14.97
/OJ[H6],0,0,0,145.75
/KC[H6],0,0,0,123.90
/M6A[H6],.7192,.7156,.7157,.7158
/M6B[H6],1.4728,1.4708,1.4711,1.4713
/M6E[H6],1.0857,1.0822,1.0850,1.0846
/LBS[F6],0,0,0,254.4
/HE[G6],0,0,0,59.425
/GF[F6],0,0,0,167.625
/LE[G6],0,0,0,136.425
/VX[F6],19.90,19.40,19.85,19.825
/XC[H6],354.625,351.500,351.500,351.500
/XW[H6],460.250,459.000,459.500,458.250
/XK[H6],863.000,857.000,857.000,856.000
/BZ[G6],37.57,36.97,37.32,37.22
/KE[H6],457.25,454.75,457.25,454.25
