﻿Watchlist 'FUTURES'

FUTURES
Symbol,High,Low,Open,Close
/6J[Z6],.0095905,.009574,.009577,.0095745
/J7[Z6],.009590,.009573,.009578,.009575
/6M[Z6],.05370,.05359,.05362,.05332
/6N[Z6],.7337,.7316,.7335,.7309
/6C[Z6],.74820,.74705,.74795,.74835
/6A[Z6],.7719,.7694,.7719,.7709
/M6A[Z6],.7716,.7694,.7716,.7709
/6S[Z6],1.0290,1.0279,1.0286,1.0282
/6E[Z6],1.10680,1.10500,1.10615,1.10565
/E7[Z6],1.1068,1.1050,1.1060,1.1057
/M6E[Z6],1.1067,1.1050,1.1058,1.1057
/6B[Z6],1.2413,1.2390,1.2403,1.2408
/M6B[Z6],1.2410,1.2402,1.2402,1.2408
/RB[Z6],1.3722,1.3664,1.3700,1.3710
/HO[Z6],1.4450,1.4400,1.4450,1.4406
/HG[Z6],2.3140,2.3000,2.3125,2.3095
/NG[Z6],2.838,2.821,2.832,2.816
/QG[Z6],2.835,2.825,2.830,2.816
/VX[X6],16.30,16.03,16.05,16.025
/SI[Z6],18.255,18.185,18.200,18.151
/YI[Z6],18.247,18.201,18.247,18.151
/SB[H7],0,0,0,22.27
/ZL[Z6],35.01,34.82,34.90,34.79
/CL[Z6],44.99,44.82,44.97,44.89
/QM[Z6],45.000,44.825,45.000,44.890
/BZ[F7],46.31,46.15,46.24,46.15
/HE[Z6],0,0,0,47.100
/CT[Z6],0,0,0,68.45
/DX[Z6],97.840,97.765,97.790,97.793
/GE[Z6],99.060,99.055,99.055,99.060
/GLB[Z6],0,0,0,99.3225
/ZQ[X6],99.595,99.595,99.595,99.5925
/LE[Z6],0,0,0,101.650
/ZT[Z6],109'055,109'050,109'052,109'052
/GF[F7],0,0,0,116.250
/ZF[Z6],120'312,120'300,120'300,120'300
/ZN[Z6],129'290,129'265,129'270,129'270
/ZB[Z6],162'27,162'19,162'20,162'19
/KC[Z6],0,0,0,174.35
/UB[Z6],175'30,175'19,175'19,175'18
/OJ[F7],0,0,0,222.05
/ZO[Z6],0,0,0,228.00
/LBS[X6],0,0,0,299.3
/ZM[Z6],312.4,311.5,312.4,311.9
/ZC[Z6],346.00,345.25,346.00,346.25
/XC[Z6],346.000,345.375,345.375,346.250
/ZW[Z6],411.00,409.00,410.50,410.00
/XW[Z6],410.750,410.750,410.750,410.000
/KE[Z6],411.00,410.00,410.00,410.00
/PA[Z6],654.00,644.15,651.85,656.40
/ZS[F7],1000.75,998.00,998.50,998.50
/XK[F7],1000.000,997.625,997.625,998.500
/PL[F7],1003.2,998.7,1001.9,1001.4
/TF[Z6],1189.7,1188.0,1189.7,1191.3
/GC[Z6],1284.0,1281.2,1282.2,1279.4
/YG[Z6],1284.1,1282.1,1283.1,1279.4
/EMD[Z6],1506.7,1503.8,1506.2,1507.0
/ES[Z6],2130.00,2125.25,2129.00,2129.10
/CC[Z6],0,0,0,2491
/NQ[Z6],4780.00,4765.75,4777.50,4775.75
/NKD[Z6],17335,17205,17320,16880
/YM[Z6],18195,18157,18188,18192
