﻿Watchlist 'FUTURES'

FUTURES
Symbol,High,Low,Open,Close
/6J[U6],.0097855,.009704,.0097055,.009778
/J7[U6],.009785,.009705,.009709,.009778
/6M[U6],.05475,.05381,.05410,.05395
/6N[U6],.7170,.7090,.7105,.7141
/6A[U6],.7483,.7416,.7423,.7463
/M6A[U6],.7482,.7417,.7424,.7463
/6C[U6],.7774,.7708,.7727,.7744
/6S[U6],1.0341,1.0266,1.0287,1.0311
/6E[U6],1.11995,1.11020,1.11325,1.11650
/E7[U6],1.1199,1.1103,1.1130,1.1165
/M6E[U6],1.1199,1.1102,1.1131,1.1165
/6B[U6],1.3359,1.3255,1.3302,1.3293
/M6B[U6],1.3359,1.3256,1.3286,1.3293
/HO[Q6],1.5225,1.4731,1.4918,1.5115
/RB[Q6],1.5253,1.4658,1.5025,1.5135
/HG[U6],2.2375,2.1635,2.2015,2.2170
/NG[Q6],2.998,2.891,2.931,2.987
/QG[Q6],3.000,2.890,2.930,2.987
/VX[N6],16.775,16.775,16.775,16.975
/SI[U6],19.980,18.795,18.815,19.588
/YI[U6],19.961,18.799,18.875,19.588
/SB[V6],21.05,20.31,20.38,20.78
/ZL[Z6],32.48,31.60,32.10,31.64
/CL[Q6],49.30,47.90,48.38,48.99
/QM[Q6],49.275,47.900,48.375,48.990
/BZ[U6],50.65,49.26,49.85,50.35
/CT[Z6],65.18,64.34,64.55,64.99
/HE[Q6],84.275,82.875,83.425,83.950
/DX[U6],96.170,95.480,95.955,95.714
/GE[U6],99.370,99.345,99.360,99.345
/GLB[N6],0,0,0,99.5350
/ZQ[N6],99.6225,99.6150,99.6225,99.6200
/ZT[U6],109'240,109'200,109'215,109'202
/LE[Q6],115.350,112.775,114.850,112.975
/ZF[U6],122'190,122'037,122'065,122'045
/ZN[U6],133'295,132'315,133'010,133'025
/GF[Q6],145.050,141.875,143.700,142.450
/KC[U6],148.00,144.60,146.00,146.40
/ZB[U6],175'11,172'21,172'22,173'22
/OJ[U6],179.80,177.20,178.30,178.25
/UB[U6],190'16,186'26,186'29,188'09
/ZO[Z6],203.75,190.75,201.50,192.75
/LBS[N6],310.8,307.3,308.7,309.3
/ZC[Z6],375.00,365.75,373.25,367.00
/XC[Z6],374.750,365.750,374.750,367.000
/ZM[Z6],402.2,396.5,400.4,398.0
/KE[U6],422.50,409.00,422.25,411.50
/ZW[U6],446.00,428.00,445.75,430.25
/XW[U6],447.000,428.000,447.000,430.250
/PA[U6],607.00,592.20,600.70,605.65
/PL[V6],1066.1,1026.2,1027.4,1057.1
/ZS[X6],1157.50,1136.25,1153.00,1137.50
/XK[X6],1157.500,1136.000,1152.000,1137.500
/TF[U6],1158.3,1144.4,1146.5,1154.2
/GC[Q6],1347.0,1323.1,1324.8,1339.0
/YG[Q6],1347.8,1324.5,1325.3,1339.0
/EMD[U6],1503.6,1486.8,1491.1,1496.7
/ES[U6],2100.75,2081.50,2086.50,2096.25
/CC[U6],3000,2968,2976,2995
/NQ[U6],4446.25,4386.25,4397.00,4433.25
/NKD[U6],15815,15610,15790,15630
/YM[U6],17903,17762,17789,17866
