﻿Watchlist 'FUTURES'

FUTURES
Symbol,High,Low,Open,Close
/ES[H6],1933.00,1876.50,1878.75,1930.00
/TF[H6],1035.8,995.8,997.7,1031.4
/NQ[H6],4271.25,4129.00,4135.00,4263.00
/YM[H6],16376,15937,15957,16356
/GC[J6],1118.9,1108.5,1114.8,1116.4
/YG[J6],1119.7,1109.5,1116.1,1116.4
/SI[H6],14.310,14.160,14.250,14.243
/YI[H6],14.299,14.160,14.257,14.243
/PL[J6],877.0,861.0,868.0,874.3
/PA[H6],503.00,492.50,493.00,498.50
/HG[H6],2.0695,2.0455,2.0520,2.0670
/ZC[H6],372.50,365.00,365.25,372.00
/ZW[H6],479.75,470.75,472.25,479.25
/ZS[H6],883.00,867.00,868.75,882.25
/ZM[H6],272.7,266.6,267.4,272.4
/ZL[H6],30.92,30.47,30.71,30.88
/ZO[H6],201.50,198.50,201.00,200.75
/ZQ[J6],99.610,99.585,99.595,99.590
/GE[H6],99.390,99.360,99.360,99.375
/GLB[H6],0,0,0,99.5350
/EMD[H6],1317.0,1267.3,1268.8,1314.8
/NKD[H6],17910,16780,17075,17885
/DX[H6],99.880,98.600,98.680,99.652
/6A[H6],.7127,.7044,.7071,.7053
/6B[H6],1.4414,1.4150,1.4360,1.4242
/6C[H6],.7159,.7088,.7127,.7137
/6E[H6],1.09600,1.08210,1.09495,1.08385
/E7[H6],1.0960,1.0821,1.0950,1.08385
/6J[H6],.008475,.0082095,.0084245,.0082635
/J7[H6],.008447,.008216,.008421,.008263
/6M[H6],.05509,.05433,.05439,.05489
/6N[H6],.6527,.6442,.6459,.6460
/6S[H6],.9884,.9766,.9878,.9774
/CL[H6],34.40,32.65,33.70,33.62
/QM[H6],34.400,32.650,33.675,33.620
/RB[H6],1.1395,1.0914,1.1195,1.1323
/HO[H6],1.0838,1.0397,1.0635,1.0787
/NG[H6],2.315,2.218,2.224,2.298
/QG[H6],2.315,2.200,2.230,2.298
/UB[H6],167'10,165'04,165'12,166'06
/ZB[H6],161'27,159'29,160'06,161'01
/ZN[H6],129'220,128'310,129'020,129'185
/ZF[H6],120'232,120'090,120'110,120'215
/ZT[H6],109'107,109'062,109'070,109'100
/CC[H6],2830,2754,2806,2761
/CT[H6],61.89,60.76,61.34,61.13
/SB[H6],13.43,13.07,13.33,13.14
/OJ[H6],138.90,131.10,134.10,132.40
/KC[H6],119.85,115.85,119.25,116.35
/M6A[H6],.7126,.7044,.7071,.7053
/M6B[H6],1.4411,1.4150,1.4363,1.4242
/M6E[H6],1.0960,1.0821,1.0951,1.08385
/LBS[H6],242.4,238.4,240.8,240.4
/HE[G6],66.100,65.325,65.500,65.800
/GF[H6],160.275,155.250,159.900,157.250
/LE[G6],136.950,133.850,136.075,135.300
/VX[G6],21.625,21.625,21.625,23.275
/XC[H6],372.375,365.000,365.000,372.000
/XW[H6],479.250,470.500,473.250,479.250
/XK[H6],882.500,867.000,868.000,882.250
/BZ[J6],36.17,34.59,34.99,35.99
/KE[H6],472.25,463.00,464.50,472.00
