﻿Watchlist 'FUTURES'

FUTURES
Symbol,High,Low,Open,Close
/6J[H7],.0087515,.0087305,.008745,.008727
/J7[H7],.008749,.008738,.008740,.008727
/6M[H7],.04902,.04886,.04902,.04898
/6N[H7],.7187,.7173,.7177,.7162
/6A[H7],.7499,.7474,.7480,.7471
/M6A[H7],.7499,.7480,.7480,.7471
/6C[Z6],.76235,.76160,.76160,.76120
/6S[H7],.9930,.9926,.9930,.9915
/6E[H7],1.06985,1.06855,1.06900,1.06790
/E7[H7],1.0698,1.0689,1.0695,1.0679
/M6E[H7],1.0700,1.0679,1.0681,1.0679
/6B[H7],1.2715,1.2704,1.2714,1.2701
/M6B[H7],1.2678,1.2678,1.2678,1.2701
/RB[F7],1.5436,1.5261,1.5387,1.5430
/HO[F7],1.6734,1.6644,1.6705,1.6717
/HG[H7],2.6065,2.5930,2.6020,2.6190
/NG[F7],3.540,3.523,3.525,3.507
/QG[F7],3.540,3.520,3.530,3.507
/VX[Z6],13.50,13.40,13.40,13.425
/SI[H7],17.205,17.130,17.130,17.187
/YI[H7],17.186,17.175,17.180,17.187
/SB[H7],0,0,0,19.25
/ZL[F7],37.04,36.96,36.98,36.97
/CL[F7],52.76,52.47,52.51,52.83
/QM[F7],52.775,52.475,52.475,52.830
/BZ[G7],55.75,55.37,55.37,55.69
/HE[Z6],0,0,0,57.375
/CT[H7],0,0,0,71.69
/GE[Z6],99.015,99.015,99.015,99.015
/GLB[Z6],0,0,0,99.2775
/ZQ[F7],99.355,99.355,99.355,99.360
/DX[H7],100.875,100.845,100.875,100.929
/ZT[H7],108'132,108'122,108'122,108'125
/LE[G7],0,0,0,112.950
/ZF[H7],117'262,117'232,117'237,117'232
/ZN[H7],124'070,124'010,124'015,124'000
/GF[F7],0,0,0,128.550
/KC[H7],0,0,0,142.00
/ZB[H7],149'06,148'23,148'25,148'19
/UB[H7],158'07,157'19,157'20,157'14
/OJ[F7],0,0,0,204.50
/ZO[H7],231.50,230.75,231.50,230.25
/ZM[F7],316.6,316.2,316.3,316.2
/LBS[F7],0,0,0,316.3
/ZC[H7],360.50,359.75,360.00,360.50
/XC[H7],360.000,359.875,359.875,360.500
/KE[H7],415.00,413.50,414.75,414.75
/ZW[H7],418.50,416.25,417.25,417.25
/XW[H7],418.875,417.500,418.000,417.250
/PA[H7],726.85,722.55,722.55,727.55
/PL[F7],934.2,930.9,933.5,933.7
/ZS[F7],1032.25,1030.75,1031.25,1031.00
/XK[F7],1032.000,1031.000,1031.000,1031.000
/GC[G7],1167.0,1164.5,1164.5,1165.8
/YG[G7],1166.1,1165.8,1165.8,1165.8
/TF[H7],1373.3,1372.1,1372.1,1372.8
/EMD[H7],1681.1,1680.6,1680.6,1681.4
/CC[H7],0,0,0,2240
/ES[H7],2251.50,2247.75,2250.25,2250.40
/NQ[H7],4870.00,4859.50,4865.50,4866.25
/NKD[H7],19180,19075,19135,19135
/YM[H7],19740,19714,19731,19723
