﻿Watchlist 'FUTURES'

FUTURES
Symbol,High,Low,Open,Close
/6J[Z6],.0095305,.009517,.009523,.0095325
/J7[Z6],.009527,.009527,.009527,.009533
/6M[Z6],.05459,.05438,.05441,.05406
/6N[Z6],.7360,.7353,.7354,.7374
/6C[Z6],.75280,.75205,.75250,.75105
/6A[Z6],.7750,.7734,.7736,.7745
/M6A[Z6],.7750,.7734,.7736,.7745
/6S[Z6],1.0234,1.0193,1.0231,1.0260
/6E[Z6],1.10310,1.10205,1.10300,1.10470
/E7[Z6],1.1032,1.1020,1.1031,1.1047
/M6E[Z6],1.1032,1.1020,1.1027,1.1047
/6B[Z6],1.2380,1.2367,1.2379,1.2404
/M6B[Z6],1.2385,1.2368,1.2385,1.2404
/RB[Z6],1.3737,1.3683,1.3700,1.3692
/HO[Z6],1.4432,1.4397,1.4403,1.4411
/HG[Z6],2.3800,2.3765,2.3790,2.3800
/NG[Z6],2.624,2.612,2.612,2.633
/QG[Z6],2.620,2.615,2.615,2.635
/VX[X6],16.02,15.54,15.95,15.975
/SI[Z6],18.400,18.275,18.400,18.356
/YI[Z6],18.697,18.175,18.247,18.356
/SB[H7],22.32,21.91,22.27,21.97
/ZL[Z6],0,0,0,35.31
/QM[Z6],44.950,44.825,44.825,44.975
/CL[Z6],44.96,44.81,44.82,44.98
/BZ[F7],46.02,45.95,45.95,46.04
/HE[Z6],0,0,0,46.975
/CT[Z6],70.11,68.19,68.54,68.75
/DX[Z6],97.990,97.560,97.790,97.860
/GE[Z6],99.050,99.045,99.045,99.050
/GLB[Z6],0,0,0,99.3150
/ZQ[X6],99.595,99.595,99.595,99.5925
/LE[Z6],0,0,0,102.600
/ZT[Z6],109'027,109'022,109'027,109'025
/GF[F7],0,0,0,119.225
/ZF[Z6],120'232,120'212,120'230,120'227
/ZN[Z6],129'170,129'135,129'165,129'160
/ZB[Z6],162'08,161'31,162'08,162'03
/KC[Z6],176.00,167.25,175.00,167.50
/UB[Z6],175'05,174'24,175'05,174'26
/OJ[F7],222.05,215.25,221.90,215.65
/ZO[Z6],0,0,0,225.75
/LBS[X6],0,0,0,297.6
/ZM[Z6],0,0,0,315.7
/ZC[Z6],0,0,0,354.25
/XC[Z6],0,0,0,354.250
/ZW[Z6],0,0,0,415.25
/XW[Z6],0,0,0,415.250
/KE[Z6],0,0,0,417.50
/PA[Z6],666.05,662.50,664.20,665.50
/PL[F7],1005.6,1000.1,1005.6,1008.6
/ZS[F7],0,0,0,1011.25
/XK[F7],0,0,0,1011.250
/TF[Z6],1198.9,1181.0,1189.7,1192.1
/GC[Z6],1276.8,1268.1,1276.8,1274.5
/YG[Z6],1291.9,1273.8,1283.1,1274.5
/EMD[Z6],1515.4,1512.4,1512.4,1509.8
/ES[Z6],2144.25,2137.75,2138.00,2135.50
/CC[Z6],2537,2480,2493,2501
/NQ[Z6],4821.50,4807.25,4807.25,4802.25
/NKD[Z6],17400,17345,17345,17340
/YM[Z6],18348,18302,18304,18285
