﻿Watchlist 'FUTURES'

FUTURES
Symbol,High,Low,Open,Close
/ES[H6],1914.50,1865.75,1905.25,1875.25
/TF[H6],1014.3,983.2,1007.8,985.4
/NQ[H6],4173.50,4001.00,4146.50,4022.00
/YM[H6],16383,16047,16309,16131
/GC[J6],1175.0,1145.5,1155.7,1157.7
/YG[J6],1175.6,1145.9,1154.5,1157.7
/SI[H6],15.065,14.670,14.880,14.778
/YI[H6],15.100,14.681,14.940,14.778
/PL[J6],916.0,896.6,910.0,903.7
/PA[H6],519.00,498.00,515.65,498.70
/HG[H6],2.1275,2.0800,2.1205,2.1030
/ZC[H6],369.50,365.50,369.00,365.75
/ZW[H6],474.00,465.50,473.75,466.75
/ZS[H6],879.00,867.25,875.75,867.50
/ZM[H6],269.1,264.2,267.6,265.0
/ZL[H6],31.70,31.21,31.34,31.23
/ZO[H6],197.75,196.25,196.50,197.00
/ZQ[J6],99.605,99.590,99.600,99.600
/GE[H6],99.375,99.350,99.370,99.360
/GLB[H6],0,0,0,99.5450
/EMD[H6],1306.8,1274.2,1300.6,1277.2
/NKD[H6],16910,16500,16815,16585
/DX[H6],97.305,96.040,96.545,97.054
/6A[H6],.7210,.7052,.7183,.7054
/6B[H6],1.4595,1.4453,1.4577,1.4499
/6C[H6],.7294,.7184,.7271,.7199
/6E[H6],1.12700,1.11185,1.12125,1.11545
/E7[H6],1.1268,1.1119,1.1212,1.11545
/6J[H6],.008608,.008523,.008564,.0085635
/J7[H6],.008600,.008524,.008565,.008563
/6M[H6],.05490,.05398,.05462,.05409
/6N[H6],.6740,.6601,.6706,.6611
/6S[H6],1.0133,1.0029,1.0075,1.0099
/CL[H6],32.45,30.63,31.64,30.89
/QM[H6],32.475,30.625,31.675,30.890
/RB[H6],1.0334,.9869,1.0247,.9927
/HO[H6],1.0873,1.0542,1.0772,1.0590
/NG[H6],2.076,1.981,1.981,2.063
/QG[H6],2.075,1.980,1.980,2.063
/UB[H6],169'01,167'07,168'21,168'17
/ZB[H6],163'22,162'04,163'06,163'08
/ZN[H6],130'220,129'295,130'140,130'115
/ZF[H6],121'107,120'260,121'052,121'012
/ZT[H6],109'155,109'102,109'145,109'127
/CC[H6],2823,2753,2766,2772
/CT[H6],60.59,59.83,60.25,59.97
/SB[H6],13.35,12.94,12.94,13.27
/OJ[H6],137.80,133.10,135.35,135.05
/KC[H6],124.00,120.10,123.40,120.40
/M6A[H6],.7226,.7050,.7185,.7054
/M6B[H6],1.4590,1.4454,1.4577,1.4499
/M6E[H6],1.1266,1.1119,1.1211,1.11545
/LBS[H6],253.4,249.9,251.6,252.8
/HE[G6],65.525,64.775,65.300,64.800
/GF[H6],156.775,152.900,155.475,153.825
/LE[J6],135.575,133.875,135.425,134.400
/VX[G6],24.125,24.125,24.125,23.075
/XC[H6],369.375,363.500,368.500,365.750
/XW[H6],473.875,465.750,473.875,466.750
/XK[H6],878.250,867.500,874.500,867.500
/BZ[J6],35.13,33.81,34.44,34.06
/KE[H6],461.25,451.50,461.25,454.00
