﻿Watchlist 'FUTURES'

FUTURES
Symbol,High,Low,Open,Close
/6J[H7],.0087335,.008709,.008714,.008715
/J7[H7],.008730,.008710,.008716,.008715
/6M[H7],.04885,.04881,.04882,.04887
/6N[H7],.7190,.7175,.7175,.7179
/6A[H7],.7486,.7466,.7480,.7481
/M6A[H7],.7482,.7468,.7480,.7481
/6C[Z6],.76170,.76115,.76150,.76225
/6S[H7],.9945,.9934,.9934,.9930
/6E[H7],1.06900,1.06700,1.06745,1.06690
/E7[H7],1.0698,1.0673,1.0673,1.0669
/M6E[H7],1.0690,1.0674,1.0674,1.0669
/6B[H7],1.2694,1.2671,1.2688,1.2692
/M6B[H7],1.2695,1.2678,1.2688,1.2692
/RB[F7],1.5332,1.5270,1.5305,1.5507
/HO[F7],1.6648,1.6570,1.6603,1.6747
/HG[H7],2.5995,2.5825,2.5960,2.5985
/NG[F7],3.480,3.466,3.477,3.474
/QG[F7],3.480,3.470,3.480,3.475
/VX[Z6],13.38,13.28,13.30,13.275
/SI[H7],17.015,16.940,16.965,16.977
/YI[H7],17.005,16.928,16.959,16.977
/SB[H7],0,0,0,18.60
/ZL[F7],36.78,36.67,36.78,36.78
/QM[F7],52.500,52.125,52.475,52.975
/CL[F7],52.49,52.10,52.45,52.98
/BZ[G7],55.28,54.91,55.23,55.72
/HE[Z6],0,0,0,57.175
/CT[H7],0,0,0,72.04
/GE[Z6],99.010,99.0075,99.010,99.010
/GLB[Z6],0,0,0,99.2750
/ZQ[F7],99.355,99.355,99.355,99.360
/DX[H7],100.985,100.925,100.950,100.992
/ZT[H7],108'112,108'107,108'107,108'110
/LE[G7],0,0,0,113.975
/ZF[H7],117'212,117'185,117'190,117'190
/ZN[H7],124'035,123'305,124'000,123'295
/GF[F7],0,0,0,128.975
/KC[H7],0,0,0,142.85
/ZB[H7],149'10,148'30,149'01,148'26
/UB[H7],158'19,158'03,158'04,157'24
/OJ[F7],0,0,0,202.20
/ZO[H7],234.50,232.50,234.25,232.50
/ZM[F7],315.6,315.0,315.0,315.1
/LBS[F7],0,0,0,315.5
/ZC[H7],361.00,360.50,360.75,361.00
/XC[H7],360.875,360.375,360.375,361.000
/KE[H7],415.00,413.50,413.50,415.25
/ZW[H7],417.00,415.75,417.00,417.50
/XW[H7],417.250,415.500,416.500,417.500
/PA[H7],731.45,727.25,730.40,730.60
/PL[F7],937.1,933.1,936.6,936.7
/ZS[F7],1029.25,1026.75,1027.25,1028.00
/XK[F7],1028.750,1027.000,1027.000,1028.000
/GC[G7],1163.1,1159.4,1159.8,1159.0
/YG[G7],1163.2,1160.6,1161.0,1159.0
/TF[H7],1373.1,1371.5,1373.1,1374.7
/EMD[H7],1685.9,1684.9,1685.9,1685.5
/ES[H7],2268.00,2265.25,2268.00,2267.75
/CC[H7],0,0,0,2289
/NQ[H7],4940.25,4935.25,4937.50,4937.50
/NKD[H7],19370,19210,19340,19340
/YM[H7],19861,19836,19858,19858
