﻿Watchlist 'FUTURES'

FUTURES
Symbol,High,Low,Open,Close
/6J[M6],.009188,.009169,.009179,.009170
/J7[M6],.009184,.009171,.009178,.009170
/6M[M6],.05553,.05548,.05548,.05562
/6N[M6],.6820,.6802,.6807,.6812
/6A[M6],.7316,.7304,.7313,.7320
/M6A[M6],.7315,.7304,.7315,.7320
/6C[M6],.7790,.7785,.7786,.7799
/6S[M6],1.0316,1.0308,1.0310,1.0313
/M6E[M6],1.1390,1.1383,1.1384,1.1384
/6E[M6],1.13895,1.13825,1.13850,1.13845
/E7[M6],1.1389,1.1383,1.1385,1.1385
/HO[M6],1.3920,1.3892,1.3920,1.3940
/6B[M6],1.4453,1.4444,1.4446,1.4454
/M6B[M6],1.4449,1.4443,1.4443,1.4454
/RB[M6],1.5773,1.5721,1.5762,1.5833
/HG[N6],2.0760,2.0735,2.0760,2.0745
/NG[M6],2.134,2.116,2.134,2.155
/QG[M6],2.135,2.115,2.135,2.155
/VX[K6],15.36,15.23,15.25,15.225
/SB[N6],0,0,0,16.98
/SI[N6],17.110,17.010,17.025,17.103
/YI[N6],17.090,17.070,17.070,17.103
/ZL[N6],32.67,32.57,32.60,32.57
/CL[M6],46.47,46.26,46.41,46.70
/QM[M6],46.425,46.275,46.375,46.700
/BZ[N6],47.87,47.79,47.82,48.08
/CT[N6],0,0,0,60.73
/HE[M6],0,0,0,83.000
/DX[M6],94.165,94.120,94.150,94.128
/GE[M6],99.355,99.355,99.355,99.355
/GLB[K6],0,0,0,99.5650
/ZQ[N6],0,0,0,99.615
/ZT[M6],109'107,109'102,109'105,109'105
/ZF[M6],121'052,121'035,121'042,121'042
/LE[M6],0,0,0,122.575
/KC[N6],0,0,0,130.05
/ZN[M6],130'205,130'175,130'190,130'190
/OJ[N6],0,0,0,146.95
/GF[K6],0,0,0,147.825
/ZB[M6],165'23,165'17,165'19,165'14
/UB[M6],173'29,173'23,173'26,173'14
/ZO[N6],192.00,191.75,192.00,191.75
/LBS[N6],0,0,0,322.1
/ZM[N6],364.8,364.1,364.4,364.4
/ZC[N6],388.75,387.00,388.50,389.00
/XC[N6],388.000,387.125,388.000,389.000
/KE[N6],449.50,448.50,449.00,449.75
/ZW[N6],468.50,466.75,468.00,468.00
/XW[N6],0,0,0,468.000
/PA[M6],594.55,593.15,594.20,596.65
/PL[N6],1051.2,1046.4,1051.2,1054.0
/ZS[N6],1074.25,1070.50,1071.25,1072.00
/XK[N6],1073.000,1071.000,1071.000,1072.000
/TF[M6],1105.3,1104.6,1105.0,1104.8
/GC[M6],1269.2,1264.3,1264.8,1271.2
/YG[M6],1270.1,1268.9,1268.9,1271.2
/EMD[M6],1451.2,1451.2,1451.2,1450.4
/ES[M6],2060.75,2058.25,2059.25,2058.75
/CC[N6],0,0,0,3020
/NQ[M6],4338.75,4333.75,4337.25,4334.75
/NKD[M6],16835,16630,16655,16655
/YM[M6],17680,17661,17669,17668
