﻿Watchlist 'FUTURES'

FUTURES
Symbol,High,Low,Open,Close
/J7[M6],.009163,.009145,.009148,.009142
/6J[M6],.0091635,.0091445,.0091485,.0091425
/6M[M6],.05709,.05694,.05694,.05687
/6N[M6],.6909,.6886,.6893,.6892
/6A[M6],.7755,.7719,.7720,.7727
/M6A[M6],.7753,.7719,.7721,.7727
/6C[M6],.7873,.7854,.7854,.7858
/6S[M6],1.0289,1.0272,1.0274,1.0285
/M6E[M6],1.1316,1.1297,1.1303,1.1311
/6E[M6],1.13160,1.13005,1.13010,1.13115
/E7[M6],1.1315,1.1302,1.1302,1.1312
/HO[K6],1.3173,1.3069,1.3095,1.2998
/6B[M6],1.4342,1.4314,1.4318,1.4327
/M6B[M6],1.4342,1.4315,1.4317,1.4327
/RB[K6],1.5280,1.5165,1.5185,1.5159
/NG[K6],2.067,2.056,2.061,2.068
/QG[K6],2.065,2.055,2.055,2.070
/HG[K6],2.2570,2.2485,2.2535,2.2510
/SB[K6],0,0,0,15.58
/VX[K6],16.95,16.75,16.80,16.775
/SI[K6],17.060,16.935,17.015,17.090
/YI[K6],17.040,16.933,17.000,17.090
/ZL[K6],34.10,34.01,34.10,34.21
/QM[M6],43.775,43.225,43.400,43.175
/CL[M6],43.76,43.23,43.42,43.18
/BZ[M6],45.12,44.58,44.66,44.53
/CT[N6],0,0,0,64.01
/HE[M6],0,0,0,79.525
/DX[M6],94.610,94.510,94.605,94.574
/GE[M6],99.295,99.290,99.295,99.290
/GLB[K6],0,0,0,99.5325
/ZQ[J6],0,0,0,99.6375
/ZT[M6],109'070,109'065,109'067,109'062
/LE[M6],0,0,0,116.900
/ZF[M6],120'212,120'192,120'207,120'187
/KC[N6],0,0,0,124.10
/OJ[K6],0,0,0,127.40
/ZN[M6],129'235,129'195,129'220,129'195
/GF[K6],0,0,0,145.450
/ZB[M6],162'30,162'19,162'27,162'22
/UB[M6],170'21,170'09,170'16,170'12
/ZO[K6],201.50,199.75,201.50,201.25
/LBS[K6],0,0,0,279.9
/ZM[K6],326.0,321.1,325.9,325.2
/ZC[K6],384.25,381.75,384.25,384.50
/XC[K6],384.000,382.250,384.000,384.500
/KE[K6],486.25,484.00,485.25,488.50
/ZW[K6],494.00,490.25,494.00,495.75
/XW[K6],493.000,493.000,493.000,495.750
/PA[M6],608.85,605.35,605.35,610.05
/ZS[K6],1017.25,1008.00,1016.75,1018.75
/XK[K6],1018.000,1008.875,1018.000,1018.750
/PL[N6],1029.0,1022.1,1026.6,1031.9
/TF[M6],1132.6,1130.2,1130.8,1132.3
/GC[M6],1251.9,1246.5,1248.5,1250.3
/YG[M6],1252.0,1247.8,1252.0,1250.3
/EMD[M6],1463.4,1461.0,1461.6,1463.5
/ES[M6],2083.75,2077.75,2079.75,2082.75
/CC[N6],0,0,0,3107
/NQ[M6],4492.50,4477.25,4488.25,4497.75
/NKD[M6],17375,17185,17245,17280
/YM[M6],17903,17862,17887,17899
