﻿Watchlist 'FUTURES'

FUTURES
Symbol,High,Low,Open,Close
/6J[Z6],.009479,.0094565,.009474,.0094595
/J7[Z6],.009475,.009457,.009475,.009460
/6M[Z6],.05040,.05013,.05040,.05006
/6N[Z6],.7279,.7263,.7279,.7282
/6C[Z6],.74575,.74520,.74550,.74600
/6A[Z6],.7638,.7628,.7631,.7640
/M6A[Z6],.7637,.7628,.7633,.7640
/6S[Z6],1.0187,1.0170,1.0186,1.0179
/6E[Z6],1.09415,1.09295,1.09400,1.09460
/E7[Z6],1.0939,1.0929,1.0935,1.0946
/M6E[Z6],1.0941,1.0931,1.0931,1.0946
/6B[Z6],1.2430,1.2417,1.2428,1.2449
/M6B[Z6],1.2426,1.2421,1.2425,1.2449
/RB[Z6],1.3598,1.3551,1.3598,1.3572
/HO[Z6],1.4479,1.4421,1.4424,1.4411
/HG[Z6],2.4635,2.4555,2.4635,2.4595
/NG[Z6],2.699,2.687,2.691,2.690
/QG[Z6],2.695,2.685,2.695,2.690
/VX[X6],15.05,14.90,14.90,14.875
/SI[Z6],18.475,18.420,18.475,18.378
/YI[Z6],18.970,18.295,18.325,18.378
/SB[H7],22.20,21.34,21.50,22.11
/ZL[Z6],0,0,0,34.31
/CL[Z6],45.38,45.29,45.31,45.27
/QM[Z6],45.375,45.300,45.325,45.270
/BZ[F7],46.60,46.57,46.60,46.36
/HE[Z6],0,0,0,46.550
/CT[Z6],69.29,67.87,68.58,68.29
/DX[Z6],98.695,95.905,98.080,98.529
/GE[Z6],99.065,99.060,99.060,99.065
/GLB[Z6],0,0,0,99.3300
/ZQ[X6],0,0,0,99.5925
/LE[Z6],0,0,0,103.475
/ZT[Z6],109'005,109'002,109'005,109'005
/GF[F7],0,0,0,119.725
/ZF[Z6],120'022,120'010,120'015,120'007
/ZN[Z6],128'045,128'010,128'030,128'010
/ZB[Z6],157'12,157'06,157'10,156'31
/UB[Z6],168'04,167'28,168'03,167'07
/KC[Z6],170.75,163.20,165.20,170.10
/OJ[F7],219.70,214.55,215.00,216.20
/ZO[Z6],0,0,0,222.50
/LBS[X6],0,0,0,302.9
/ZM[Z6],0,0,0,311.4
/ZC[Z6],0,0,0,340.75
/XC[Z6],0,0,0,340.750
/ZW[Z6],0,0,0,406.75
/XW[Z6],0,0,0,406.750
/KE[Z6],0,0,0,410.25
/PA[Z6],679.90,679.90,679.90,681.45
/ZS[F7],0,0,0,991.00
/XK[F7],0,0,0,991.000
/PL[F7],1002.6,1001.0,1002.1,1003.3
/TF[Z6],1233.1,1123.6,1200.9,1230.1
/GC[Z6],1279.2,1276.8,1278.4,1273.5
/YG[Z6],1338.9,1270.8,1271.3,1273.5
/EMD[Z6],1536.0,1533.6,1533.6,1538.2
/ES[Z6],2159.50,2155.25,2159.50,2160.25
/CC[Z6],2499,2451,2499,2474
/NQ[Z6],4818.25,4809.25,4817.50,4820.50
/NKD[Z6],17285,17205,17255,17340
/YM[Z6],18539,18496,18533,18532
