﻿Watchlist 'FUTURES'

FUTURES
Symbol,High,Low,Open,Close
/ES[H6],2013.25,2010.25,2010.75,2011.75
/TF[H6],0,0,0,1107.9
/NQ[H6],4487.50,4481.50,4482.00,4483.75
/YM[H6],17096,17074,17074,17081
/GC[G6],1077.8,1076.6,1076.8,1078.4
/YG[G6],0,0,0,1078.4
/SI[H6],13.990,13.950,13.950,13.971
/YI[H6],0,0,0,13.971
/PL[J6],893.0,889.0,889.0,890.0
/PA[H6],538.55,535.40,536.20,535.75
/HG[H6],2.0950,2.0920,2.0950,2.0955
/ZC[H6],0,0,0,353.00
/ZW[H6],0,0,0,461.25
/ZS[H6],0,0,0,857.25
/ZM[H6],0,0,0,266.3
/ZL[H6],0,0,0,29.81
/ZO[H6],0,0,0,210.25
/ZQ[F6],0,0,0,99.665
/GE[H6],99.290,99.285,99.290,99.285
/GLB[H6],0,0,0,99.4650
/EMD[H6],1376.4,1375.5,1376.2,1375.9
/NKD[H6],18495,18390,18460,18435
/DX[H6],0,0,0,99.496
/6A[H6],.7146,.7135,.7136,.7127
/6B[H6],1.4682,1.4669,1.4678,1.4665
/6C[H6],.7158,.7148,.7152,.7147
/6E[H6],1.0776,1.0762,1.0770,1.0763
/E7[H6],1.0776,1.0762,1.0767,1.0763
/6J[H6],.0084085,.0084015,.008406,.008416
/J7[H6],.008407,.008402,.008402,.008416
/6M[H6],.05742,.05738,.05738,.05736
/6N[H6],.6679,.6664,.6675,.6666
/6S[H6],.9949,.9938,.9944,.9944
/CL[G6],36.39,36.15,36.18,35.97
/QM[G6],36.375,36.100,36.100,35.975
/RB[G6],1.2532,1.2483,1.2508,1.2567
/HO[G6],1.1393,1.1309,1.1309,1.1253
/NG[G6],2.348,2.332,2.345,2.325
/QG[G6],2.345,2.335,2.340,2.325
/UB[H6],159'03,158'28,159'00,158'20
/ZB[H6],154'00,153'26,153'31,153'22
/ZN[H6],126'110,126'085,126'100,126'080
/ZF[H6],118'195,118'182,118'192,118'175
/ZT[H6],108'217,108'215,108'217,108'212
/CC[H6],3138,3047,3132,3059
/CT[H6],0,0,0,62.68
/SB[H6],15.10,14.54,14.98,14.57
/OJ[H6],146.90,141.60,145.75,142.60
/KC[H6],125.10,121.75,123.90,123.90
/M6A[H6],.7146,.7136,.7136,.7127
/M6B[H6],1.4686,1.4673,1.4686,1.4665
/M6E[H6],1.0776,1.0762,1.0770,1.0763
/LBS[F6],0,0,0,256.5
/HE[G6],0,0,0,61.100
/GF[F6],0,0,0,167.775
/LE[G6],0,0,0,136.775
/VX[F6],19.50,19.35,19.40,19.425
/XC[H6],0,0,0,353.000
/XW[H6],0,0,0,461.250
/XK[H6],0,0,0,857.250
/BZ[G6],36.72,36.70,36.72,36.42
/KE[H6],0,0,0,460.00
