﻿Watchlist 'FUTURES'

FUTURES
Symbol,High,Low,Open,Close
/6J[U6],.009809,.0097045,.009766,.009739
/J7[U6],.009805,.009706,.009766,.009760
/6M[U6],.05358,.05281,.05355,.05307
/6N[U6],.7411,.7313,.7400,.7333
/6A[U6],.7656,.7531,.7641,.7548
/M6A[U6],.7655,.7535,.7641,.7548
/6C[U6],.77530,.76605,.77335,.76760
/6S[U6],1.0301,1.0223,1.0288,1.0257
/6E[U6],1.12875,1.12010,1.12680,1.12310
/M6E[U6],1.1288,1.1201,1.1267,1.1231
/E7[U6],1.1287,1.1201,1.1264,1.1262
/6B[U6],1.3337,1.3239,1.3301,1.3273
/M6B[U6],1.3333,1.3241,1.3308,1.3273
/RB[V6],1.4056,1.3562,1.4033,1.3611
/HO[V6],1.4772,1.4285,1.4767,1.4304
/HG[Z6],2.1050,2.0855,2.1000,2.0925
/NG[V6],2.844,2.783,2.810,2.797
/QG[V6],2.845,2.785,2.805,2.797
/VX[U6],16.40,16.40,16.40,16.475
/SI[Z6],19.725,19.080,19.680,19.368
/YI[Z6],19.700,19.065,19.640,19.368
/SB[V6],20.40,19.94,20.19,19.99
/ZL[Z6],33.52,33.25,33.32,33.37
/CL[V6],47.36,45.56,47.36,45.88
/QM[V6],47.350,45.550,47.325,45.880
/BZ[X6],49.68,47.77,49.62,48.01
/HE[V6],61.600,59.100,61.200,59.225
/CT[Z6],69.38,68.25,69.35,69.08
/DX[U6],95.580,94.820,94.975,95.328
/GE[U6],99.1275,99.1075,99.120,99.1175
/GLB[Z6],0,0,0,99.2975
/ZQ[V6],99.555,99.520,99.555,99.550
/LE[V6],104.400,101.100,101.100,104.400
/ZT[Z6],109'057,109'027,109'052,109'050
/ZF[Z6],121'100,121'005,121'082,121'017
/ZN[Z6],130'290,130'095,130'265,130'115
/GF[V6],132.350,126.975,128.700,131.275
/KC[Z6],154.85,150.55,154.60,154.90
/ZB[Z6],169'00,166'17,168'24,166'27
/ZO[Z6],179.50,176.50,177.50,177.25
/UB[Z6],185'06,181'18,184'29,181'28
/OJ[X6],199.85,194.15,195.20,197.45
/LBS[U6],307.4,304.3,305.3,307.1
/ZM[Z6],318.0,314.7,317.6,316.5
/ZC[Z6],342.00,334.50,338.00,341.00
/XC[Z6],342.000,334.375,338.000,341.000
/ZW[Z6],406.00,396.75,404.75,403.50
/XW[Z6],405.125,397.000,405.000,403.500
/KE[Z6],419.00,411.50,416.75,418.50
/PA[Z6],694.50,674.25,683.30,679.45
/ZS[X6],983.00,972.00,977.50,980.25
/XK[X6],983.000,971.625,977.000,980.250
/PL[V6],1093.1,1064.4,1087.0,1067.5
/TF[Z6],1253.4,1207.8,1251.3,1210.1
/GC[Z6],1343.6,1331.2,1341.6,1334.5
/YG[Z6],1343.6,1330.1,1341.6,1334.5
/EMD[Z6],1571.1,1518.3,1570.6,1523.5
/ES[Z6],2171.75,2113.25,2170.25,2171.00
/CC[Z6],2865,2747,2846,2762
/NQ[Z6],4794.00,4662.75,4785.25,4792.50
/NKD[Z6],16980,16725,16960,16955
/YM[Z6],18383,17943,18351,17967
