﻿Watchlist 'FUTURES'

FUTURES
Symbol,High,Low,Open,Close
/ES[H6],1991.00,1985.25,1987.75,1986.00
/TF[H6],1092.8,1090.5,1090.6,1091.2
/NQ[H6],4458.50,4442.50,4450.25,4446.75
/YM[H6],16881,16833,16858,16838
/GC[G6],1094.8,1091.1,1093.7,1091.9
/YG[G6],1092.6,1091.5,1091.5,1091.9
/SI[H6],14.025,13.970,13.995,13.976
/YI[H6],14.010,13.982,13.994,13.976
/PL[J6],883.5,876.2,876.5,875.0
/PA[H6],511.30,508.00,508.45,505.05
/HG[H6],2.0940,2.0825,2.0910,2.0880
/ZC[H6],353.75,353.25,353.25,353.25
/ZW[H6],464.00,463.25,464.00,462.75
/ZS[H6],865.75,863.75,864.50,864.75
/ZM[H6],269.5,268.9,269.2,268.7
/ZL[H6],29.83,29.69,29.82,29.78
/ZO[H6],0,0,0,212.00
/ZQ[F6],0,0,0,99.665
/GE[H6],99.305,99.295,99.305,99.300
/GLB[H6],0,0,0,99.4700
/EMD[H6],1358.8,1356.1,1358.2,1357.6
/NKD[H6],18195,18055,18075,18075
/DX[H6],99.365,99.250,99.325,99.266
/6A[H6],.7064,.7023,.7040,.7037
/6B[H6],1.4639,1.4627,1.4632,1.4628
/6C[H6],.7109,.7100,.7106,.7090
/6E[H6],1.0806,1.0791,1.0796,1.0806
/E7[H6],1.0806,1.0791,1.0791,1.0806
/6J[H6],.008460,.008431,.0084485,.008459
/J7[H6],.008459,.008433,.008448,.008459
/6M[H6],.05682,.05667,.05671,.05669
/6N[H6],.6627,.6600,.6606,.6616
/6S[H6],.9960,.9943,.9951,.9964
/CL[G6],34.26,34.04,34.09,33.97
/QM[G6],34.275,34.050,34.075,33.975
/RB[G6],1.1656,1.1594,1.1622,1.1618
/HO[G6],1.0950,1.0905,1.0907,1.0807
/NG[G6],2.290,2.276,2.290,2.267
/QG[G6],2.290,2.280,2.290,2.265
/UB[H6],160'25,160'12,160'21,160'22
/ZB[H6],155'19,155'08,155'17,155'19
/ZN[H6],126'280,126'225,126'270,126'275
/ZF[H6],118'300,118'267,118'295,118'297
/ZT[H6],108'245,108'235,108'245,108'245
/CC[H6],0,0,0,2981
/CT[H6],0,0,0,62.00
/SB[H6],0,0,0,14.42
/OJ[H6],0,0,0,145.80
/KC[H6],0,0,0,119.95
/M6A[H6],.7063,.7024,.7043,.7037
/M6B[H6],1.4636,1.4626,1.4626,1.4628
/M6E[H6],1.0807,1.0787,1.0787,1.0806
/LBS[F6],0,0,0,255.5
/HE[G6],0,0,0,60.825
/GF[F6],0,0,0,168.325
/LE[G6],0,0,0,136.525
/VX[F6],20.36,20.08,20.35,20.325
/XC[H6],353.000,352.750,352.750,353.250
/XW[H6],463.500,462.750,462.750,462.750
/XK[H6],865.000,864.000,864.000,864.750
/BZ[G6],34.56,34.43,34.52,34.23
/KE[H6],462.25,461.25,461.25,461.00
