﻿Watchlist 'FUTURES'

FUTURES
Symbol,High,Low,Open,Close
/6J[U6],.0097145,.009704,.0097055,.009707
/J7[U6],.009715,.009705,.009709,.009707
/6M[U6],.05430,.05410,.05410,.05417
/6N[U6],.7108,.7100,.7105,.7101
/6A[U6],.7430,.7421,.7423,.7424
/M6A[U6],.7430,.7424,.7424,.7424
/6C[U6],.7732,.7723,.7727,.7712
/6S[U6],1.0287,1.0281,1.0287,1.0264
/6E[U6],1.11390,1.11280,1.11325,1.11075
/E7[U6],1.1139,1.1128,1.1130,1.11075
/M6E[U6],1.1139,1.1128,1.1131,1.11075
/6B[U6],1.3315,1.3294,1.3302,1.3248
/M6B[U6],1.3312,1.3286,1.3286,1.3248
/HO[Q6],1.4933,1.4884,1.4918,1.4887
/RB[Q6],1.5030,1.5005,1.5025,1.5013
/HG[U6],2.2030,2.1990,2.2015,2.1955
/NG[Q6],2.939,2.929,2.931,2.924
/QG[Q6],0,0,0,2.924
/VX[N6],17.27,17.05,17.05,16.975
/SI[U6],18.880,18.805,18.815,18.623
/YI[U6],18.889,18.265,18.300,18.623
/SB[V6],21.22,20.20,21.01,20.33
/ZL[Z6],0,0,0,32.07
/QM[Q6],48.500,48.325,48.375,48.325
/CL[Q6],48.50,48.32,48.38,48.33
/BZ[U6],0,0,0,49.71
/CT[Z6],66.42,64.15,66.09,64.17
/HE[Q6],0,0,0,83.275
/DX[U6],96.480,95.520,95.700,96.203
/GE[U6],99.360,99.355,99.360,99.355
/GLB[N6],0,0,0,99.5350
/ZQ[N6],0,0,0,99.6225
/ZT[U6],109'215,109'212,109'215,109'212
/LE[Q6],0,0,0,114.825
/ZF[U6],122'070,122'060,122'065,122'052
/ZN[U6],133'030,133'010,133'010,132'315
/GF[Q6],0,0,0,144.300
/KC[U6],147.90,142.00,144.30,145.65
/ZB[U6],172'25,172'21,172'22,172'11
/OJ[U6],180.00,174.25,174.60,177.20
/UB[U6],187'00,186'27,186'29,186'12
/ZO[Z6],0,0,0,201.75
/LBS[N6],0,0,0,303.9
/ZC[Z6],0,0,0,371.25
/XC[Z6],0,0,0,371.250
/ZM[Z6],0,0,0,401.0
/KE[U6],0,0,0,422.50
/ZW[U6],0,0,0,445.50
/XW[U6],0,0,0,445.500
/PA[U6],600.85,600.70,600.70,597.35
/PL[V6],1030.7,1027.4,1027.4,1024.3
/TF[U6],1149.4,1121.7,1129.3,1147.4
/ZS[X6],0,0,0,1153.25
/XK[X6],0,0,0,1153.250
/GC[Q6],1326.1,1323.8,1324.8,1320.6
/YG[Q6],1327.0,1316.1,1319.2,1320.6
/EMD[U6],1491.1,1491.1,1491.1,1493.0
/ES[U6],2088.50,2085.50,2086.50,2090.25
/CC[U6],3040,2956,3029,2963
/NQ[U6],4403.50,4397.00,4397.00,4407.00
/NKD[U6],15805,15780,15790,15820
/YM[U6],17805,17784,17789,17819
