﻿Watchlist 'FUTURES'

FUTURES
Symbol,High,Low,Open,Close
/6J[Z6],.009613,.0096005,.0096115,.009611
/J7[Z6],.009610,.009607,.009610,.009611
/6M[Z6],.05362,.05357,.05361,.05353
/6N[Z6],.7109,.7094,.7105,.7119
/6C[Z6],.75020,.74855,.74965,.74790
/6A[Z6],.7592,.7585,.7592,.7593
/M6A[Z6],.7591,.7585,.7591,.7593
/6S[Z6],1.0094,1.0082,1.0085,1.0090
/M6E[Z6],1.0904,1.0895,1.0904,1.0901
/6E[Z6],1.09000,1.08940,1.08980,1.09015
/E7[Z6],1.0897,1.0895,1.0897,1.0902
/6B[Z6],1.2239,1.2223,1.2236,1.2235
/M6B[Z6],1.2233,1.2232,1.2233,1.2235
/RB[X6],1.5001,1.5001,1.5001,1.5038
/HO[X6],1.5814,1.5786,1.5786,1.5798
/HG[Z6],2.0965,2.0945,2.0965,2.0930
/NG[X6],2.870,2.846,2.851,2.831
/QG[X6],2.860,2.860,2.860,2.831
/VX[X6],14.95,14.90,14.90,14.925
/SI[Z6],17.625,17.585,17.605,17.604
/YI[Z6],17.886,17.466,17.507,17.604
/SB[H7],23.32,22.72,22.75,23.20
/ZL[Z6],0,0,0,35.99
/HE[Z6],0,0,0,43.200
/CL[Z6],50.49,50.39,50.49,50.52
/QM[Z6],50.500,50.400,50.500,50.520
/BZ[Z6],51.43,51.35,51.35,51.46
/CT[Z6],69.19,68.53,68.96,68.77
/DX[Z6],98.825,98.540,98.680,98.752
/GE[Z6],99.045,99.045,99.045,99.050
/GLB[Z6],0,0,0,99.3275
/ZQ[V6],0,0,0,99.605
/LE[Z6],0,0,0,104.250
/ZT[Z6],109'020,109'017,109'017,109'022
/ZF[Z6],120'300,120'290,120'297,120'305
/GF[V6],0,0,0,122.375
/ZN[Z6],130'050,130'030,130'045,130'055
/KC[Z6],159.30,155.65,156.05,157.90
/ZB[Z6],164'10,164'07,164'09,164'10
/UB[Z6],177'31,177'26,177'29,177'30
/OJ[X6],208.85,200.50,201.05,206.00
/ZO[Z6],0,0,0,213.25
/LBS[X6],0,0,0,307.1
/ZM[Z6],0,0,0,307.3
/ZC[Z6],0,0,0,348.25
/XC[Z6],0,0,0,348.250
/ZW[Z6],0,0,0,402.50
/XW[Z6],0,0,0,402.500
/KE[Z6],0,0,0,412.50
/PA[Z6],635.15,634.25,634.60,630.75
/PL[F7],942.1,939.8,941.8,939.1
/ZS[F7],0,0,0,1002.25
/XK[F7],0,0,0,1002.250
/TF[Z6],1231.3,1216.1,1216.9,1223.8
/GC[Z6],1266.0,1264.1,1265.2,1263.7
/YG[Z6],1272.7,1260.5,1266.8,1263.7
/EMD[Z6],1531.0,1530.6,1531.0,1531.9
/ES[Z6],2145.25,2144.25,2144.75,2144.30
/CC[Z6],2724,2679,2716,2705
/NQ[Z6],4906.75,4903.75,4906.25,4902.75
/NKD[Z6],17385,17370,17380,17275
/YM[Z6],18146,18134,18138,18134
