﻿Watchlist 'FUTURES'

FUTURES
Symbol,High,Low,Open,Close
/6J[Z6],.009380,.0093225,.009373,.0093755
/J7[Z6],.009375,.009322,.009374,.009376
/6M[Z6],.04810,.04766,.04801,.04750
/6N[Z6],.7122,.7070,.7122,.7101
/6C[Z6],.73995,.73805,.73980,.73830
/6A[Z6],.7555,.7518,.7543,.7527
/M6A[Z6],.7554,.7518,.7536,.7527
/6S[Z6],1.0135,1.0100,1.0132,1.0133
/6E[Z6],1.08560,1.08125,1.08500,1.08590
/E7[Z6],1.0857,1.0813,1.0848,1.0859
/M6E[Z6],1.0857,1.0812,1.0857,1.0859
/6B[Z6],1.2602,1.2542,1.2587,1.2609
/M6B[Z6],1.2601,1.2545,1.2597,1.2609
/RB[Z6],1.3053,1.2953,1.3009,1.3053
/HO[Z6],1.4031,1.3942,1.3983,1.4012
/HG[Z6],2.5490,2.4710,2.5285,2.5090
/NG[Z6],2.685,2.655,2.667,2.619
/QG[Z6],2.680,2.655,2.665,2.620
/VX[X6],14.90,14.52,14.90,14.925
/SI[Z6],17.490,17.165,17.390,17.382
/YI[Z6],17.500,17.200,17.389,17.382
/SB[H7],21.81,21.50,21.60,21.65
/ZL[Z6],0,0,0,34.44
/QM[Z6],43.600,43.100,43.250,43.400
/CL[Z6],43.59,43.16,43.20,43.41
/BZ[F7],44.93,44.68,44.68,44.75
/HE[Z6],0,0,0,47.125
/CT[Z6],0,0,0,68.44
/GE[Z6],99.045,99.030,99.045,99.045
/DX[Z6],99.475,99.100,99.135,99.050
/GLB[Z6],0,0,0,99.2975
/ZQ[X6],0,0,0,99.5925
/LE[Z6],0,0,0,105.600
/ZT[Z6],108'305,108'275,108'302,108'300
/ZF[Z6],119'167,119'087,119'167,119'162
/GF[F7],0,0,0,121.025
/ZN[Z6],127'070,126'260,127'070,127'055
/ZB[Z6],155'14,154'20,155'09,155'05
/KC[Z6],163.85,157.90,161.70,159.45
/UB[Z6],164'12,163'13,164'02,163'27
/OJ[F7],220.00,211.00,217.00,217.15
/ZO[Z6],0,0,0,224.75
/LBS[X6],0,0,0,304.9
/ZM[Z6],0,0,0,307.8
/ZC[Z6],0,0,0,340.25
/XC[Z6],0,0,0,340.250
/ZW[Z6],0,0,0,403.00
/XW[Z6],0,0,0,403.000
/KE[Z6],0,0,0,410.25
/PA[Z6],676.50,671.70,674.10,684.70
/PL[F7],951.8,941.0,941.0,943.2
/ZS[F7],0,0,0,986.00
/XK[F7],0,0,0,986.000
/GC[Z6],1230.9,1222.7,1227.7,1224.3
/YG[Z6],1230.5,1223.9,1227.3,1224.3
/TF[Z6],1287.2,1281.7,1282.7,1282.7
/EMD[Z6],1569.3,1564.0,1564.1,1560.8
/ES[Z6],2171.25,2163.25,2164.50,2161.50
/CC[Z6],2499,2437,2473,2453
/NQ[Z6],4774.75,4749.75,4753.00,4748.00
/NKD[Z6],17655,17435,17440,17440
/YM[Z6],18876,18798,18806,18787
