﻿Watchlist 'FUTURES'

FUTURES
Symbol,High,Low,Open,Close
/6J[H6],.008887,.008772,.008861,.008785
/J7[H6],.008886,.008774,.008859,.008785
/6M[H6],.05556,.05461,.05513,.05471
/6N[H6],.6769,.6612,.6718,.6627
/6A[H6],.7252,.7114,.7219,.7121
/M6A[H6],.7251,.7114,.7219,.7121
/6C[H6],.7405,.7372,.7389,.7393
/6S[H6],1.0137,1.0017,1.0101,1.0030
/HO[J6],1.1263,1.0631,1.0776,1.0668
/6E[H6],1.10725,1.09155,1.10240,1.09315
/E7[H6],1.1072,1.0915,1.1025,1.09315
/M6E[H6],1.1072,1.0915,1.1020,1.09315
/RB[J6],1.3383,1.2879,1.3032,1.2951
/6B[H6],1.4043,1.3854,1.3956,1.3863
/M6B[H6],1.4041,1.3853,1.3955,1.3863
/NG[J6],1.805,1.731,1.786,1.791
/QG[J6],1.805,1.730,1.795,1.791
/HG[K6],2.1640,2.0820,2.0860,2.1250
/SB[K6],14.38,13.86,14.20,14.00
/SI[K6],15.260,14.695,15.175,14.714
/YI[K6],15.253,14.685,15.211,14.714
/VX[H6],21.65,20.20,20.85,20.825
/ZL[K6],31.46,30.96,30.97,31.23
/CL[J6],34.69,32.64,33.04,32.78
/QM[J6],34.700,32.675,33.025,32.780
/BZ[K6],37.26,35.15,35.60,35.44
/CT[K6],57.89,57.26,57.57,57.53
/HE[J6],71.200,70.050,71.150,70.850
/DX[H6],98.285,97.115,97.340,98.175
/GE[H6],99.340,99.325,99.335,99.3275
/GLB[H6],99.5325,99.5300,99.5300,99.5250
/ZQ[J6],99.605,99.595,99.600,99.600
/ZT[M6],109'145,109'075,109'145,109'082
/KC[K6],117.20,115.15,116.30,115.20
/ZF[M6],121'080,120'245,121'080,120'282
/OJ[K6],130.95,123.60,130.90,128.50
/ZN[M6],130'290,130'065,130'290,130'120
/LE[J6],138.400,136.875,137.525,137.000
/GF[H6],159.900,158.000,159.225,158.650
/ZB[M6],165'20,163'31,165'18,164'09
/UB[M6],174'07,172'05,173'31,172'24
/ZO[K6],186.00,181.00,184.50,184.00
/LBS[H6],258.6,253.8,258.4,253.8
/ZM[K6],263.7,258.9,263.0,260.6
/ZC[K6],361.50,357.50,360.75,359.50
/XC[K6],361.250,357.500,360.750,359.500
/ZW[K6],456.25,449.00,455.00,452.25
/XW[K6],456.000,449.250,453.000,452.250
/KE[K6],458.50,451.00,456.00,454.25
/PA[M6],494.35,481.00,484.60,482.45
/ZS[K6],869.00,861.75,866.50,863.50
/XK[K6],869.000,862.000,865.750,863.500
/PL[J6],931.1,911.0,926.8,915.1
/TF[H6],1040.5,1029.4,1030.5,1035.5
/GC[J6],1241.3,1212.0,1232.5,1220.4
/YG[J6],1241.7,1212.4,1235.5,1220.4
/EMD[H6],1345.3,1332.6,1333.0,1337.8
/ES[H6],1968.75,1941.25,1949.00,1942.75
/CC[K6],2974,2872,2957,2888
/NQ[H6],4293.25,4225.00,4243.00,4230.00
/NKD[H6],16540,16205,16270,16320
/YM[H6],16820,16588,16663,16601
