﻿Watchlist 'FUTURES'

FUTURES
Symbol,High,Low,Open,Close
/6J[Z6],.0091005,.009042,.0090825,.0091075
/J7[Z6],.009097,.009042,.009080,.009108
/6M[Z6],.04896,.04861,.04863,.04886
/6N[Z6],.7028,.6998,.7013,.7028
/6A[Z6],.7410,.7376,.7399,.7405
/M6A[Z6],.7410,.7376,.7399,.7405
/6C[Z6],.73995,.73760,.73980,.74100
/6S[Z6],.9948,.9910,.9943,.9943
/6E[Z6],1.06405,1.05925,1.06370,1.06385
/E7[Z6],1.0640,1.0596,1.0639,1.0639
/M6E[Z6],1.0641,1.0593,1.0637,1.0639
/6B[Z6],1.2423,1.2388,1.2417,1.2421
/M6B[Z6],1.2422,1.2390,1.2411,1.2421
/RB[Z6],1.3405,1.3341,1.3394,1.3430
/HO[Z6],1.4440,1.4340,1.4360,1.4470
/HG[Z6],2.4900,2.4550,2.4885,2.4910
/NG[Z6],2.702,2.690,2.696,2.703
/QG[Z6],2.700,2.690,2.690,2.703
/VX[Z6],15.25,15.00,15.05,15.025
/SI[Z6],16.725,16.525,16.670,16.772
/YI[Z6],16.674,16.505,16.611,16.772
/SB[H7],0,0,0,20.22
/ZL[Z6],33.75,33.56,33.65,33.70
/CL[F7],45.68,45.42,45.51,45.98
/QM[F7],45.675,45.400,45.525,45.980
/BZ[F7],46.20,45.98,46.09,46.49
/HE[Z6],0,0,0,47.450
/CT[Z6],73.50,73.22,73.50,73.38
/GE[Z6],99.0275,99.0175,99.025,99.0275
/GLB[Z6],0,0,0,99.2825
/ZQ[X6],99.5925,99.5925,99.5925,99.5925
/DX[Z6],101.375,101.065,101.070,100.946
/LE[Z6],0,0,0,108.225
/ZT[Z6],108'237,108'217,108'227,108'242
/ZF[Z6],118'257,118'170,118'222,118'270
/GF[F7],0,0,0,124.925
/ZN[Z6],125'315,125'170,125'270,126'025
/ZB[Z6],153'12,152'12,153'07,153'25
/KC[H7],0,0,0,162.95
/UB[Z6],162'23,161'15,162'13,163'08
/OJ[F7],0,0,0,212.40
/ZO[Z6],237.50,235.25,235.25,235.00
/ZM[Z6],311.5,309.3,311.0,311.5
/LBS[F7],0,0,0,323.1
/ZC[Z6],342.00,341.25,342.00,342.00
/XC[Z6],341.875,341.125,341.125,342.000
/ZW[Z6],403.00,401.00,403.00,403.00
/XW[Z6],402.375,402.375,402.375,403.000
/KE[Z6],408.75,407.75,408.75,408.75
/PA[Z6],729.30,714.00,729.30,729.65
/PL[F7],936.6,924.1,935.3,945.1
/ZS[F7],989.50,984.00,989.00,989.50
/XK[F7],989.000,985.000,988.250,989.500
/GC[Z6],1217.5,1205.0,1216.0,1216.9
/YG[Z6],1214.9,1205.4,1214.4,1216.9
/TF[Z6],1309.0,1306.0,1309.0,1309.6
/EMD[Z6],1603.3,1599.6,1603.3,1603.8
/ES[Z6],2185.50,2180.50,2184.00,2184.30
/CC[H7],0,0,0,2419
/NQ[Z6],4832.50,4821.50,4828.75,4828.50
/NKD[Z6],18150,18005,18125,17800
/YM[Z6],18873,18839,18870,18869
