﻿Watchlist 'FUTURES'

FUTURES
Symbol,High,Low,Open,Close
/6J[M6],.0093905,.0091645,.0091895,.009374
/J7[M6],.009387,.009164,.009188,.009374
/6M[M6],.05402,.05336,.05346,.05370
/6N[M6],.6959,.6799,.6803,.6951
/6A[M6],.7367,.7216,.7226,.7363
/M6A[M6],.7366,.7213,.7227,.7363
/6C[M6],.7743,.7629,.7634,.7737
/6S[M6],1.0256,1.0083,1.0096,1.0240
/6E[M6],1.13770,1.11395,1.11560,1.13480
/E7[M6],1.1377,1.1140,1.1155,1.1348
/M6E[M6],1.1379,1.1140,1.1154,1.1348
/6B[M6],1.4584,1.4400,1.4419,1.4515
/M6B[M6],1.4581,1.4400,1.4420,1.4515
/HO[N6],1.5153,1.4810,1.5054,1.4881
/RB[N6],1.6344,1.5962,1.6261,1.6075
/HG[N6],2.1355,2.0650,2.0660,2.1130
/NG[N6],2.454,2.387,2.404,2.398
/QG[N6],2.455,2.390,2.410,2.398
/VX[M6],14.725,14.725,14.725,14.825
/SI[N6],16.470,15.970,16.015,16.365
/YI[N6],16.460,15.973,16.000,16.365
/SB[N6],18.79,18.11,18.15,18.75
/ZL[N6],32.67,32.12,32.25,32.26
/CL[N6],49.41,48.33,49.04,48.62
/QM[N6],49.400,48.325,49.050,48.620
/BZ[Q6],50.33,49.29,49.95,49.64
/CT[N6],64.11,63.06,63.23,63.92
/HE[M6],82.575,81.500,82.000,82.300
/DX[M6],95.640,93.860,95.565,94.028
/GE[M6],99.340,99.275,99.2775,99.335
/GLB[M6],99.5500,99.5500,99.5500,99.5500
/ZQ[N6],99.620,99.565,99.570,99.615
/ZT[U6],109'067,108'290,108'295,109'057
/LE[Q6],118.700,117.525,117.650,117.800
/ZF[U6],120'290,120'030,120'047,120'260
/KC[N6],127.40,122.50,122.60,127.10
/ZN[U6],131'020,129'270,129'295,130'310
/GF[Q6],147.175,145.450,146.675,146.675
/OJ[N6],159.85,155.80,157.05,158.50
/ZB[U6],166'28,164'19,164'25,166'19
/UB[U6],179'11,176'21,176'29,179'00
/ZO[N6],191.50,187.25,189.25,188.00
/LBS[N6],304.3,298.3,301.8,301.8
/ZM[N6],432.5,411.5,417.3,414.3
/ZC[N6],419.25,410.50,414.00,418.25
/XC[N6],419.250,410.750,412.875,418.250
/KE[N6],475.00,461.00,462.75,474.00
/ZW[N6],498.25,482.25,484.25,497.25
/XW[N6],497.625,482.750,484.000,497.250
/PA[U6],567.00,533.10,535.05,549.35
/PL[N6],989.8,956.2,960.8,981.9
/ZS[N6],1169.00,1127.25,1142.00,1132.00
/XK[N6],1168.000,1127.250,1141.125,1132.000
/TF[M6],1172.8,1153.4,1172.2,1162.0
/GC[Q6],1247.4,1209.1,1212.8,1242.9
/YG[Q6],1247.7,1210.1,1211.4,1242.9
/EMD[M6],1508.8,1489.4,1507.1,1499.0
/ES[M6],2106.00,2082.75,2103.50,2097.75
/CC[N6],3067,2992,3053,3031
/NQ[M6],4538.75,4478.75,4530.25,4509.00
/NKD[U6],16760,16315,16675,16375
/YM[M6],17849,17677,17821,17800
