﻿Watchlist 'FUTURES'

FUTURES
Symbol,High,Low,Open,Close
/6J[U6],.0094485,.009439,.009441,.0094505
/J7[U6],.009446,.009442,.009443,.009451
/6M[U6],.05380,.05378,.05378,.05360
/6N[U6],.7045,.7024,.7035,.7029
/6A[U6],.7494,.7489,.7491,.7493
/M6A[U6],.7494,.7490,.7491,.7493
/6C[U6],.76830,.76780,.76800,.76795
/6S[U6],1.0179,1.0174,1.0178,1.0179
/6E[U6],1.10480,1.10415,1.10445,1.10415
/E7[U6],1.1046,1.1043,1.1043,1.1042
/M6E[U6],1.1046,1.1043,1.1044,1.1042
/6B[U6],1.3119,1.3108,1.3108,1.3098
/M6B[U6],1.3118,1.3111,1.3115,1.3098
/RB[Q6],1.3770,1.3752,1.3752,1.3757
/HO[Q6],1.3884,1.3836,1.3839,1.3841
/HG[U6],2.2595,2.2570,2.2590,2.2630
/NG[Q6],2.728,2.720,2.722,2.728
/QG[Q6],2.725,2.720,2.725,2.730
/VX[Q6],15.75,15.60,15.65,15.675
/SB[V6],19.69,19.22,19.47,19.36
/SI[U6],19.985,19.960,19.970,20.007
/YI[U6],20.059,19.870,20.059,20.007
/ZL[Z6],0,0,0,31.18
/CL[U6],45.56,45.40,45.42,45.45
/QM[U6],45.550,45.425,45.475,45.450
/BZ[U6],46.78,46.72,46.72,46.66
/CT[Z6],74.46,72.63,73.95,73.27
/HE[Q6],0,0,0,77.350
/DX[U6],97.185,96.530,96.590,97.108
/GE[U6],99.240,99.240,99.240,99.240
/GLB[Z6],0,0,0,99.3775
/ZQ[N6],0,0,0,99.6075
/ZT[U6],109'122,109'117,109'122,109'120
/LE[Q6],0,0,0,110.400
/ZF[U6],121'177,121'170,121'175,121'170
/ZN[U6],132'095,132'080,132'095,132'075
/GF[Q6],0,0,0,139.900
/KC[U6],151.30,146.25,150.40,146.55
/ZB[U6],172'13,172'09,172'12,172'07
/OJ[U6],186.20,181.20,184.45,182.85
/UB[U6],187'11,187'07,187'11,187'04
/ZO[Z6],0,0,0,202.75
/LBS[U6],0,0,0,325.7
/ZC[Z6],0,0,0,348.50
/XC[Z6],0,0,0,348.500
/ZM[Z6],0,0,0,355.8
/KE[U6],0,0,0,410.50
/ZW[U6],0,0,0,418.00
/XW[U6],0,0,0,418.000
/PA[U6],658.35,656.50,656.55,656.40
/ZS[X6],0,0,0,1027.75
/XK[X6],0,0,0,1027.750
/PL[V6],1100.0,1097.5,1098.0,1098.6
/TF[U6],1205.2,1194.7,1205.0,1199.0
/GC[Q6],1332.9,1331.6,1332.2,1332.3
/YG[Q6],1335.5,1326.3,1329.2,1332.3
/EMD[U6],0,0,0,1539.6
/ES[U6],2159.75,2159.00,2159.00,2158.75
/CC[U6],3068,2990,3067,2998
/NQ[U6],4609.75,4606.00,4609.00,4606.50
/NKD[U6],16700,16690,16695,16680
/YM[U6],18497,18483,18497,18480
