﻿Watchlist 'FUTURES'

FUTURES
Symbol,High,Low,Open,Close
/J7[M6],.009221,.009126,.009153,.009213
/6J[M6],.0092215,.0091255,.0091535,.0092135
/6M[M6],.05721,.05652,.05705,.05666
/6N[M6],.6908,.6823,.6823,.6896
/6A[M6],.7715,.7661,.7672,.7700
/M6A[M6],.7715,.7662,.7675,.7700
/6C[M6],.7815,.7750,.7783,.7789
/6S[M6],1.0389,1.0346,1.0366,1.0356
/6E[M6],1.13360,1.12640,1.12775,1.13045
/E7[M6],1.1336,1.1264,1.1280,1.13045
/M6E[M6],1.1335,1.1264,1.1282,1.13045
/HO[K6],1.2616,1.2046,1.2562,1.2322
/6B[M6],1.4244,1.4135,1.4152,1.4205
/M6B[M6],1.4242,1.4134,1.4148,1.4205
/RB[K6],1.5126,1.4534,1.5064,1.4612
/NG[K6],1.967,1.885,1.961,1.902
/QG[K6],1.970,1.885,1.965,1.902
/HG[K6],2.1725,2.1355,2.1660,2.1530
/VX[J6],14.725,14.725,14.725,14.675
/SB[K6],15.12,14.19,14.20,15.04
/SI[K6],16.395,16.110,16.185,16.313
/YI[K6],16.381,16.101,16.170,16.313
/ZL[K6],33.80,33.29,33.80,33.38
/CL[M6],42.88,41.19,42.63,42.67
/QM[M6],42.875,41.225,42.600,42.675
/BZ[M6],44.06,42.29,43.82,43.10
/CT[K6],60.56,59.17,60.10,60.03
/HE[M6],77.700,76.800,77.275,77.625
/DX[M6],95.040,94.485,94.910,94.686
/GE[M6],99.320,99.305,99.310,99.320
/GLB[K6],0,0,0,99.5500
/ZQ[J6],99.640,99.635,99.6375,99.6375
/ZT[M6],109'120,109'092,109'095,109'115
/ZF[M6],121'097,121'000,121'015,121'077
/LE[M6],122.675,121.750,122.000,122.175
/KC[K6],124.35,121.60,123.30,122.95
/ZN[M6],130'235,130'065,130'095,130'205
/OJ[K6],140.20,136.55,138.50,137.25
/GF[K6],151.675,150.025,150.100,150.550
/ZB[M6],166'17,165'01,165'06,166'04
/UB[M6],174'25,172'30,173'06,174'11
/ZO[K6],194.00,188.00,193.00,189.50
/LBS[K6],285.4,278.5,284.7,280.5
/ZM[K6],297.1,288.8,289.3,295.9
/ZC[K6],380.50,372.00,373.50,378.50
/XC[K6],380.375,372.000,373.125,378.500
/KE[K6],459.50,451.00,454.50,457.75
/ZW[K6],462.25,454.75,459.25,459.75
/XW[K6],461.750,455.000,458.750,459.750
/PA[M6],571.15,559.55,563.75,568.25
/ZS[K6],958.25,946.50,947.50,956.00
/XK[K6],958.250,945.625,947.000,956.000
/PL[N6],993.0,982.4,992.8,989.9
/TF[M6],1129.2,1120.8,1124.5,1128.1
/GC[M6],1237.6,1226.8,1228.5,1234.6
/YG[M6],1238.2,1227.9,1231.5,1234.6
/EMD[M6],1462.8,1451.1,1455.3,1461.2
/ES[M6],2080.00,2069.50,2077.75,2075.00
/CC[N6],3031,2974,2986,2987
/NQ[M6],4554.50,4523.00,4548.75,4538.50
/NKD[M6],16980,16640,16850,16650
/YM[M6],17869,17780,17849,17814
