﻿Watchlist 'FUTURES'

FUTURES
Symbol,High,Low,Open,Close
/6J[Z6],.009666,.009643,.009643,.009649
/J7[Z6],.009663,.009643,.009644,.009649
/6M[Z6],.05277,.05267,.05270,.05264
/6N[Z6],.7169,.7143,.7153,.7114
/6A[Z6],.7639,.7613,.7619,.7615
/M6A[Z6],.7638,.7613,.7621,.7615
/6C[Z6],.76335,.76175,.76185,.76190
/6S[Z6],1.0158,1.0141,1.0141,1.0142
/6E[Z6],1.10480,1.10255,1.10260,1.10250
/E7[Z6],1.1047,1.1027,1.1027,1.1025
/M6E[Z6],1.1047,1.1026,1.1027,1.1025
/6B[Z6],1.2253,1.2194,1.2199,1.2205
/M6B[Z6],1.2251,1.2196,1.2196,1.2205
/RB[X6],1.5035,1.4994,1.5001,1.4924
/HO[X6],1.5637,1.5592,1.5592,1.5561
/HG[Z6],2.1095,2.1030,2.1035,2.1070
/NG[X6],3.263,3.248,3.252,3.244
/QG[X6],3.265,3.250,3.255,3.244
/VX[V6],16.60,16.45,16.52,16.525
/SI[Z6],17.525,17.455,17.460,17.474
/YI[Z6],17.523,17.503,17.503,17.474
/SB[H7],0,0,0,23.16
/ZL[Z6],35.44,35.36,35.41,35.44
/HE[Z6],0,0,0,41.600
/CL[Z6],50.62,50.42,50.45,50.37
/QM[Z6],50.625,50.425,50.450,50.370
/BZ[Z6],51.79,51.66,51.69,51.52
/CT[Z6],0,0,0,71.19
/DX[Z6],97.780,97.665,97.780,97.878
/LE[Z6],0,0,0,99.000
/GE[Z6],99.080,99.080,99.080,99.080
/GLB[Z6],0,0,0,99.3550
/ZQ[V6],99.605,99.605,99.605,99.605
/ZT[Z6],109'027,109'022,109'025,109'022
/ZF[Z6],121'002,120'302,120'307,120'312
/GF[V6],0,0,0,121.700
/ZN[Z6],130'055,130'020,130'045,130'040
/KC[Z6],0,0,0,157.10
/ZB[Z6],164'02,163'26,164'00,163'30
/UB[Z6],177'30,177'16,177'25,177'25
/OJ[X6],0,0,0,188.70
/ZO[Z6],199.75,199.75,199.75,200.00
/ZM[Z6],303.5,303.0,303.5,303.5
/LBS[X6],0,0,0,315.0
/ZC[Z6],355.00,354.00,354.25,354.00
/XC[Z6],355.000,354.000,354.000,354.000
/KE[Z6],423.00,422.00,422.50,422.00
/ZW[Z6],425.50,424.50,425.00,423.75
/XW[Z6],425.125,423.750,423.750,423.750
/PA[Z6],643.80,638.40,638.50,637.80
/PL[F7],941.0,938.0,938.8,936.2
/ZS[X6],978.25,977.00,977.50,978.25
/XK[X6],978.000,977.125,977.500,978.250
/TF[Z6],1212.5,1210.5,1210.5,1209.6
/GC[Z6],1257.6,1255.9,1256.0,1256.6
/YG[Z6],1257.2,1257.0,1257.0,1256.6
/EMD[Z6],1521.0,1516.6,1516.6,1515.2
/ES[Z6],2127.50,2120.25,2122.50,2123.10
/CC[Z6],0,0,0,2690
/NQ[Z6],4814.00,4799.75,4802.25,4803.25
/NKD[Z6],16920,16860,16880,16910
/YM[Z6],18035,17976,17990,18013
