﻿Watchlist 'FUTURES'

FUTURES
Symbol,High,Low,Open,Close
/ES[H6],1943.00,1922.25,1922.50,1925.00
/TF[H6],1045.2,1040.6,1041.0,1036.8
/NQ[H6],4353.75,4308.00,4308.75,4312.75
/YM[H6],16516,16344,16350,16363
/GC[G6],1087.8,1082.5,1086.8,1085.2
/YG[G6],1087.6,1083.0,1085.7,1085.2
/SI[H6],13.825,13.760,13.785,13.751
/YI[H6],13.826,13.780,13.814,13.751
/PL[J6],840.7,833.0,836.0,838.6
/PA[H6],473.60,467.25,468.20,469.80
/HG[H6],1.9750,1.9565,1.9595,1.9590
/ZC[H6],356.50,355.50,356.00,356.75
/ZW[H6],481.75,479.75,480.50,481.25
/ZS[H6],875.50,871.75,875.00,874.50
/ZM[H6],276.5,275.5,276.1,275.6
/ZL[H6],29.25,29.14,29.18,29.18
/ZO[H6],207.25,206.50,206.50,205.50
/ZQ[F6],99.665,99.665,99.665,99.665
/GE[H6],99.305,99.295,99.300,99.300
/GLB[H6],0,0,0,99.4875
/EMD[H6],1310.9,1299.5,1300.1,1299.8
/NKD[H6],17725,17405,17445,17425
/DX[H6],99.285,99.105,99.105,99.024
/6A[H6],.7028,.6954,.6955,.6964
/6B[H6],1.4477,1.4426,1.4427,1.4432
/6C[H6],.7035,.7006,.7007,.7009
/6E[H6],1.08675,1.08280,1.08665,1.08715
/E7[H6],1.0866,1.0829,1.0865,1.0872
/6J[H6],.0085065,.008459,.008505,.008513
/J7[H6],.008505,.008460,.008505,.008513
/6M[H6],.05583,.05555,.05558,.05568
/6N[H6],.6567,.6508,.6510,.6514
/6S[H6],.9997,.9965,.9995,1.0000
/CL[G6],31.10,30.50,30.54,30.44
/QM[G6],31.075,30.475,30.550,30.450
/RB[G6],1.0790,1.0661,1.0678,1.0848
/HO[G6],.9988,.9865,.9880,.9901
/NG[G6],2.287,2.259,2.263,2.257
/QG[G6],2.290,2.265,2.265,2.255
/UB[H6],162'15,161'17,162'13,162'14
/ZB[H6],157'17,156'24,157'14,157'18
/ZN[H6],127'245,127'150,127'235,127'265
/ZF[H6],119'162,119'107,119'160,119'177
/ZT[H6],108'295,108'277,108'292,108'295
/CC[H6],0,0,0,2860
/CT[H6],61.62,61.50,61.50,61.59
/SB[H6],0,0,0,14.05
/OJ[H6],0,0,0,132.00
/KC[H6],0,0,0,114.35
/M6A[H6],.7027,.6955,.6956,.6964
/M6B[H6],1.4474,1.4434,1.4434,1.4432
/M6E[H6],1.0867,1.0829,1.0865,1.0871
/LBS[F6],0,0,0,256.2
/HE[G6],0,0,0,61.900
/GF[F6],0,0,0,160.225
/LE[G6],0,0,0,131.600
/VX[F6],22.20,21.13,22.05,22.075
/XC[H6],356.500,356.000,356.000,356.750
/XW[H6],481.750,479.750,479.750,481.250
/XK[H6],875.500,872.000,874.250,874.500
/BZ[H6],31.42,31.04,31.12,30.95
/KE[H6],480.75,479.25,480.00,480.75
