﻿Watchlist 'FUTURES'

FUTURES
Symbol,High,Low,Open,Close
/J7[U6],.009841,.009829,.009841,.009835
/6J[U6],.0098455,.009830,.0098395,.0098355
/6M[U6],.05189,.05182,.05183,.05170
/6N[U6],.6980,.6958,.6964,.6961
/6A[U6],.7324,.7311,.7313,.7314
/M6A[U6],.7323,.7312,.7314,.7314
/6C[U6],.7650,.7643,.7645,.7636
/6S[U6],1.0286,1.0262,1.0286,1.0267
/6E[U6],1.10580,1.10440,1.10555,1.10360
/E7[U6],1.1055,1.1045,1.1055,1.1036
/M6E[U6],1.1056,1.1044,1.1055,1.1036
/6B[U6],1.3244,1.3228,1.3236,1.3190
/M6B[U6],1.3240,1.3228,1.3228,1.3190
/HO[N6],1.4383,1.4360,1.4378,1.4292
/RB[N6],1.4880,1.4847,1.4875,1.4767
/HG[U6],2.1315,2.1290,2.1300,2.1255
/NG[Q6],2.760,2.751,2.751,2.741
/QG[Q6],2.755,2.755,2.755,2.741
/SI[U6],17.840,17.820,17.830,17.786
/YI[U6],17.975,17.718,17.920,17.786
/SB[N6],19.74,19.06,19.06,19.48
/VX[N6],23.40,22.64,23.15,23.65
/ZL[Z6],0,0,0,31.93
/QM[Q6],46.800,46.500,46.625,46.325
/CL[Q6],46.80,46.54,46.59,46.33
/BZ[U6],48.22,48.21,48.21,47.77
/CT[Z6],65.40,64.25,64.31,64.38
/HE[Q6],0,0,0,83.500
/DX[U6],96.865,95.935,96.115,96.703
/GE[U6],99.380,99.375,99.375,99.380
/GLB[N6],0,0,0,99.5625
/ZQ[N6],0,0,0,99.6300
/ZT[U6],109'212,109'207,109'210,109'205
/LE[Q6],0,0,0,112.025
/ZF[U6],122'100,122'092,122'097,122'072
/ZN[U6],133'145,133'130,133'140,133'090
/KC[U6],138.30,134.60,136.95,136.05
/GF[Q6],0,0,0,140.175
/OJ[N6],166.00,161.80,165.60,165.50
/ZB[U6],173'15,173'10,173'15,173'05
/UB[U6],187'28,187'23,187'28,187'13
/ZO[Z6],0,0,0,200.75
/LBS[N6],0,0,0,294.6
/ZM[Z6],0,0,0,381.5
/ZC[Z6],0,0,0,394.25
/XC[Z6],0,0,0,394.250
/KE[U6],0,0,0,431.25
/ZW[U6],0,0,0,458.25
/XW[U6],0,0,0,458.250
/PA[U6],557.50,557.50,557.50,557.40
/PL[V6],984.0,979.9,980.2,980.7
/TF[U6],1114.6,1076.7,1111.5,1079.6
/ZS[X6],0,0,0,1104.75
/XK[X6],0,0,0,1104.750
/GC[Q6],1329.4,1327.0,1328.3,1324.7
/YG[Q6],1340.0,1321.6,1322.0,1324.7
/EMD[U6],1410.4,1406.6,1406.6,1411.3
/ES[U6],1989.75,1982.25,1982.50,1984.90
/CC[U6],3008,2976,2995,2986
/NQ[U6],4190.00,4176.00,4176.25,4178.00
/NKD[U6],15275,15220,15240,15250
/YM[U6],17033,16979,16979,16985
