﻿Watchlist 'FUTURES'

FUTURES
Symbol,High,Low,Open,Close
/J7[M6],.009285,.009257,.009282,.009281
/6J[M6],.009286,.0092555,.009280,.0092815
/6M[M6],.05638,.05627,.05637,.05650
/6N[M6],.6841,.6830,.6831,.6848
/6A[M6],.7585,.7567,.7574,.7589
/M6A[M6],.7583,.7568,.7573,.7589
/6C[M6],.7753,.7743,.7752,.7759
/6S[M6],1.0509,1.0497,1.0506,1.0511
/6E[M6],1.14340,1.14220,1.14260,1.14330
/E7[M6],1.1434,1.1425,1.1426,1.1433
/M6E[M6],1.1435,1.1421,1.1426,1.1433
/HO[K6],1.2159,1.2102,1.2147,1.2147
/6B[M6],1.4239,1.4228,1.4237,1.4244
/M6B[M6],1.4240,1.4229,1.4236,1.4244
/RB[K6],1.5036,1.4950,1.5023,1.5077
/QG[K6],1.935,1.930,1.930,1.910
/NG[K6],1.936,1.928,1.934,1.912
/HG[K6],2.0865,2.0830,2.0835,2.0905
/SB[K6],0,0,0,14.15
/SI[K6],15.970,15.900,15.950,15.976
/YI[K6],0,0,0,15.976
/VX[J6],17.28,17.00,17.10,17.075
/ZL[K6],33.92,33.84,33.92,33.90
/QM[K6],40.450,40.150,40.350,40.350
/CL[K6],40.44,40.14,40.35,40.36
/BZ[M6],42.76,42.43,42.60,42.83
/CT[K6],0,0,0,60.71
/HE[J6],0,0,0,66.350
/DX[M6],94.040,93.970,93.980,93.942
/GE[M6],99.315,99.315,99.315,99.310
/GLB[J6],0,0,0,99.5625
/ZQ[J6],0,0,0,99.640
/ZT[M6],109'132,109'125,109'127,109'130
/ZF[M6],121'155,121'130,121'145,121'157
/LE[M6],0,0,0,123.225
/KC[K6],0,0,0,123.35
/ZN[M6],131'010,130'290,130'315,131'010
/OJ[K6],0,0,0,137.05
/GF[K6],0,0,0,152.025
/ZB[M6],166'06,165'29,166'00,166'03
/UB[M6],174'15,174'05,174'09,174'14
/ZO[K6],0,0,0,184.75
/ZM[K6],280.6,280.0,280.1,280.1
/LBS[K6],0,0,0,291.2
/ZC[K6],357.50,356.75,357.00,356.75
/XC[K6],357.000,356.250,356.250,356.750
/KE[K6],445.00,443.75,444.50,443.75
/ZW[K6],448.25,446.50,448.00,447.25
/XW[K6],447.125,447.125,447.125,447.250
/PA[M6],549.00,547.20,547.20,545.50
/ZS[K6],928.00,927.00,927.50,928.25
/XK[K6],928.000,927.375,927.500,928.250
/PL[N6],991.9,988.5,989.2,990.8
/TF[M6],1089.4,1086.8,1087.1,1088.7
/GC[M6],1261.9,1257.9,1259.8,1258.0
/YG[M6],1260.8,1259.0,1259.0,1258.0
/EMD[M6],1418.5,1418.5,1418.5,1420.4
/ES[M6],2035.75,2029.25,2032.50,2034.50
/CC[K6],0,0,0,2906
/NQ[M6],4454.00,4440.75,4447.00,4451.50
/NKD[M6],15965,15705,15750,15755
/YM[M6],17485,17437,17457,17473
