﻿Watchlist 'FUTURES'

FUTURES
Symbol,High,Low,Open,Close
/6J[H6],.008819,.008804,.008806,.008818
/J7[H6],.008816,.008805,.008807,.008818
/6M[H6],.05606,.05597,.05605,.05608
/6N[H6],.6668,.6658,.6664,.6675
/6A[H6],.7287,.7280,.7284,.7294
/M6A[H6],.7286,.7280,.7286,.7294
/6C[H6],.7450,.7445,.7446,.7444
/6S[H6],1.0040,1.0032,1.0035,1.0041
/6E[H6],1.08730,1.08665,1.08700,1.08670
/E7[H6],1.0872,1.0869,1.0871,1.0867
/M6E[H6],1.0873,1.0867,1.0873,1.0867
/HO[J6],1.1130,1.1083,1.1098,1.1065
/RB[J6],1.3070,1.3040,1.3066,1.3107
/6B[H6],1.4087,1.4075,1.4081,1.4075
/M6B[H6],1.4086,1.4076,1.4077,1.4075
/NG[J6],1.672,1.668,1.672,1.678
/QG[J6],1.675,1.665,1.675,1.680
/HG[K6],2.1910,2.1855,2.1910,2.1810
/SB[K6],14.69,14.30,14.39,14.67
/SI[K6],15.015,14.965,14.980,15.022
/YI[K6],15.039,14.780,14.820,15.022
/VX[H6],19.39,19.25,19.25,19.275
/ZL[K6],0,0,0,30.37
/QM[J6],34.775,34.600,34.750,34.650
/CL[J6],34.81,34.57,34.73,34.66
/BZ[K6],37.03,36.95,37.03,36.93
/CT[K6],56.73,55.64,56.21,55.93
/HE[J6],0,0,0,70.050
/DX[H6],98.595,98.150,98.330,98.225
/GE[H6],99.345,99.3425,99.3425,99.3425
/GLB[H6],0,0,0,99.5375
/ZQ[J6],0,0,0,99.600
/ZT[M6],109'045,109'040,109'042,109'035
/KC[K6],116.30,113.65,115.10,115.55
/ZF[M6],120'140,120'127,120'130,120'112
/OJ[K6],128.50,124.20,126.70,125.55
/ZN[M6],129'145,129'125,129'130,129'110
/LE[J6],0,0,0,136.300
/GF[H6],0,0,0,158.300
/ZB[M6],163'00,162'25,162'27,162'21
/UB[M6],171'02,170'27,170'29,170'25
/ZO[K6],0,0,0,180.25
/LBS[H6],0,0,0,254.8
/ZM[K6],0,0,0,264.5
/ZC[K6],0,0,0,356.25
/XC[K6],0,0,0,356.250
/ZW[K6],0,0,0,450.25
/XW[K6],0,0,0,450.250
/KE[K6],0,0,0,455.00
/PA[M6],517.85,516.50,517.00,515.30
/ZS[K6],0,0,0,861.50
/XK[K6],0,0,0,861.500
/PL[J6],938.6,937.3,938.0,936.2
/TF[H6],1065.2,1049.9,1054.1,1064.4
/GC[J6],1244.0,1240.2,1240.8,1241.8
/YG[J6],1245.3,1225.8,1232.2,1241.8
/EMD[H6],1372.7,1371.6,1372.1,1373.5
/ES[H6],1982.00,1978.50,1981.75,1983.50
/CC[K6],2957,2895,2949,2948
/NQ[H6],4327.50,4317.50,4326.75,4329.25
/NKD[H6],16720,16655,16700,16710
/YM[H6],16860,16834,16858,16868
