﻿Watchlist 'FUTURES'

FUTURES
Symbol,High,Low,Open,Close
/6J[M6],.0089585,.0089335,.0089555,.008961
/J7[M6],.008957,.008933,.008956,.008961
/6M[M6],.05711,.05700,.05700,.05708
/6N[M6],.6743,.6732,.6741,.6738
/6A[M6],.7558,.7540,.7551,.7567
/M6A[M6],.7558,.7540,.7552,.7567
/6C[M6],.7642,.7635,.7636,.7655
/6S[M6],1.0342,1.0336,1.0340,1.0352
/6E[M6],1.12720,1.12575,1.12685,1.12800
/E7[M6],1.1271,1.1257,1.1269,1.1280
/M6E[M6],1.1273,1.1258,1.1271,1.1280
/HO[J6],1.2427,1.2375,1.2382,1.2374
/6B[M6],1.4379,1.4370,1.4371,1.4396
/M6B[M6],1.4379,1.4366,1.4366,1.4396
/RB[J6],1.4639,1.4585,1.4588,1.4589
/NG[J6],1.817,1.796,1.813,1.828
/QG[J6],1.815,1.795,1.815,1.830
/HG[K6],2.2900,2.2840,2.2900,2.2925
/SI[K6],15.865,15.820,15.855,15.847
/YI[K6],15.836,15.836,15.836,15.847
/SB[K6],0,0,0,16.29
/VX[J6],17.05,16.92,17.00,16.975
/ZL[K6],33.62,33.51,33.61,33.58
/CL[K6],41.79,41.50,41.59,41.52
/QM[K6],41.850,41.500,41.600,41.525
/BZ[K6],41.73,41.49,41.51,41.54
/CT[K6],0,0,0,58.17
/HE[J6],0,0,0,69.350
/DX[M6],95.490,95.445,95.445,95.304
/GE[M6],99.245,99.240,99.240,99.240
/GLB[J6],0,0,0,99.5550
/ZQ[J6],0,0,0,99.630
/ZT[M6],109'007,109'002,109'005,109'010
/ZF[M6],120'065,120'050,120'062,120'062
/OJ[K6],0,0,0,127.90
/ZN[M6],129'015,128'300,129'005,129'005
/KC[K6],0,0,0,131.55
/LE[J6],0,0,0,138.350
/ZB[M6],161'29,161'21,161'29,161'23
/GF[H6],0,0,0,162.375
/UB[M6],169'17,169'07,169'16,169'06
/ZO[K6],191.75,190.00,190.00,190.75
/ZM[K6],268.8,268.2,268.8,268.8
/LBS[K6],0,0,0,307.1
/ZC[K6],369.50,369.00,369.00,369.50
/XC[K6],369.125,368.875,369.000,369.500
/ZW[K6],466.75,465.50,466.50,466.50
/XW[K6],466.500,466.250,466.500,466.500
/KE[K6],475.25,474.50,475.25,474.75
/PA[M6],603.50,601.00,602.80,602.95
/ZS[K6],901.50,900.00,901.50,902.00
/XK[K6],901.500,900.750,901.125,902.000
/PL[J6],985.0,976.6,984.4,981.8
/TF[M6],1093.1,1092.4,1092.9,1094.0
/GC[J6],1245.3,1242.8,1244.3,1244.2
/YG[J6],1246.0,1244.1,1246.0,1244.2
/EMD[M6],0,0,0,1425.5
/ES[M6],2044.00,2040.25,2043.25,2042.75
/CC[K6],0,0,0,3072
/NQ[M6],4418.00,4410.50,4416.00,4416.25
/NKD[M6],17015,16825,16855,16815
/YM[M6],17538,17516,17532,17528
