﻿Watchlist 'FUTURES'

FUTURES
Symbol,High,Low,Open,Close
/6J[U6],.009839,.0097965,.009822,.009824
/J7[U6],.009838,.009798,.009820,.009824
/6M[U6],.05470,.05456,.05468,.05477
/6N[U6],.7221,.7179,.7195,.7200
/6A[U6],.7697,.7663,.7694,.7697
/M6A[U6],.7697,.7663,.7692,.7697
/6C[U6],.77095,.76985,.76995,.77120
/6S[U6],1.0277,1.0268,1.0271,1.0281
/6E[U6],1.11585,1.11465,1.11545,1.11590
/E7[U6],1.1159,1.1147,1.1155,1.1159
/M6E[U6],1.1159,1.1146,1.1152,1.1159
/6B[U6],1.2984,1.2957,1.2964,1.2976
/M6B[U6],1.2986,1.2956,1.2960,1.2976
/RB[U6],1.3636,1.3524,1.3571,1.3617
/HO[U6],1.3865,1.3790,1.3809,1.3849
/HG[U6],2.1945,2.1815,2.1850,2.1910
/QG[U6],2.545,2.525,2.530,2.550
/NG[U6],2.546,2.523,2.535,2.551
/VX[Q6],12.65,12.55,12.61,12.625
/SB[V6],0,0,0,19.60
/SI[U6],20.040,19.945,20.000,20.020
/YI[U6],20.028,19.921,19.922,20.020
/ZL[Z6],32.29,32.04,32.20,32.21
/CL[U6],43.81,43.42,43.46,43.49
/QM[U6],43.825,43.425,43.450,43.500
/BZ[V6],46.28,46.07,46.17,46.04
/HE[V6],0,0,0,58.425
/CT[Z6],72.37,72.12,72.20,71.86
/DX[U6],95.960,95.865,95.900,95.838
/GE[U6],99.140,99.125,99.125,99.125
/GLB[Z6],0,0,0,99.3100
/ZQ[V6],99.570,99.565,99.570,99.570
/ZT[U6],109'110,109'102,109'105,109'105
/LE[V6],0,0,0,114.550
/ZF[U6],121'155,121'125,121'137,121'137
/ZN[U6],132'065,132'010,132'030,132'015
/KC[U6],0,0,0,137.70
/GF[Q6],0,0,0,148.725
/ZB[U6],172'11,171'28,172'01,171'25
/ZO[Z6],182.00,182.00,182.00,182.00
/OJ[U6],0,0,0,183.55
/UB[U6],187'22,187'00,187'04,186'29
/LBS[U6],0,0,0,322.6
/ZM[Z6],331.7,328.7,328.9,329.9
/ZC[Z6],332.00,331.25,331.50,331.75
/XC[Z6],332.000,331.000,331.000,331.750
/KE[U6],412.50,411.00,411.50,412.25
/ZW[U6],417.25,415.00,416.00,416.25
/XW[U6],416.750,415.625,415.625,416.250
/PA[U6],694.95,687.65,688.40,691.80
/ZS[X6],988.50,982.00,983.00,984.00
/XK[X6],988.375,983.000,983.000,984.000
/PL[V6],1154.6,1144.0,1146.0,1156.7
/TF[U6],1227.9,1225.8,1227.6,1227.3
/GC[Z6],1346.5,1340.4,1344.7,1350.0
/YG[Z6],1346.4,1340.6,1343.0,1350.0
/EMD[U6],1560.6,1558.4,1559.4,1558.1
/ES[U6],2183.25,2180.50,2181.75,2181.75
/CC[U6],0,0,0,3002
/NQ[U6],4804.75,4797.75,4800.00,4800.00
/NKD[U6],16915,16810,16880,16880
/YM[U6],18579,18560,18565,18565
