﻿Watchlist 'FUTURES'

FUTURES
Symbol,High,Low,Open,Close
/6J[Z6],.0087725,.008749,.0087655,.008771
/J7[Z6],.008772,.008752,.008764,.008771
/6M[Z6],.04923,.04915,.04923,.04911
/6N[Z6],.7180,.7169,.7169,.7175
/6A[Z6],.7459,.7446,.7447,.7458
/M6A[Z6],.7458,.7447,.7449,.7458
/6C[Z6],.75800,.75735,.75775,.75820
/6S[Z6],.9847,.9840,.9843,.9843
/6E[Z6],1.06250,1.06130,1.06170,1.06170
/E7[Z6],1.0623,1.0612,1.0618,1.0617
/M6E[Z6],1.0624,1.0612,1.0618,1.0617
/6B[Z6],1.2587,1.2579,1.2582,1.2590
/M6B[Z6],1.2584,1.2579,1.2584,1.2590
/RB[F7],1.5082,1.5055,1.5055,1.5047
/HO[F7],1.6250,1.6211,1.6231,1.6259
/HG[H7],2.6305,2.6230,2.6230,2.6260
/NG[F7],3.726,3.708,3.710,3.695
/QG[F7],3.725,3.705,3.705,3.695
/VX[Z6],13.60,13.40,13.40,13.425
/SI[H7],17.095,16.930,17.075,17.096
/YI[H7],0,0,0,17.096
/SB[H7],19.82,19.33,19.63,19.45
/ZL[F7],0,0,0,37.26
/CL[F7],51.10,50.92,50.92,50.84
/QM[F7],51.100,50.900,50.950,50.850
/BZ[G7],54.07,53.93,53.95,53.89
/HE[Z6],0,0,0,55.675
/CT[H7],0,0,0,71.42
/GE[Z6],99.0125,99.0125,99.0125,99.015
/GLB[Z6],0,0,0,99.2800
/ZQ[F7],0,0,0,99.360
/DX[Z6],0,0,0,101.125
/ZT[H7],108'135,108'127,108'132,108'140
/LE[G7],0,0,0,110.650
/ZF[H7],117'290,117'252,117'285,117'317
/ZN[H7],124'130,124'045,124'115,124'170
/GF[F7],0,0,0,126.600
/KC[H7],143.45,140.65,142.50,141.40
/ZB[H7],149'18,148'27,149'17,149'31
/UB[H7],158'29,157'31,158'26,159'12
/OJ[F7],215.40,211.10,214.65,213.40
/ZO[H7],0,0,0,223.00
/ZM[F7],0,0,0,313.7
/LBS[F7],0,0,0,322.8
/ZC[H7],0,0,0,353.50
/XC[H7],0,0,0,353.500
/KE[H7],0,0,0,404.75
/ZW[H7],0,0,0,408.25
/XW[H7],0,0,0,408.250
/PA[H7],738.95,730.00,738.95,739.05
/PL[F7],940.2,932.3,938.1,943.8
/ZS[F7],0,0,0,1027.00
/XK[F7],0,0,0,1027.000
/GC[G7],1172.8,1168.5,1172.5,1172.4
/YG[G7],0,0,0,1172.4
/TF[H7],0,0,0,1386.9
/EMD[H7],1694.9,1694.8,1694.8,1694.8
/ES[H7],2242.50,2241.50,2241.50,2242.50
/CC[H7],2348,2242,2340,2272
/NQ[H7],4862.00,4858.75,4860.00,4862.25
/NKD[H7],18940,18825,18890,18880
/YM[H7],19569,19557,19561,19564
