﻿Watchlist 'FUTURES'

FUTURES
Symbol,High,Low,Open,Close
/J7[M6],.009130,.009094,.009117,.009116
/6J[M6],.0091305,.009093,.0091145,.0091165
/6M[M6],.05417,.05410,.05410,.05409
/6N[M6],.6754,.6734,.6738,.6738
/6A[M6],.7230,.7215,.7221,.7210
/M6A[M6],.7231,.7215,.7219,.7210
/6C[M6],.7711,.7703,.7706,.7699
/6S[M6],1.0120,1.0110,1.0113,1.0111
/6E[M6],1.12045,1.11925,1.11970,1.11950
/E7[M6],1.1204,1.1194,1.1198,1.1195
/M6E[M6],1.1204,1.1193,1.1195,1.1195
/6B[M6],1.4684,1.4661,1.4671,1.4665
/M6B[M6],1.4677,1.4662,1.4664,1.4665
/HO[N6],1.5100,1.5016,1.5035,1.5062
/RB[N6],1.6310,1.6246,1.6275,1.6267
/HG[N6],2.1045,2.0905,2.1000,2.1025
/QG[N6],2.145,2.140,2.145,2.150
/NG[N6],2.147,2.140,2.145,2.151
/VX[M6],15.90,15.80,15.85,15.825
/SI[N6],16.395,16.305,16.335,16.343
/YI[N6],16.395,16.310,16.370,16.343
/SB[N6],0,0,0,17.42
/ZL[N6],31.05,30.91,31.00,31.04
/QM[N6],49.475,49.125,49.300,49.475
/CL[N6],49.47,49.14,49.31,49.48
/BZ[Q6],50.09,49.83,50.03,50.17
/CT[N6],64.38,64.27,64.33,64.33
/HE[M6],0,0,0,80.550
/DX[M6],95.175,95.075,95.150,95.162
/GE[M6],99.290,99.285,99.290,99.2875
/GLB[M6],0,0,0,99.5050
/ZQ[N6],99.560,99.555,99.560,99.555
/ZT[U6],108'317,108'307,108'315,109'000
/LE[M6],0,0,0,118.925
/ZF[U6],120'065,120'045,120'062,120'065
/KC[N6],0,0,0,121.50
/ZN[U6],129'255,129'220,129'240,129'260
/GF[Q6],0,0,0,145.400
/OJ[N6],0,0,0,148.05
/ZB[U6],162'31,162'25,162'29,163'06
/UB[U6],174'23,174'16,174'20,175'02
/ZO[N6],194.00,191.75,191.75,191.25
/LBS[N6],0,0,0,308.5
/ZC[N6],408.00,407.00,408.00,408.25
/XC[N6],408.000,407.125,407.500,408.250
/ZM[N6],410.0,406.6,410.0,409.6
/KE[N6],462.25,458.25,462.00,462.25
/ZW[N6],481.75,479.00,481.25,481.25
/XW[N6],481.250,479.250,480.000,481.250
/PA[U6],546.80,542.45,542.45,543.65
/PL[N6],998.1,992.4,995.0,995.8
/ZS[N6],1081.00,1075.00,1079.00,1079.75
/XK[N6],1080.000,1075.250,1078.125,1079.750
/TF[M6],1140.7,1139.8,1140.2,1139.0
/GC[Q6],1225.5,1222.0,1222.3,1222.7
/YG[Q6],1226.4,1223.3,1225.2,1222.7
/EMD[M6],1483.3,1481.9,1482.9,1481.3
/ES[M6],2092.50,2089.75,2090.50,2089.75
/CC[N6],0,0,0,2916
/NQ[M6],4500.75,4492.00,4494.00,4492.25
/NKD[M6],16945,16815,16915,16890
/YM[M6],17840,17816,17825,17817
