﻿Watchlist 'FUTURES'

FUTURES
Symbol,High,Low,Open,Close
/J7[M6],.008856,.008856,.008856,.008843
/6J[M6],.008858,.008847,.008849,.0088435
/6M[M6],.05596,.05589,.05596,.05596
/6N[M6],.6625,.6596,.6607,.6750
/6A[M6],.7447,.7434,.7438,.7482
/M6A[M6],.7447,.7436,.7441,.7482
/6C[M6],.7556,.7547,.7548,.7549
/6S[M6],1.0075,1.0059,1.0075,1.0069
/6E[M6],1.10340,1.10165,1.10330,1.10355
/E7[M6],1.1031,1.1019,1.1031,1.10355
/M6E[M6],1.1034,1.1017,1.1034,1.10355
/HO[J6],1.2307,1.2253,1.2280,1.2327
/6B[M6],1.4226,1.4208,1.4216,1.4231
/M6B[M6],1.4216,1.4216,1.4216,1.4231
/RB[J6],1.4710,1.4686,1.4694,1.4705
/QG[J6],1.770,1.760,1.760,1.750
/NG[J6],1.769,1.763,1.764,1.752
/HG[K6],2.2360,2.2325,2.2340,2.2325
/SB[K6],14.94,14.56,14.88,14.63
/SI[K6],15.325,15.300,15.310,15.366
/YI[K6],15.461,15.220,15.380,15.366
/VX[H6],19.10,19.00,19.05,19.075
/ZL[K6],0,0,0,31.74
/CL[J6],38.26,38.11,38.17,38.29
/QM[J6],38.275,38.100,38.175,38.300
/BZ[K6],40.90,40.84,40.84,41.07
/CT[K6],56.90,56.00,56.84,56.59
/HE[J6],0,0,0,72.100
/DX[M6],97.630,96.980,97.320,97.219
/GE[H6],0,0,0,99.3575
/GLB[H6],0,0,0,99.5525
/ZQ[J6],0,0,0,99.615
/ZT[M6],109'002,109'000,109'000,108'317
/ZF[M6],120'057,120'047,120'050,120'032
/KC[K6],122.90,120.65,120.95,122.35
/OJ[K6],124.55,120.65,122.25,123.55
/ZN[M6],129'075,129'055,129'060,129'020
/LE[J6],0,0,0,136.775
/GF[H6],0,0,0,159.050
/ZB[M6],163'14,163'10,163'11,162'27
/UB[M6],171'16,171'11,171'13,170'24
/ZO[K6],0,0,0,186.50
/ZM[K6],0,0,0,271.3
/LBS[H6],0,0,0,276.5
/ZC[K6],0,0,0,359.50
/XC[K6],0,0,0,359.500
/ZW[K6],0,0,0,468.25
/XW[K6],0,0,0,468.250
/KE[K6],0,0,0,475.75
/PA[M6],567.00,563.90,567.00,566.15
/ZS[K6],0,0,0,885.75
/XK[K6],0,0,0,885.750
/PL[J6],983.2,980.0,980.7,982.8
/TF[H6],1076.2,1064.7,1067.5,1073.7
/GC[J6],1255.0,1252.9,1253.7,1257.4
/YG[J6],1264.5,1244.2,1264.5,1257.4
/EMD[H6],1386.7,1386.2,1386.2,1386.2
/ES[H6],1990.75,1988.25,1990.00,1989.00
/CC[K6],3037,2963,2980,3022
/NQ[H6],4297.75,4291.00,4295.25,4294.50
/NKD[M6],16805,16745,16755,16755
/YM[H6],17021,17002,17013,17008
