﻿Watchlist 'FUTURES'

FUTURES
Symbol,High,Low,Open,Close
/6J[M6],.009126,.009120,.0091225,.009120
/J7[M6],.009125,.009121,.009121,.009120
/6M[M6],.05766,.05761,.05761,.05773
/6N[M6],.6964,.6956,.6958,.6959
/6A[M6],.7780,.7773,.7775,.7782
/M6A[M6],.7781,.7773,.7777,.7782
/6C[M6],.7904,.7901,.7903,.7918
/6S[M6],1.0315,1.0307,1.0311,1.0319
/6E[M6],1.13185,1.13140,1.13165,1.13190
/E7[M6],1.1318,1.1314,1.1314,1.1319
/M6E[M6],1.1319,1.1315,1.1315,1.1319
/HO[K6],1.3324,1.3250,1.3313,1.3322
/6B[M6],1.4339,1.4333,1.4335,1.4368
/M6B[M6],1.4338,1.4331,1.4331,1.4368
/RB[K6],1.5040,1.4990,1.5033,1.5068
/NG[K6],2.100,2.069,2.073,2.069
/QG[K6],2.095,2.070,2.075,2.070
/HG[K6],2.2375,2.2320,2.2330,2.2380
/SB[K6],15.69,14.77,15.10,15.57
/VX[K6],16.50,16.40,16.45,16.425
/SI[K6],16.990,16.945,16.960,17.135
/YI[K6],17.236,16.862,16.950,17.135
/ZL[K6],0,0,0,34.64
/QM[M6],43.950,43.775,43.925,44.175
/CL[M6],43.99,43.78,43.97,44.18
/BZ[M6],45.50,45.41,45.41,45.80
/CT[N6],64.74,62.06,63.20,64.09
/HE[M6],0,0,0,79.600
/DX[M6],94.565,93.900,94.095,94.471
/GE[M6],99.295,99.290,99.295,99.295
/GLB[K6],0,0,0,99.5375
/ZQ[J6],0,0,0,99.6375
/ZT[M6],109'072,109'067,109'070,109'067
/LE[M6],0,0,0,117.275
/ZF[M6],120'220,120'210,120'220,120'207
/KC[N6],129.50,127.85,127.95,128.70
/OJ[K6],134.90,128.90,134.00,129.55
/ZN[M6],129'265,129'250,129'260,129'240
/GF[K6],0,0,0,145.425
/ZB[M6],163'19,163'15,163'17,163'13
/UB[M6],171'13,171'09,171'11,171'06
/ZO[K6],0,0,0,207.00
/LBS[K6],0,0,0,282.6
/ZM[K6],0,0,0,318.9
/ZC[K6],0,0,0,394.75
/XC[K6],0,0,0,394.750
/KE[K6],0,0,0,493.25
/ZW[K6],0,0,0,504.25
/XW[K6],0,0,0,504.250
/PA[M6],596.45,594.85,596.45,597.05
/ZS[K6],0,0,0,1009.75
/XK[K6],0,0,0,1009.750
/PL[N6],1020.1,1018.0,1019.5,1028.1
/TF[M6],1145.5,1132.4,1136.0,1139.6
/GC[M6],1246.8,1244.4,1244.5,1254.4
/YG[M6],1260.9,1245.0,1252.1,1254.4
/EMD[M6],0,0,0,1476.1
/ES[M6],2098.50,2097.00,2097.75,2098.00
/CC[N6],3102,3069,3081,3090
/NQ[M6],4536.00,4531.00,4533.25,4535.75
/NKD[M6],17295,17260,17290,17280
/YM[M6],18045,18032,18036,18037
