﻿Watchlist 'FUTURES'

FUTURES
Symbol,High,Low,Open,Close
/J7[M6],.009168,.009150,.009168,.009168
/6J[M6],.0091675,.009150,.0091645,.0091685
/6M[M6],.05708,.05699,.05699,.05697
/6N[M6],.6901,.6890,.6900,.6902
/6A[M6],.7645,.7632,.7633,.7637
/M6A[M6],.7644,.7635,.7635,.7637
/6C[M6],.7808,.7802,.7802,.7806
/6S[M6],1.0374,1.0366,1.0367,1.0368
/M6E[M6],1.1303,1.1292,1.1298,1.1303
/6E[M6],1.13030,1.12920,1.12950,1.13035
/E7[M6],1.1303,1.1293,1.1297,1.1304
/HO[K6],1.2683,1.2645,1.2660,1.2656
/6B[M6],1.4209,1.4188,1.4205,1.4214
/M6B[M6],1.4207,1.4190,1.4206,1.4214
/RB[K6],1.5305,1.5261,1.5273,1.5295
/NG[K6],2.048,2.039,2.045,2.036
/QG[K6],2.045,2.040,2.045,2.036
/HG[K6],2.1730,2.1685,2.1710,2.1680
/SB[K6],0,0,0,14.01
/VX[J6],14.90,14.80,14.83,14.825
/SI[K6],16.250,16.210,16.230,16.325
/YI[K6],0,0,0,16.325
/ZL[K6],0,0,0,33.96
/QM[K6],41.800,41.550,41.550,41.750
/CL[K6],41.81,41.53,41.54,41.76
/BZ[M6],0,0,0,44.18
/CT[K6],0,0,0,61.63
/HE[M6],0,0,0,78.100
/DX[M6],0,0,0,94.762
/GE[M6],0,0,0,99.310
/GLB[J6],0,0,0,99.5625
/ZQ[J6],0,0,0,99.640
/ZT[M6],109'102,109'100,109'102,109'102
/ZF[M6],121'060,121'042,121'060,121'065
/LE[M6],0,0,0,121.725
/KC[K6],0,0,0,121.75
/ZN[M6],130'195,130'160,130'195,130'200
/OJ[K6],0,0,0,140.95
/GF[K6],0,0,0,149.925
/ZB[M6],165'24,165'17,165'22,165'28
/UB[M6],173'25,173'18,173'25,173'31
/ZO[K6],0,0,0,192.00
/ZM[K6],0,0,0,292.7
/LBS[K6],0,0,0,293.0
/ZC[K6],0,0,0,373.50
/XC[K6],0,0,0,373.500
/KE[K6],0,0,0,454.50
/ZW[K6],0,0,0,461.50
/XW[K6],0,0,0,461.500
/PA[M6],546.00,545.00,545.15,542.50
/ZS[K6],0,0,0,955.75
/XK[K6],0,0,0,955.750
/PL[N6],1001.8,997.4,999.5,1003.0
/TF[M6],0,0,0,1127.4
/GC[M6],1244.7,1242.1,1243.8,1248.3
/YG[M6],0,0,0,1248.3
/EMD[M6],1464.1,1462.0,1464.1,1461.7
/ES[M6],2076.50,2074.75,2076.25,2076.00
/CC[N6],0,0,0,2954
/NQ[M6],4550.00,4546.00,4546.50,4547.75
/NKD[M6],16720,16655,16675,16655
/YM[M6],17832,17819,17830,17828
