﻿Watchlist 'FUTURES'

FUTURES
Symbol,High,Low,Open,Close
/6J[Z6],.009967,.0099185,.0099585,.009946
/J7[Z6],.009965,.009917,.009954,.009946
/6M[Z6],.05056,.05050,.05053,.05057
/6N[Z6],.7290,.7262,.7288,.7277
/6A[Z6],.7634,.7618,.7629,.7619
/M6A[Z6],.7634,.7618,.7627,.7619
/6C[Z6],.76700,.76575,.76670,.76585
/6S[Z6],1.0372,1.0362,1.0369,1.0360
/6E[Z6],1.12505,1.12330,1.12480,1.12410
/E7[Z6],1.1250,1.1239,1.1246,1.1241
/M6E[Z6],1.1251,1.1240,1.1248,1.1241
/6B[Z6],1.3108,1.3088,1.3096,1.3093
/M6B[Z6],1.3105,1.3089,1.3095,1.3093
/RB[V6],1.3932,1.3850,1.3932,1.4018
/HO[V6],1.4500,1.4473,1.4494,1.4542
/HG[Z6],2.1955,2.1885,2.1885,2.1945
/NG[V6],3.006,2.990,2.995,2.990
/QG[V6],3.005,2.985,2.990,2.990
/VX[V6],15.38,15.23,15.35,15.325
/SI[Z6],20.020,19.940,19.960,20.099
/YI[Z6],19.979,19.958,19.979,20.099
/SB[V6],0,0,0,22.17
/ZL[Z6],34.27,34.12,34.20,34.21
/CL[X6],46.07,45.87,46.07,46.32
/QM[X6],46.075,45.850,46.075,46.320
/BZ[X6],47.43,47.32,47.42,47.65
/HE[V6],0,0,0,54.200
/CT[Z6],0,0,0,71.71
/DX[Z6],95.415,95.280,95.310,95.381
/GE[Z6],99.070,99.070,99.070,99.070
/GLB[Z6],0,0,0,99.3250
/ZQ[V6],99.605,99.605,99.605,99.610
/LE[V6],0,0,0,107.075
/ZT[Z6],109'057,109'050,109'055,109'050
/ZF[Z6],121'122,121'102,121'115,121'105
/ZN[Z6],130'310,130'275,130'295,130'275
/GF[V6],0,0,0,132.300
/KC[Z6],0,0,0,155.25
/ZB[Z6],167'28,167'21,167'25,167'16
/ZO[Z6],176.75,176.75,176.75,177.25
/UB[Z6],183'23,183'13,183'22,183'06
/OJ[X6],0,0,0,204.05
/ZM[Z6],307.7,307.1,307.4,307.5
/LBS[X6],0,0,0,325.4
/ZC[Z6],336.75,336.00,336.00,336.75
/XC[Z6],336.500,334.875,334.875,336.750
/ZW[Z6],404.25,403.25,403.75,405.50
/XW[Z6],404.000,403.125,404.000,405.500
/KE[Z6],420.50,419.00,420.50,420.75
/PA[Z6],695.55,693.25,694.15,700.45
/ZS[X6],976.25,974.50,975.00,976.50
/XK[X6],975.875,974.500,975.000,976.500
/PL[V6],1060.3,1056.5,1057.4,1062.8
/TF[Z6],1259.5,1258.4,1259.1,1259.4
/GC[Z6],1341.6,1340.0,1340.3,1344.7
/YG[Z6],1341.7,1340.5,1341.3,1344.7
/EMD[Z6],1559.9,1557.7,1559.8,1560.1
/ES[Z6],2168.75,2166.75,2168.25,2168.30
/CC[Z6],0,0,0,2920
/NQ[Z6],4887.50,4882.25,4887.25,4886.25
/NKD[Z6],16870,16645,16805,16555
/YM[Z6],18304,18288,18297,18299
