﻿Watchlist 'FUTURES'

FUTURES
Symbol,High,Low,Open,Close
/ES[H6],1905.50,1901.50,1905.25,1907.75
/TF[H6],1023.8,997.5,1006.4,1010.1
/NQ[H6],4149.00,4138.50,4146.50,4155.75
/YM[H6],16310,16279,16309,16328
/GC[J6],1156.8,1154.2,1155.7,1157.5
/YG[J6],1158.3,1140.7,1142.8,1157.5
/SI[H6],14.890,14.865,14.880,14.850
/YI[H6],14.940,14.675,14.710,14.850
/PL[J6],910.2,907.0,910.0,906.3
/PA[H6],516.80,513.70,515.65,515.60
/HG[H6],2.1235,2.1190,2.1205,2.1315
/ZC[H6],0,0,0,368.50
/ZW[H6],0,0,0,472.75
/ZS[H6],0,0,0,874.50
/ZM[H6],0,0,0,267.6
/ZL[H6],0,0,0,31.24
/ZO[H6],0,0,0,196.25
/ZQ[J6],0,0,0,99.600
/GE[H6],99.370,99.370,99.370,99.370
/GLB[H6],0,0,0,99.5450
/EMD[H6],1300.7,1299.6,1300.6,1303.2
/NKD[H6],16865,16755,16815,16835
/DX[H6],97.480,96.270,97.185,96.487
/6A[H6],.7198,.7181,.7183,.7191
/6B[H6],1.4585,1.4575,1.4577,1.4599
/6C[H6],.7275,.7268,.7271,.7285
/6E[H6],1.12155,1.12070,1.12125,1.12220
/E7[H6],1.1214,1.1208,1.1212,1.1222
/6J[H6],.0085725,.0085595,.008564,.008574
/J7[H6],.008572,.008561,.008565,.008574
/6M[H6],.05467,.05450,.05462,.05453
/6N[H6],.6720,.6705,.6706,.6719
/6S[H6],1.0089,1.0074,1.0075,1.0087
/CL[H6],31.82,31.42,31.64,31.72
/QM[H6],31.800,31.400,31.675,31.725
/RB[H6],1.0315,1.0219,1.0247,1.0284
/HO[H6],1.0807,1.0730,1.0772,1.0805
/NG[H6],1.993,1.981,1.981,1.972
/QG[H6],1.995,1.980,1.980,1.970
/UB[H6],168'27,168'18,168'21,168'02
/ZB[H6],163'11,163'03,163'06,162'24
/ZN[H6],130'160,130'125,130'140,130'085
/ZF[H6],121'070,121'050,121'052,121'025
/ZT[H6],109'147,109'142,109'145,109'137
/CC[H6],2878,2757,2870,2764
/CT[H6],61.89,59.99,61.89,60.23
/SB[H6],13.17,12.82,12.92,12.89
/OJ[H6],137.10,135.05,135.10,136.65
/KC[H6],123.80,121.35,121.40,123.20
/M6A[H6],.7199,.7185,.7185,.7191
/M6B[H6],1.4582,1.4575,1.4577,1.4599
/M6E[H6],1.1216,1.1207,1.1211,1.1222
/LBS[H6],0,0,0,250.4
/HE[G6],0,0,0,65.125
/GF[H6],0,0,0,156.525
/LE[J6],0,0,0,135.650
/VX[G6],23.22,22.97,23.01,23.075
/XC[H6],0,0,0,368.500
/XW[H6],0,0,0,472.750
/XK[H6],0,0,0,874.500
/BZ[J6],34.47,34.44,34.44,34.46
/KE[H6],0,0,0,459.75
