﻿Watchlist 'FUTURES'

FUTURES
Symbol,High,Low,Open,Close
/6J[M7],.008745,.0087335,.008742,.0087505
/J7[M7],.008741,.008735,.008740,.008751
/6M[M7],.05029,.05021,.05028,.05035
/6N[M7],.6909,.6894,.6909,.6908
/6C[M7],.74485,.74405,.74465,.74495
/6A[M7],.7560,.7550,.7558,.7566
/M6A[M7],.7560,.7549,.7558,.7566
/6S[M7],.9988,.9977,.9988,.9987
/6E[M7],1.07055,1.06935,1.07015,1.07085
/E7[M7],1.0704,1.0692,1.0701,1.0709
/M6E[M7],1.0706,1.0693,1.0702,1.0709
/6B[M7],1.2251,1.2227,1.2250,1.2261
/M6B[M7],1.2250,1.2228,1.2250,1.2261
/HO[J7],1.5021,1.4968,1.5002,1.5006
/RB[J7],1.5850,1.5788,1.5802,1.5807
/HG[K7],2.6285,2.6255,2.6280,2.6255
/NG[J7],3.032,3.018,3.018,3.043
/QG[J7],3.030,3.015,3.020,3.043
/VX[H7],12.15,12.08,12.13,12.125
/SI[K7],17.005,16.895,16.985,16.972
/ZL[K7],32.18,32.11,32.11,32.12
/CL[J7],48.47,48.28,48.45,48.40
/QM[J7],48.475,48.275,48.450,48.400
/BZ[K7],51.44,51.25,51.40,51.35
/HE[J7],0,0,0,70.225
/GE[M7],98.650,98.645,98.645,98.645
/GLB[J7],0,0,0,99.0150
/ZQ[J7],99.110,99.110,99.110,99.115
/ZT[M7],107'282,107'277,107'280,107'282
/ZF[M7],116'182,116'162,116'167,116'187
/LE[J7],0,0,0,117.750
/ZN[M7],122'245,122'205,122'215,122'255
/GF[H7],0,0,0,128.600
/ZB[M7],146'06,145'29,145'31,146'12
/UB[M7],155'01,154'22,154'24,155'09
/ZO[K7],247.25,244.75,245.00,246.00
/ZM[K7],331.7,330.9,331.3,330.9
/LBS[K7],0,0,0,359.7
/ZC[K7],361.50,361.00,361.00,361.00
/XC[K7],361.500,361.250,361.500,361.000
/ZW[K7],431.75,431.00,431.50,430.50
/XW[K7],431.250,430.250,430.250,430.500
/KE[K7],444.75,443.50,444.50,442.75
/PA[M7],753.85,752.15,752.90,754.45
/PL[J7],941.4,937.1,940.5,941.2
/ZS[K7],1008.00,1005.75,1006.50,1006.00
/XK[K7],1006.875,1006.000,1006.000,1006.000
/GC[J7],1204.0,1200.9,1203.5,1203.1
/EMD[M7],1713.9,1712.6,1713.9,1713.9
/ES[M7],2371.50,2369.75,2370.75,2371.75
/NQ[M7],5400.50,5396.75,5399.25,5399.25
/NKD[M7],19665,19575,19620,19610
/YM[M7],20840,20823,20837,20843
/TF[M7],<empty>,<empty>,<empty>,<empty>
/YG[J7],<empty>,<empty>,<empty>,<empty>
/YI[K7],<empty>,<empty>,<empty>,<empty>
/DX[M7],<empty>,<empty>,<empty>,<empty>
/CC[K7],<empty>,<empty>,<empty>,<empty>
/CT[K7],<empty>,<empty>,<empty>,<empty>
/SB[K7],<empty>,<empty>,<empty>,<empty>
/OJ[K7],<empty>,<empty>,<empty>,<empty>
/KC[K7],<empty>,<empty>,<empty>,<empty>
