﻿Watchlist 'FUTURES'

FUTURES
Symbol,High,Low,Open,Close
/6J[H7],.008815,.008794,.0088015,.008808
/J7[H7],.008814,.008795,.008804,.008808
/6M[H7],.04788,.04770,.04782,.04789
/6N[H7],.7286,.7270,.7277,.7278
/6A[H7],.7560,.7548,.7551,.7546
/M6A[H7],.7560,.7550,.7550,.7546
/6C[H7],.76375,.76285,.76285,.76300
/6S[H7],1.0081,1.0067,1.0073,1.0071
/6E[H7],1.07260,1.07110,1.07170,1.07110
/E7[H7],1.0725,1.0712,1.0719,1.0711
/M6E[H7],1.0726,1.0711,1.0719,1.0711
/6B[H7],1.2525,1.2501,1.2502,1.2494
/M6B[H7],1.2524,1.2501,1.2508,1.2494
/RB[H7],1.5345,1.5280,1.5293,1.5331
/HO[H7],1.6253,1.6214,1.6229,1.6242
/HG[H7],2.6725,2.6635,2.6700,2.6550
/NG[H7],3.235,3.190,3.224,3.232
/QG[H7],3.240,3.190,3.220,3.232
/VX[G7],13.00,12.85,12.90,12.875
/SI[H7],17.185,17.105,17.130,17.152
/YI[H7],17.144,17.121,17.125,17.152
/SB[H7],0,0,0,20.31
/ZL[H7],33.65,33.55,33.65,33.61
/CL[H7],52.70,52.52,52.60,52.63
/QM[H7],52.675,52.525,52.600,52.630
/BZ[J7],55.42,55.34,55.36,55.32
/HE[G7],0,0,0,67.100
/CT[H7],0,0,0,74.14
/GE[H7],98.920,98.915,98.920,98.920
/GLB[G7],0,0,0,99.2200
/ZQ[J7],99.285,99.285,99.285,99.285
/DX[H7],100.400,100.370,100.390,100.414
/ZT[H7],108'122,108'117,108'120,108'122
/LE[G7],0,0,0,116.175
/ZF[H7],117'240,117'222,117'222,117'240
/GF[H7],0,0,0,123.900
/ZN[H7],124'065,124'040,124'045,124'070
/ZB[H7],150'07,150'02,150'05,150'08
/KC[H7],0,0,0,151.15
/UB[H7],159'30,159'23,159'27,159'27
/OJ[H7],0,0,0,177.85
/ZO[H7],245.00,243.00,245.00,243.75
/LBS[H7],0,0,0,324.2
/ZM[H7],335.1,333.7,334.7,334.4
/ZC[H7],359.50,358.25,358.50,357.75
/XC[H7],359.125,358.250,358.250,357.750
/ZW[H7],416.25,414.00,414.00,414.00
/XW[H7],414.500,414.000,414.000,414.000
/KE[H7],427.50,426.25,426.25,425.75
/PA[H7],753.95,738.90,739.60,738.45
/PL[J7],996.0,989.6,991.8,993.5
/ZS[H7],1024.75,1020.50,1023.00,1022.75
/XK[H7],1024.250,1020.375,1022.375,1022.750
/GC[J7],1199.5,1195.6,1197.7,1196.0
/YG[J7],1199.1,1197.8,1198.2,1196.0
/TF[H7],1350.2,1349.2,1349.8,1349.9
/EMD[H7],1680.8,1679.1,1680.6,1680.6
/CC[H7],0,0,0,2078
/ES[H7],2276.75,2274.50,2275.75,2276.00
/NQ[H7],5124.25,5120.50,5123.50,5124.50
/NKD[H7],19220,19115,19200,19210
/YM[H7],19891,19876,19883,19888
