﻿Watchlist 'FUTURES'

FUTURES
Symbol,High,Low,Open,Close
/6J[H7],.008871,.0088215,.0088595,.0088595
/J7[H7],.008870,.008822,.008858,.0088595
/6M[H7],.04899,.04853,.04888,.04878
/6N[H7],.7186,.7159,.7182,.7175
/6C[H7],.76490,.76225,.76410,.76325
/6A[H7],.7688,.7656,.7670,.7655
/M6A[H7],.7687,.7655,.7668,.7655
/6S[H7],.9998,.9963,.9988,.9978
/6E[H7],1.06415,1.05995,1.06280,1.06145
/E7[H7],1.0641,1.0600,1.0629,1.06145
/M6E[H7],1.0640,1.0600,1.0627,1.0615
/6B[H7],1.2488,1.2413,1.2425,1.2417
/M6B[H7],1.2486,1.2414,1.2423,1.2417
/RB[H7],1.5295,1.4976,1.5152,1.5166
/HO[H7],1.6546,1.6365,1.6417,1.6364
/HG[H7],2.7530,2.7000,2.7070,2.7070
/NG[H7],2.826,2.745,2.791,2.834
/QG[H7],2.815,2.745,2.790,2.834
/VX[H7],13.25,12.85,13.25,13.125
/SI[H7],18.060,17.910,17.995,18.030
/YI[H7],0,0,0,18.030
/SB[H7],20.42,20.16,20.39,20.30
/ZL[H7],0,0,0,32.89
/QM[J7],54.250,53.725,53.850,53.775
/CL[J7],54.24,53.72,53.90,53.78
/BZ[J7],56.40,55.71,55.91,55.81
/HE[J7],0,0,0,70.775
/CT[K7],0,0,0,75.52
/GE[H7],98.910,98.900,98.910,98.9075
/GLB[H7],0,0,0,99.1775
/ZQ[J7],99.295,99.290,99.295,99.290
/DX[H7],0,0,0,100.951
/ZT[H7],108'145,108'135,108'145,108'140
/LE[J7],0,0,0,114.925
/ZF[H7],117'302,117'270,117'297,117'295
/GF[H7],0,0,0,124.075
/ZN[H7],124'240,124'180,124'220,124'225
/KC[K7],150.35,147.20,148.30,149.55
/ZB[H7],151'15,150'30,151'14,151'08
/UB[H7],161'06,160'17,161'05,161'00
/OJ[H7],176.45,173.60,175.45,176.25
/ZO[H7],0,0,0,256.75
/ZM[H7],0,0,0,339.6
/LBS[H7],0,0,0,363.3
/ZC[H7],0,0,0,368.25
/XC[H7],0,0,0,368.250
/ZW[H7],0,0,0,441.00
/XW[H7],0,0,0,441.000
/KE[H7],0,0,0,456.25
/PA[H7],780.30,765.05,774.85,779.20
/PL[J7],1008.8,1000.2,1006.5,1006.0
/ZS[H7],0,0,0,1032.50
/XK[H7],0,0,0,1032.500
/GC[J7],1240.2,1232.4,1236.4,1239.1
/YG[J7],0,0,0,1239.1
/TF[H7],0,0,0,1397.6
/EMD[H7],1741.0,1731.9,1733.0,1733.3
/CC[K7],2060,1988,2047,2000
/ES[H7],2356.75,2346.00,2346.50,2348.00
/NQ[H7],5345.50,5320.50,5323.50,5325.75
/NKD[H7],19310,19125,19140,19150
/YM[H7],20671,20568,20583,20588
