﻿Watchlist 'FUTURES'

FUTURES
Symbol,High,Low,Open,Close
/6J[H7],.0088975,.008840,.008871,.008881
/J7[H7],.008894,.008840,.008869,.008881
/6M[H7],.04852,.04838,.04851,.04852
/6N[H7],.7288,.7257,.7279,.7282
/6A[H7],.7655,.7633,.7651,.7654
/M6A[H7],.7656,.7633,.7650,.7654
/6C[H7],.76825,.76715,.76785,.76775
/6S[H7],1.0101,1.0079,1.0091,1.0093
/6E[H7],1.07865,1.07595,1.07775,1.07785
/E7[H7],1.0787,1.0761,1.0776,1.0779
/M6E[H7],1.0786,1.0761,1.0779,1.0779
/6B[H7],1.2541,1.2518,1.2540,1.2532
/M6B[H7],1.2541,1.2518,1.2536,1.2532
/RB[H7],1.5467,1.5347,1.5360,1.5329
/HO[H7],1.6645,1.6550,1.6586,1.6518
/HG[H7],2.6940,2.6380,2.6825,2.6855
/QG[H7],3.200,3.165,3.195,3.185
/NG[H7],3.201,3.165,3.193,3.187
/VX[G7],13.10,12.88,12.92,12.925
/SI[H7],17.495,17.290,17.485,17.429
/YI[H7],17.404,17.030,17.385,17.429
/SB[H7],0,0,0,20.55
/ZL[H7],34.69,34.34,34.55,34.59
/CL[H7],53.95,53.68,53.68,53.54
/QM[H7],53.925,53.675,53.675,53.540
/BZ[J7],56.95,56.68,56.83,56.56
/HE[G7],0,0,0,70.350
/CT[H7],76.87,76.55,76.74,76.91
/GE[H7],98.935,98.930,98.935,98.930
/GLB[G7],0,0,0,99.2225
/DX[H7],99.980,99.710,99.825,99.788
/ZT[H7],108'127,108'120,108'127,108'130
/LE[G7],0,0,0,116.875
/ZF[H7],117'257,117'232,117'255,117'262
/GF[H7],0,0,0,123.750
/ZN[H7],124'115,124'070,124'110,124'120
/KC[H7],0,0,0,145.95
/ZB[H7],150'16,150'07,150'16,150'18
/UB[H7],159'27,159'15,159'24,159'30
/OJ[H7],0,0,0,166.40
/ZO[H7],256.50,252.75,254.75,255.00
/ZM[H7],336.0,333.2,333.9,333.8
/LBS[H7],0,0,0,347.9
/ZC[H7],367.75,365.50,365.75,367.50
/XC[H7],367.750,366.000,366.375,367.500
/ZW[H7],435.00,432.50,434.50,434.50
/XW[H7],434.750,432.875,434.500,434.500
/KE[H7],443.75,442.25,443.25,443.50
/PA[H7],760.95,754.50,758.50,759.05
/PL[J7],1003.9,992.5,1003.9,999.6
/ZS[H7],1044.25,1034.00,1036.75,1037.25
/XK[H7],1044.000,1034.500,1036.875,1037.250
/GC[J7],1218.6,1212.7,1217.8,1219.4
/YG[J7],1218.1,1212.0,1215.2,1219.4
/TF[H7],1354.7,1350.2,1354.7,1354.4
/EMD[H7],1681.8,1678.0,1681.6,1682.2
/CC[H7],0,0,0,2084
/ES[H7],2275.75,2270.50,2274.00,2275.40
/NQ[H7],5132.25,5119.75,5129.50,5131.00
/NKD[H7],19110,18845,19090,19075
/YM[H7],19825,19783,19818,19821
/ZQ[J7],99.300,99.295,99.295,<empty>
