﻿Watchlist 'FUTURES'

FUTURES
Symbol,High,Low,Open,Close
/6J[H7],.008712,.008554,.008686,.0085665
/J7[H7],.008710,.008555,.008682,.008673
/6M[H7],.04670,.04610,.04623,.04669
/6N[H7],.7030,.6941,.7006,.6951
/6A[H7],.7344,.7278,.7328,.7293
/M6A[H7],.7344,.7278,.7327,.7322
/6C[H7],.75940,.75420,.75650,.75585
/6S[H7],.9942,.9852,.9940,.9856
/6E[H7],1.06595,1.05540,1.06345,1.05610
/E7[H7],1.0654,1.0554,1.0634,1.0561
/M6E[H7],1.0657,1.0554,1.0634,1.0561
/6B[H7],1.2449,1.2278,1.2432,1.2293
/M6B[H7],1.2442,1.2279,1.2436,1.2427
/RB[G7],1.6583,1.6239,1.6391,1.6340
/HO[G7],1.7146,1.6777,1.6971,1.7032
/HG[H7],2.5480,2.5125,2.5350,2.5460
/NG[G7],3.358,3.214,3.304,3.285
/QG[G7],3.360,3.210,3.300,3.285
/VX[F7],12.875,12.875,12.875,12.875
/SI[H7],16.715,16.260,16.635,16.519
/YI[H7],16.676,16.168,16.666,16.519
/SB[H7],20.84,20.30,20.66,20.75
/ZL[H7],35.35,34.86,35.22,34.98
/CL[G7],54.32,53.32,53.73,53.99
/QM[G7],54.300,53.325,53.750,53.990
/BZ[H7],57.46,56.30,56.88,57.10
/HE[G7],65.150,63.575,65.150,63.975
/CT[H7],74.19,72.90,73.93,73.99
/GE[H7],98.945,98.920,98.945,98.925
/GLB[G7],0,0,0,99.2325
/ZQ[F7],99.355,99.3525,99.355,99.3525
/DX[H7],102.300,101.395,101.540,102.209
/ZT[H7],108'142,108'085,108'127,108'092
/LE[G7],115.200,113.975,114.725,114.825
/ZF[H7],118'080,117'187,118'012,117'205
/ZN[H7],125'105,124'100,124'305,124'130
/GF[F7],128.800,127.750,128.250,128.325
/KC[H7],144.50,142.05,143.50,142.85
/ZB[H7],153'09,151'19,152'28,151'25
/UB[H7],163'29,161'24,163'18,161'31
/OJ[H7],189.10,181.50,189.10,182.80
/ZO[H7],238.75,226.50,235.50,228.00
/ZM[H7],318.9,310.7,318.0,311.3
/LBS[F7],317.2,312.7,315.0,315.3
/ZC[H7],362.50,356.75,360.75,358.00
/XC[H7],362.500,356.750,361.000,361.250
/ZW[H7],428.00,421.75,425.75,423.25
/XW[H7],427.875,422.000,425.375,423.250
/KE[H7],438.75,432.50,433.75,433.50
/PA[H7],759.80,735.55,739.80,758.35
/PL[J7],974.8,961.4,972.6,970.6
/ZS[H7],1014.75,993.50,1012.50,994.75
/XK[H7],1015.000,993.500,1012.375,994.750
/GC[G7],1183.8,1171.1,1181.0,1173.4
/YG[G7],1184.0,1171.0,1179.9,1173.4
/TF[H7],1375.9,1362.0,1369.6,1365.1
/EMD[H7],1688.3,1676.4,1682.5,1679.4
/CC[H7],2291,2245,2263,2261
/ES[H7],2277.00,2258.25,2264.25,2271.50
/NQ[H7],5017.50,4952.50,4962.50,5004.00
/NKD[H7],19675,19375,19480,19635
/YM[H7],19925,19760,19821,19897
