﻿Watchlist 'FUTURES'

FUTURES
Symbol,High,Low,Open,Close
/6J[H7],.008901,.008868,.008895,.0088635
/J7[H7],.008901,.008869,.008899,.008864
/6M[H7],.04659,.04637,.04638,.04644
/6N[H7],.7249,.7222,.7239,.7211
/6C[H7],.75670,.75545,.75635,.75520
/6A[H7],.7594,.7570,.7589,.7566
/M6A[H7],.7599,.7570,.7599,.7566
/6S[H7],1.0067,1.0049,1.0061,1.0041
/6E[H7],1.07930,1.07755,1.07900,1.07680
/E7[H7],1.0794,1.0776,1.0792,1.0768
/M6E[H7],1.0794,1.0776,1.0792,1.0768
/6B[H7],1.2554,1.2523,1.2550,1.2514
/M6B[H7],1.2553,1.2525,1.2553,1.2514
/RB[G7],1.5786,1.5745,1.5747,1.5667
/HO[G7],1.6341,1.6302,1.6303,1.6265
/HG[H7],2.6475,2.6405,2.6470,2.6475
/NG[G7],3.283,3.273,3.280,3.243
/QG[G7],3.280,3.275,3.275,3.245
/VX[G7],13.67,13.55,13.60,13.575
/SI[H7],17.265,17.205,17.250,17.186
/YI[H7],17.165,17.165,17.165,17.186
/SB[H7],0,0,0,20.64
/ZL[H7],35.26,35.20,35.26,35.13
/CL[H7],52.92,52.84,52.86,52.75
/QM[H7],52.925,52.850,52.850,52.750
/BZ[H7],55.54,55.39,55.39,55.23
/HE[G7],0,0,0,65.000
/CT[H7],0,0,0,74.63
/GE[H7],98.925,98.920,98.920,98.915
/GLB[G7],0,0,0,99.2250
/ZQ[F7],0,0,0,99.3525
/DX[H7],100.015,99.980,99.980,100.130
/ZT[H7],108'152,108'145,108'152,108'147
/ZF[H7],118'020,118'000,118'015,118'010
/LE[G7],0,0,0,120.250
/ZN[H7],124'280,124'245,124'275,124'260
/GF[F7],0,0,0,132.775
/ZB[H7],152'05,151'27,152'02,152'00
/KC[H7],0,0,0,155.40
/OJ[H7],0,0,0,162.45
/UB[H7],162'18,162'07,162'16,162'16
/ZO[H7],256.75,256.75,256.75,260.00
/LBS[H7],0,0,0,321.5
/ZM[H7],344.6,343.8,344.0,343.5
/ZC[H7],369.50,369.00,369.25,369.50
/XC[H7],369.125,368.750,368.750,369.500
/ZW[H7],433.25,432.75,433.00,433.25
/XW[H7],433.000,433.000,433.000,433.250
/KE[H7],444.25,443.75,443.75,444.75
/PA[H7],778.80,777.60,778.80,771.50
/PL[J7],986.5,983.6,984.8,979.9
/ZS[H7],1061.75,1059.50,1059.75,1057.75
/XK[H7],1060.750,1059.250,1059.250,1057.750
/GC[G7],1220.1,1216.3,1218.0,1215.6
/YG[G7],1216.6,1215.8,1216.6,1215.6
/TF[H7],1347.9,1347.0,1347.1,1347.4
/EMD[H7],1671.3,1670.7,1671.3,1669.6
/CC[H7],0,0,0,2165
/ES[H7],2262.75,2260.50,2260.75,2262.00
/NQ[H7],5066.25,5061.75,5063.75,5063.50
/NKD[H7],18900,18815,18875,18940
/YM[H7],19741,19725,19725,19735
