﻿Watchlist 'FUTURES'

FUTURES
Symbol,High,Low,Open,Close
/6J[H7],.0088645,.0088305,.008838,.008857
/J7[H7],.008863,.008832,.008838,.008857
/6M[H7],.04811,.04796,.04804,.04795
/6N[H7],.7286,.7235,.7249,.7274
/6A[H7],.7616,.7571,.7575,.7582
/M6A[H7],.7617,.7571,.7573,.7582
/6C[H7],.76825,.76650,.76680,.76685
/6S[H7],1.0105,1.0081,1.0087,1.0102
/6E[H7],1.07985,1.07775,1.07835,1.07930
/E7[H7],1.0799,1.0780,1.0784,1.0793
/M6E[H7],1.0797,1.0777,1.0783,1.0793
/6B[H7],1.2687,1.2663,1.2665,1.2685
/M6B[H7],1.2688,1.2669,1.2669,1.2685
/RB[H7],1.5800,1.5781,1.5799,1.5791
/HO[H7],1.6724,1.6683,1.6709,1.6740
/HG[H7],2.7190,2.7110,2.7135,2.7115
/NG[H7],3.177,3.160,3.174,3.168
/QG[H7],3.180,3.160,3.170,3.168
/VX[G7],12.80,12.67,12.70,12.675
/SI[H7],17.625,17.540,17.565,17.450
/YI[H7],0,0,0,17.450
/SB[H7],20.88,20.45,20.50,20.84
/ZL[H7],0,0,0,34.31
/CL[H7],53.60,53.50,53.57,53.88
/QM[H7],53.600,53.500,53.550,53.880
/BZ[J7],56.53,56.44,56.53,56.80
/HE[G7],0,0,0,69.425
/CT[H7],0,0,0,76.44
/GE[H7],98.935,98.930,98.935,98.925
/GLB[G7],0,0,0,99.2200
/DX[H7],0,0,0,99.608
/ZT[H7],108'125,108'117,108'122,108'127
/LE[G7],0,0,0,115.575
/ZF[H7],117'260,117'230,117'245,117'252
/GF[H7],0,0,0,122.075
/ZN[H7],124'125,124'075,124'100,124'105
/KC[H7],151.70,147.55,149.55,149.55
/ZB[H7],150'20,150'14,150'17,150'14
/UB[H7],160'03,159'27,159'31,159'30
/OJ[H7],174.40,168.85,173.00,171.35
/ZO[H7],0,0,0,250.75
/ZM[H7],0,0,0,336.0
/LBS[H7],0,0,0,337.9
/ZC[H7],0,0,0,368.25
/XC[H7],0,0,0,368.250
/ZW[H7],0,0,0,433.75
/XW[H7],0,0,0,433.750
/KE[H7],0,0,0,440.50
/PA[H7],765.50,762.00,764.45,762.90
/PL[J7],1007.0,1001.2,1001.2,999.8
/ZS[H7],0,0,0,1036.75
/XK[H7],0,0,0,1036.750
/GC[J7],1215.8,1210.2,1211.2,1208.3
/YG[J7],0,0,0,1208.3
/TF[H7],0,0,0,1359.9
/EMD[H7],1678.8,1678.8,1678.8,1681.1
/CC[H7],2150,2095,2098,2109
/ES[H7],2275.25,2270.50,2275.00,2274.50
/NQ[H7],5147.75,5135.25,5147.75,5148.50
/NKD[H7],19215,19110,19200,19195
/YM[H7],19828,19788,19826,19816
/ZQ[J7],99.300,99.300,99.300,<empty>
