﻿Watchlist 'FUTURES'

FUTURES
Symbol,High,Low,Open,Close
/6J[H7],.008836,.0088215,.0088325,.0088455
/J7[H7],.008834,.008823,.008832,.008846
/6M[H7],.04892,.04882,.04892,.04900
/6N[H7],.7212,.7196,.7210,.7228
/6C[H7],.76525,.76420,.76525,.76530
/6A[H7],.7695,.7681,.7691,.7690
/M6A[H7],.7695,.7681,.7688,.7690
/6S[H7],1.0043,1.0030,1.0041,1.0040
/6E[H7],1.06840,1.06710,1.06790,1.06850
/E7[H7],1.0683,1.0671,1.0678,1.0685
/M6E[H7],1.0683,1.0672,1.0678,1.0685
/6B[H7],1.2494,1.2484,1.2487,1.2501
/M6B[H7],1.2495,1.2486,1.2493,1.2501
/RB[H7],1.5250,1.5215,1.5230,1.5247
/HO[H7],1.6274,1.6254,1.6270,1.6291
/HG[H7],2.7130,2.7040,2.7105,2.7185
/NG[H7],2.857,2.835,2.840,2.854
/QG[H7],2.855,2.835,2.840,2.854
/VX[G7],0,0,0,12.26
/SI[H7],18.095,18.045,18.075,18.074
/YI[H7],0,0,0,18.074
/SB[H7],20.55,20.05,20.55,20.36
/ZL[H7],0,0,0,33.52
/QM[H7],53.525,53.400,53.450,53.350
/CL[H7],53.48,53.37,53.47,53.36
/BZ[J7],55.74,55.67,55.67,55.65
/HE[J7],0,0,0,69.825
/CT[H7],0,0,0,75.01
/GE[H7],98.9025,98.900,98.900,98.900
/GLB[H7],0,0,0,99.1725
/ZQ[J7],99.285,99.285,99.285,99.285
/DX[H7],0,0,0,100.430
/ZT[H7],108'125,108'117,108'122,108'122
/LE[J7],0,0,0,113.250
/ZF[H7],117'242,117'222,117'240,117'240
/GF[H7],0,0,0,123.825
/ZN[H7],124'145,124'120,124'140,124'145
/KC[H7],146.65,145.00,145.00,146.30
/ZB[H7],150'27,150'22,150'25,150'26
/UB[H7],160'15,160'07,160'10,160'14
/OJ[H7],177.70,173.00,173.60,174.50
/ZO[H7],0,0,0,255.75
/ZM[H7],0,0,0,342.0
/LBS[H7],0,0,0,361.3
/ZC[H7],0,0,0,373.50
/XC[H7],0,0,0,373.500
/ZW[H7],0,0,0,447.75
/XW[H7],0,0,0,447.750
/KE[H7],0,0,0,458.00
/PA[H7],792.85,789.20,792.65,793.30
/PL[J7],1017.3,1013.7,1016.5,1015.7
/ZS[H7],0,0,0,1043.75
/XK[H7],0,0,0,1043.750
/GC[J7],1240.9,1238.5,1240.8,1241.6
/YG[J7],0,0,0,1241.6
/TF[H7],0,0,0,1399.0
/EMD[H7],1730.5,1730.0,1730.5,1731.9
/CC[K7],2057,1986,1989,2042
/ES[H7],2345.50,2343.00,2345.00,2345.60
/NQ[H7],5300.75,5294.25,5300.25,5300.50
/NKD[H7],19295,19180,19275,19290
/YM[H7],20594,20570,20594,20594
