﻿Watchlist 'FUTURES'

FUTURES
Symbol,High,Low,Open,Close
/6J[M7],.0088595,.008844,.008851,.0088525
/J7[M7],.008857,.008844,.008852,.008853
/6M[M7],.05137,.05124,.05134,.05121
/6N[M7],.7009,.6992,.6997,.7012
/6C[M7],.75325,.75265,.75280,.75115
/6A[M7],.7695,.7683,.7689,.7676
/M6A[M7],.7699,.7683,.7691,.7676
/6S[M7],1.0058,1.0043,1.0056,1.0052
/6E[M7],1.07885,1.07775,1.07825,1.07530
/E7[M7],1.0788,1.0778,1.0784,1.0753
/M6E[M7],1.0789,1.0777,1.0784,1.0753
/6B[M7],1.2332,1.2307,1.2321,1.2321
/M6B[M7],1.2327,1.2308,1.2320,1.2321
/HO[J7],1.5188,1.5133,1.5133,1.5124
/RB[J7],1.5944,1.5883,1.5895,1.5834
/HG[K7],2.6710,2.6665,2.6695,2.6565
/QG[J7],2.980,2.965,2.980,2.980
/NG[J7],2.976,2.963,2.974,2.981
/VX[H7],12.30,12.15,12.25,12.275
/SI[K7],17.350,17.300,17.345,16.923
/ZL[K7],32.30,32.26,32.30,32.22
/QM[J7],49.175,49.025,49.025,48.850
/CL[J7],49.20,49.01,49.01,48.86
/BZ[K7],52.15,52.07,52.09,51.81
/HE[J7],0,0,0,70.075
/GE[M7],98.685,98.680,98.680,98.675
/GLB[J7],0,0,0,99.0000
/ZQ[J7],99.105,99.105,99.105,99.110
/ZT[M7],108'017,108'015,108'017,108'007
/ZF[M7],117'070,117'060,117'070,117'050
/LE[J7],0,0,0,117.700
/ZN[M7],123'260,123'235,123'255,123'235
/GF[H7],0,0,0,129.225
/ZB[M7],148'15,148'09,148'15,148'09
/UB[M7],157'29,157'20,157'29,157'25
/ZO[K7],257.50,257.00,257.00,257.25
/ZM[K7],328.0,327.8,328.0,327.6
/ZC[K7],364.25,363.50,363.50,363.50
/XC[K7],363.875,363.000,363.000,363.500
/LBS[K7],0,0,0,365.5
/ZW[K7],436.50,435.75,436.00,436.00
/XW[K7],0,0,0,436.000
/KE[K7],448.00,447.50,448.00,447.25
/PA[M7],764.05,760.80,761.40,745.45
/PL[J7],959.4,953.3,955.0,936.8
/ZS[K7],1000.50,999.00,1000.00,998.00
/XK[K7],1000.250,999.750,999.750,998.000
/GC[J7],1220.9,1218.1,1219.5,1200.7
/EMD[M7],1727.4,1723.4,1724.6,1729.5
/ES[M7],2382.25,2378.25,2379.25,2380.50
/NQ[M7],5422.50,5415.00,5417.00,5419.25
/NKD[M7],19485,19375,19450,19440
/YM[M7],20909,20883,20885,20898
/TF[M7],<empty>,<empty>,<empty>,<empty>
/YG[J7],<empty>,<empty>,<empty>,<empty>
/YI[K7],<empty>,<empty>,<empty>,<empty>
/DX[M7],<empty>,<empty>,<empty>,<empty>
/CC[K7],<empty>,<empty>,<empty>,<empty>
/CT[K7],<empty>,<empty>,<empty>,<empty>
/SB[K7],<empty>,<empty>,<empty>,<empty>
/OJ[K7],<empty>,<empty>,<empty>,<empty>
/KC[K7],<empty>,<empty>,<empty>,<empty>
