﻿Watchlist 'FUTURES'

FUTURES
Symbol,High,Low,Open,Close
/6J[H7],.0087685,.0087365,.008743,.008734
/J7[H7],.008767,.008738,.008742,.008734
/6M[H7],.05000,.04988,.04996,.04993
/6N[H7],.7064,.7030,.7058,.7060
/6C[H7],.74730,.74635,.74695,.74680
/6A[H7],.7573,.7542,.7570,.7566
/M6A[H7],.7574,.7541,.7571,.7566
/6S[H7],.9881,.9868,.9870,.9865
/6E[H7],1.05260,1.05055,1.05080,1.05045
/E7[H7],1.0526,1.0505,1.0516,1.0505
/M6E[H7],1.0527,1.0506,1.0515,1.0505
/6B[H7],1.2284,1.2260,1.2269,1.2263
/M6B[H7],1.2285,1.2262,1.2269,1.2263
/HO[J7],1.5854,1.5750,1.5750,1.5791
/RB[J7],1.6484,1.6390,1.6424,1.6433
/HG[K7],2.6930,2.6775,2.6870,2.6905
/NG[J7],2.823,2.775,2.816,2.804
/QG[J7],2.825,2.780,2.815,2.804
/VX[H7],13.30,13.20,13.25,13.275
/SI[K7],17.870,17.760,17.800,17.748
/YI[K7],17.829,17.756,17.800,17.748
/SB[K7],0,0,0,19.66
/ZL[K7],34.32,34.02,34.16,34.13
/CL[J7],52.80,52.55,52.58,52.61
/QM[J7],52.800,52.550,52.550,52.610
/BZ[K7],55.26,55.09,55.18,55.08
/HE[J7],0,0,0,68.275
/CT[K7],77.00,76.66,76.78,76.78
/GE[H7],98.8475,98.845,98.8475,98.8475
/GLB[H7],0,0,0,99.0925
/ZQ[J7],99.155,99.150,99.150,99.150
/DX[H7],102.120,102.015,102.080,102.204
/ZT[M7],108'005,107'312,107'317,107'312
/LE[J7],0,0,0,116.150
/ZF[M7],117'015,116'307,117'002,116'302
/GF[H7],0,0,0,123.450
/ZN[M7],123'205,123'165,123'190,123'160
/KC[K7],0,0,0,144.35
/ZB[M7],149'13,149'04,149'09,149'03
/UB[M7],158'28,158'16,158'21,158'14
/OJ[K7],0,0,0,164.20
/ZO[K7],238.25,237.50,237.50,238.25
/ZM[K7],335.1,333.0,334.8,334.8
/LBS[H7],0,0,0,355.7
/ZC[K7],379.75,377.75,378.00,379.50
/XC[K7],379.750,378.000,378.625,379.500
/ZW[K7],451.75,450.25,451.50,452.75
/XW[K7],451.250,450.000,450.375,452.750
/KE[K7],469.50,468.50,469.00,470.25
/PA[M7],770.85,767.15,767.50,769.75
/PL[J7],995.7,986.0,988.5,989.9
/ZS[K7],1041.00,1036.50,1037.00,1037.25
/XK[K7],1040.500,1037.000,1037.250,1037.250
/GC[J7],1236.6,1231.8,1234.8,1232.9
/YG[J7],1234.2,1231.8,1233.8,1232.9
/TF[H7],1392.7,1387.6,1391.5,1393.6
/EMD[H7],1736.8,1730.7,1736.8,1737.2
/CC[K7],0,0,0,1928
/ES[H7],2380.75,2374.50,2379.75,2381.90
/NQ[H7],5361.25,5345.25,5358.75,5364.75
/NKD[H7],19590,19425,19570,19565
/YM[H7],20998,20928,20984,21006
