﻿Watchlist 'FUTURES'

FUTURES
Symbol,High,Low,Open,Close
/6J[H7],.008796,.008761,.008793,.008798
/J7[H7],.008793,.008762,.008792,.008798
/6M[H7],.05045,.05029,.05045,.05033
/6N[H7],.7146,.7110,.7144,.7139
/6C[H7],.75040,.74850,.75040,.74890
/6A[H7],.7680,.7642,.7680,.7672
/M6A[H7],.7680,.7643,.7680,.7672
/6S[H7],.9919,.9899,.9917,.9915
/6E[H7],1.05545,1.05320,1.05510,1.05480
/E7[H7],1.0553,1.0533,1.0553,1.0548
/M6E[H7],1.0554,1.0532,1.0554,1.0548
/6B[H7],1.2304,1.2263,1.2304,1.2284
/M6B[H7],1.2301,1.2263,1.2298,1.2284
/HO[J7],1.6340,1.6234,1.6267,1.6241
/RB[J7],1.6730,1.6624,1.6650,1.6780
/HG[K7],2.7450,2.7310,2.7380,2.7360
/NG[J7],2.799,2.791,2.791,2.799
/QG[J7],2.800,2.790,2.790,2.800
/VX[H7],13.35,13.25,13.28,13.275
/SI[K7],18.480,18.425,18.465,18.489
/YI[K7],18.471,18.428,18.471,18.489
/SB[K7],0,0,0,19.48
/ZL[K7],34.64,34.43,34.64,34.74
/CL[J7],53.78,53.68,53.69,53.83
/QM[J7],53.775,53.675,53.675,53.830
/BZ[K7],56.35,56.30,56.31,56.36
/HE[J7],0,0,0,68.425
/CT[K7],77.77,77.63,77.70,77.86
/GE[H7],98.8475,98.835,98.8475,98.8475
/GLB[H7],0,0,0,99.1025
/ZQ[J7],99.170,99.160,99.170,99.175
/DX[H7],101.935,101.790,101.810,101.780
/ZT[M7],108'020,108'002,108'017,108'015
/ZF[M7],117'055,117'012,117'055,117'042
/LE[J7],0,0,0,117.575
/ZN[M7],123'255,123'195,123'255,123'230
/GF[H7],0,0,0,124.500
/KC[K7],0,0,0,144.80
/ZB[M7],149'23,149'13,149'23,149'14
/UB[M7],159'03,158'22,159'02,158'23
/OJ[K7],0,0,0,161.35
/ZO[K7],248.00,245.75,245.75,246.50
/ZM[K7],339.8,338.6,339.3,339.3
/LBS[H7],0,0,0,361.5
/ZC[K7],382.00,381.00,381.50,382.00
/XC[K7],381.875,381.000,381.000,382.000
/ZW[K7],459.25,456.75,457.00,457.00
/XW[K7],459.250,455.000,455.000,457.000
/KE[K7],478.75,476.25,476.75,477.25
/PA[M7],776.90,773.75,776.25,779.00
/PL[J7],1020.5,1016.6,1018.9,1018.9
/ZS[K7],1051.00,1047.50,1050.00,1051.75
/XK[K7],1050.500,1047.500,1049.250,1051.750
/GC[J7],1250.8,1246.5,1249.9,1250.0
/YG[J7],1248.4,1246.3,1248.3,1250.0
/TF[H7],1412.5,1409.8,1411.9,1412.4
/EMD[H7],1756.4,1754.3,1754.7,1757.0
/CC[K7],0,0,0,1897
/ES[H7],2394.00,2391.25,2392.25,2393.50
/NQ[H7],5389.00,5380.75,5382.75,5386.00
/NKD[H7],19685,19605,19605,19575
/YM[H7],21107,21074,21074,21091
