﻿Watchlist 'FUTURES'

FUTURES
Symbol,High,Low,Open,Close
/6J[M7],.008780,.008767,.008775,.008778
/J7[M7],.008776,.008768,.008775,.008778
/6M[M7],.05016,.05009,.05011,.05015
/6N[M7],.6899,.6889,.6891,.6897
/6C[M7],.74250,.74190,.74210,.74210
/6A[M7],.7516,.7507,.7509,.7522
/M6A[M7],.7515,.7508,.7511,.7522
/6S[M7],.9918,.9908,.9908,.9916
/6E[M7],1.05975,1.05870,1.05900,1.05990
/E7[M7],1.0597,1.0591,1.0592,1.0599
/M6E[M7],1.0596,1.0587,1.0590,1.0599
/6B[M7],1.2208,1.2194,1.2196,1.2200
/M6B[M7],1.2206,1.2194,1.2197,1.2200
/HO[J7],1.5620,1.5533,1.5533,1.5567
/RB[J7],1.6566,1.6471,1.6471,1.6526
/HG[K7],2.5920,2.5880,2.5900,2.6005
/NG[J7],2.925,2.913,2.913,2.901
/QG[J7],2.920,2.915,2.915,2.901
/VX[H7],12.72,12.65,12.70,12.675
/SI[K7],17.285,17.250,17.255,17.298
/YI[K7],0,0,0,17.298
/SB[K7],18.56,18.14,18.41,18.40
/ZL[K7],0,0,0,33.54
/CL[J7],50.64,50.19,50.22,50.28
/QM[J7],50.625,50.225,50.225,50.280
/BZ[K7],53.53,53.13,53.13,53.11
/HE[J7],0,0,0,68.425
/CT[K7],0,0,0,78.09
/GE[H7],98.8675,98.865,98.8675,98.870
/GLB[H7],0,0,0,99.0875
/ZQ[J7],99.125,99.125,99.125,99.125
/DX[H7],0,0,0,102.076
/ZT[M7],107'292,107'285,107'285,107'290
/LE[J7],0,0,0,115.975
/ZF[M7],116'235,116'215,116'220,116'240
/ZN[M7],123'030,123'000,123'015,123'045
/GF[H7],0,0,0,124.375
/KC[K7],142.55,139.65,141.00,141.75
/ZB[M7],147'29,147'23,147'26,147'29
/UB[M7],156'24,156'17,156'20,156'25
/OJ[K7],177.20,174.00,175.00,174.80
/ZO[K7],0,0,0,243.75
/ZM[K7],0,0,0,331.1
/LBS[H7],0,0,0,356.7
/ZC[K7],0,0,0,372.25
/XC[K7],0,0,0,372.250
/ZW[K7],0,0,0,447.00
/XW[K7],0,0,0,447.000
/KE[K7],0,0,0,466.00
/PA[M7],771.00,769.40,769.40,770.40
/PL[J7],952.0,949.0,949.0,949.5
/ZS[K7],0,0,0,1021.75
/XK[K7],0,0,0,1021.750
/GC[J7],1208.9,1207.1,1207.7,1209.4
/YG[J7],0,0,0,1209.4
/TF[H7],0,0,0,1364.3
/EMD[H7],1712.0,1709.8,1709.8,1709.8
/CC[K7],1922,1896,1902,1912
/ES[H7],2365.75,2362.75,2363.75,2364.10
/NQ[H7],5366.25,5359.75,5362.25,5363.00
/NKD[M7],19330,19240,19250,19270
/YM[H7],20879,20855,20859,20868
