﻿Watchlist 'FUTURES'

FUTURES
Symbol,High,Low,Open,Close
/6J[H7],.0087695,.008680,.008708,.008726
/J7[H7],.008769,.008681,.008706,.008765
/6M[H7],.04613,.04514,.04518,.04594
/6N[H7],.7215,.7119,.7168,.7165
/6C[H7],.75315,.74730,.75100,.75170
/6A[H7],.7580,.7509,.7547,.7553
/M6A[H7],.7579,.7509,.7547,.7553
/6S[H7],1.0013,.9933,.9967,1.0010
/6E[H7],1.07325,1.06470,1.06830,1.06820
/E7[H7],1.0732,1.0648,1.0683,1.0730
/M6E[H7],1.0731,1.0647,1.0679,1.0730
/6B[H7],1.2394,1.2273,1.2349,1.2392
/M6B[H7],1.2391,1.2275,1.2351,1.2392
/RB[G7],1.5794,1.5354,1.5455,1.5345
/HO[G7],1.6647,1.6161,1.6197,1.6459
/HG[H7],2.6450,2.5875,2.6120,2.6250
/NG[G7],3.347,3.189,3.301,3.204
/QG[G7],3.345,3.180,3.305,3.204
/VX[G7],13.85,13.85,13.85,13.825
/SI[H7],17.195,16.840,17.025,17.032
/YI[H7],17.139,16.813,17.013,17.032
/SB[H7],20.54,20.05,20.10,20.18
/ZL[H7],35.55,35.11,35.45,35.15
/CL[H7],53.67,52.13,52.20,53.22
/QM[H7],53.675,52.150,52.175,53.220
/BZ[H7],55.79,54.19,54.28,55.49
/HE[G7],65.875,65.025,65.700,65.425
/CT[H7],73.43,72.72,72.86,73.04
/GE[H7],98.905,98.880,98.890,98.895
/GLB[G7],0,0,0,99.2200
/ZQ[F7],99.3525,99.350,99.3525,99.3525
/DX[H7],101.485,100.675,101.195,100.690
/ZT[H7],108'122,108'082,108'092,108'117
/ZF[H7],117'232,117'110,117'162,117'217
/LE[G7],121.025,119.250,120.825,120.250
/ZN[H7],124'095,123'250,124'020,124'055
/GF[F7],133.200,131.700,132.100,133.100
/ZB[H7],151'05,149'30,150'25,150'25
/KC[H7],153.35,150.55,150.55,153.20
/UB[H7],161'11,159'24,160'30,160'29
/OJ[H7],168.25,165.10,167.75,167.70
/ZO[H7],264.50,255.00,258.25,262.75
/LBS[H7],328.4,323.3,327.0,325.5
/ZM[H7],351.0,344.6,348.4,348.7
/ZC[H7],370.00,365.00,366.00,369.75
/XC[H7],369.875,365.375,365.750,369.750
/ZW[H7],428.75,421.50,423.50,423.50
/XW[H7],428.750,420.750,423.000,428.250
/KE[H7],444.50,437.75,442.25,443.00
/PA[H7],794.15,751.00,754.00,788.40
/PL[J7],983.9,956.1,961.6,976.0
/ZS[H7],1071.25,1060.00,1070.00,1067.50
/XK[H7],1071.500,1060.750,1069.250,1067.500
/GC[G7],1214.8,1198.2,1204.8,1201.5
/YG[G7],1214.4,1198.0,1202.6,1204.9
/TF[H7],1356.9,1346.2,1346.8,1352.1
/EMD[H7],1678.9,1666.6,1666.6,1665.4
/CC[H7],2166,2123,2153,2140
/ES[H7],2272.75,2259.75,2261.00,2265.90
/NQ[H7],5083.00,5044.75,5055.50,5058.25
/NKD[H7],19320,19075,19120,19185
/YM[H7],19779,19652,19652,19745
