,bought,bought_index,n,sold,sold_index
0,49.99,20.0,1.0235000000000007,51.8643375,21
1,52.43,22.0,1.2337587500000007,52.418464593749995,23
2,41.04,80.0,2.0551437025401005,35.182308073996644,102
3,36.17,115.0,1.886630359507754,40.00847234610415,122
4,37.26,119.0,1.6262855317588127,40.00847234610415,122
5,37.28,120.0,1.652471255170872,40.00847234610415,122
6,38.98,121.0,1.6758476924123287,40.00847234610415,122
7,40.84,123.0,1.6424025424021267,40.11489085274104,125
8,41.01,129.0,1.4918458647491861,41.82042955353193,131
9,41.38,130.0,1.5022535715117267,41.82042955353193,131
10,42.54,142.0,1.4713188181022494,43.50826456345655,146
11,42.76,144.0,1.36686523333728,43.50826456345655,146
12,44.18,145.0,1.3210219716704161,43.50826456345655,146
13,44.18,149.0,1.275185839812877,44.86378672608888,150
14,45.5,151.0,1.2883052204311216,45.238305020295215,152
15,45.89,153.0,1.3197204614390876,47.146959834686825,156
16,46.11,154.0,1.3177344383671332,47.146959834686825,156
17,46.86,155.0,1.2953477164487766,47.146959834686825,156
